<?xml version="1.0" encoding="utf-8" standalone="no"?>
<!DOCTYPE svg PUBLIC "-//W3C//DTD SVG 1.1//EN"
  "http://www.w3.org/Graphics/SVG/1.1/DTD/svg11.dtd">
<svg xmlns:xlink="http://www.w3.org/1999/xlink" width="864pt" height="288pt" viewBox="0 0 864 288" xmlns="http://www.w3.org/2000/svg" version="1.1">
 <metadata>
  <rdf:RDF xmlns:dc="http://purl.org/dc/elements/1.1/" xmlns:cc="http://creativecommons.org/ns#" xmlns:rdf="http://www.w3.org/1999/02/22-rdf-syntax-ns#">
   <cc:Work>
    <dc:type rdf:resource="http://purl.org/dc/dcmitype/StillImage"/>
    <dc:date>2024-06-21T12:36:36.083122</dc:date>
    <dc:format>image/svg+xml</dc:format>
    <dc:creator>
     <cc:Agent>
      <dc:title>Matplotlib v3.8.0, https://matplotlib.org/</dc:title>
     </cc:Agent>
    </dc:creator>
   </cc:Work>
  </rdf:RDF>
 </metadata>
 <defs>
  <style type="text/css">*{stroke-linejoin: round; stroke-linecap: butt}</style>
 </defs>
 <g id="figure_1">
  <g id="patch_1">
   <path d="M 0 288 
L 864 288 
L 864 0 
L 0 0 
z
" style="fill: #ffffff"/>
  </g>
  <g id="axes_1">
   <g id="patch_2">
    <path d="M 108 256.32 
L 412.363636 256.32 
L 412.363636 34.56 
L 108 34.56 
z
" style="fill: #ffffff"/>
   </g>
   <g id="matplotlib.axis_1">
    <g id="xtick_1">
     <g id="line2d_1">
      <path d="M 121.340614 256.32 
L 121.340614 34.56 
" clip-path="url(#pda2ed653c8)" style="fill: none; stroke: #b0b0b0; stroke-width: 0.8; stroke-linecap: square"/>
     </g>
     <g id="line2d_2">
      <defs>
       <path id="m4bdd58ca30" d="M 0 0 
L 0 3.5 
" style="stroke: #000000; stroke-width: 0.8"/>
      </defs>
      <g>
       <use xlink:href="#m4bdd58ca30" x="121.340614" y="256.32" style="stroke: #000000; stroke-width: 0.8"/>
      </g>
     </g>
     <g id="text_1">
      <!-- 0 -->
      <g transform="translate(118.159364 270.918437) scale(0.1 -0.1)">
       <defs>
        <path id="DejaVuSans-30" d="M 2034 4250 
Q 1547 4250 1301 3770 
Q 1056 3291 1056 2328 
Q 1056 1369 1301 889 
Q 1547 409 2034 409 
Q 2525 409 2770 889 
Q 3016 1369 3016 2328 
Q 3016 3291 2770 3770 
Q 2525 4250 2034 4250 
z
M 2034 4750 
Q 2819 4750 3233 4129 
Q 3647 3509 3647 2328 
Q 3647 1150 3233 529 
Q 2819 -91 2034 -91 
Q 1250 -91 836 529 
Q 422 1150 422 2328 
Q 422 3509 836 4129 
Q 1250 4750 2034 4750 
z
" transform="scale(0.015625)"/>
       </defs>
       <use xlink:href="#DejaVuSans-30"/>
      </g>
     </g>
    </g>
    <g id="xtick_2">
     <g id="line2d_3">
      <path d="M 167.66219 256.32 
L 167.66219 34.56 
" clip-path="url(#pda2ed653c8)" style="fill: none; stroke: #b0b0b0; stroke-width: 0.8; stroke-linecap: square"/>
     </g>
     <g id="line2d_4">
      <g>
       <use xlink:href="#m4bdd58ca30" x="167.66219" y="256.32" style="stroke: #000000; stroke-width: 0.8"/>
      </g>
     </g>
     <g id="text_2">
      <!-- 2 -->
      <g transform="translate(164.48094 270.918437) scale(0.1 -0.1)">
       <defs>
        <path id="DejaVuSans-32" d="M 1228 531 
L 3431 531 
L 3431 0 
L 469 0 
L 469 531 
Q 828 903 1448 1529 
Q 2069 2156 2228 2338 
Q 2531 2678 2651 2914 
Q 2772 3150 2772 3378 
Q 2772 3750 2511 3984 
Q 2250 4219 1831 4219 
Q 1534 4219 1204 4116 
Q 875 4013 500 3803 
L 500 4441 
Q 881 4594 1212 4672 
Q 1544 4750 1819 4750 
Q 2544 4750 2975 4387 
Q 3406 4025 3406 3419 
Q 3406 3131 3298 2873 
Q 3191 2616 2906 2266 
Q 2828 2175 2409 1742 
Q 1991 1309 1228 531 
z
" transform="scale(0.015625)"/>
       </defs>
       <use xlink:href="#DejaVuSans-32"/>
      </g>
     </g>
    </g>
    <g id="xtick_3">
     <g id="line2d_5">
      <path d="M 213.983766 256.32 
L 213.983766 34.56 
" clip-path="url(#pda2ed653c8)" style="fill: none; stroke: #b0b0b0; stroke-width: 0.8; stroke-linecap: square"/>
     </g>
     <g id="line2d_6">
      <g>
       <use xlink:href="#m4bdd58ca30" x="213.983766" y="256.32" style="stroke: #000000; stroke-width: 0.8"/>
      </g>
     </g>
     <g id="text_3">
      <!-- 4 -->
      <g transform="translate(210.802516 270.918437) scale(0.1 -0.1)">
       <defs>
        <path id="DejaVuSans-34" d="M 2419 4116 
L 825 1625 
L 2419 1625 
L 2419 4116 
z
M 2253 4666 
L 3047 4666 
L 3047 1625 
L 3713 1625 
L 3713 1100 
L 3047 1100 
L 3047 0 
L 2419 0 
L 2419 1100 
L 313 1100 
L 313 1709 
L 2253 4666 
z
" transform="scale(0.015625)"/>
       </defs>
       <use xlink:href="#DejaVuSans-34"/>
      </g>
     </g>
    </g>
    <g id="xtick_4">
     <g id="line2d_7">
      <path d="M 260.305342 256.32 
L 260.305342 34.56 
" clip-path="url(#pda2ed653c8)" style="fill: none; stroke: #b0b0b0; stroke-width: 0.8; stroke-linecap: square"/>
     </g>
     <g id="line2d_8">
      <g>
       <use xlink:href="#m4bdd58ca30" x="260.305342" y="256.32" style="stroke: #000000; stroke-width: 0.8"/>
      </g>
     </g>
     <g id="text_4">
      <!-- 6 -->
      <g transform="translate(257.124092 270.918437) scale(0.1 -0.1)">
       <defs>
        <path id="DejaVuSans-36" d="M 2113 2584 
Q 1688 2584 1439 2293 
Q 1191 2003 1191 1497 
Q 1191 994 1439 701 
Q 1688 409 2113 409 
Q 2538 409 2786 701 
Q 3034 994 3034 1497 
Q 3034 2003 2786 2293 
Q 2538 2584 2113 2584 
z
M 3366 4563 
L 3366 3988 
Q 3128 4100 2886 4159 
Q 2644 4219 2406 4219 
Q 1781 4219 1451 3797 
Q 1122 3375 1075 2522 
Q 1259 2794 1537 2939 
Q 1816 3084 2150 3084 
Q 2853 3084 3261 2657 
Q 3669 2231 3669 1497 
Q 3669 778 3244 343 
Q 2819 -91 2113 -91 
Q 1303 -91 875 529 
Q 447 1150 447 2328 
Q 447 3434 972 4092 
Q 1497 4750 2381 4750 
Q 2619 4750 2861 4703 
Q 3103 4656 3366 4563 
z
" transform="scale(0.015625)"/>
       </defs>
       <use xlink:href="#DejaVuSans-36"/>
      </g>
     </g>
    </g>
    <g id="xtick_5">
     <g id="line2d_9">
      <path d="M 306.626919 256.32 
L 306.626919 34.56 
" clip-path="url(#pda2ed653c8)" style="fill: none; stroke: #b0b0b0; stroke-width: 0.8; stroke-linecap: square"/>
     </g>
     <g id="line2d_10">
      <g>
       <use xlink:href="#m4bdd58ca30" x="306.626919" y="256.32" style="stroke: #000000; stroke-width: 0.8"/>
      </g>
     </g>
     <g id="text_5">
      <!-- 8 -->
      <g transform="translate(303.445669 270.918437) scale(0.1 -0.1)">
       <defs>
        <path id="DejaVuSans-38" d="M 2034 2216 
Q 1584 2216 1326 1975 
Q 1069 1734 1069 1313 
Q 1069 891 1326 650 
Q 1584 409 2034 409 
Q 2484 409 2743 651 
Q 3003 894 3003 1313 
Q 3003 1734 2745 1975 
Q 2488 2216 2034 2216 
z
M 1403 2484 
Q 997 2584 770 2862 
Q 544 3141 544 3541 
Q 544 4100 942 4425 
Q 1341 4750 2034 4750 
Q 2731 4750 3128 4425 
Q 3525 4100 3525 3541 
Q 3525 3141 3298 2862 
Q 3072 2584 2669 2484 
Q 3125 2378 3379 2068 
Q 3634 1759 3634 1313 
Q 3634 634 3220 271 
Q 2806 -91 2034 -91 
Q 1263 -91 848 271 
Q 434 634 434 1313 
Q 434 1759 690 2068 
Q 947 2378 1403 2484 
z
M 1172 3481 
Q 1172 3119 1398 2916 
Q 1625 2713 2034 2713 
Q 2441 2713 2670 2916 
Q 2900 3119 2900 3481 
Q 2900 3844 2670 4047 
Q 2441 4250 2034 4250 
Q 1625 4250 1398 4047 
Q 1172 3844 1172 3481 
z
" transform="scale(0.015625)"/>
       </defs>
       <use xlink:href="#DejaVuSans-38"/>
      </g>
     </g>
    </g>
    <g id="xtick_6">
     <g id="line2d_11">
      <path d="M 352.948495 256.32 
L 352.948495 34.56 
" clip-path="url(#pda2ed653c8)" style="fill: none; stroke: #b0b0b0; stroke-width: 0.8; stroke-linecap: square"/>
     </g>
     <g id="line2d_12">
      <g>
       <use xlink:href="#m4bdd58ca30" x="352.948495" y="256.32" style="stroke: #000000; stroke-width: 0.8"/>
      </g>
     </g>
     <g id="text_6">
      <!-- 10 -->
      <g transform="translate(346.585995 270.918437) scale(0.1 -0.1)">
       <defs>
        <path id="DejaVuSans-31" d="M 794 531 
L 1825 531 
L 1825 4091 
L 703 3866 
L 703 4441 
L 1819 4666 
L 2450 4666 
L 2450 531 
L 3481 531 
L 3481 0 
L 794 0 
L 794 531 
z
" transform="scale(0.015625)"/>
       </defs>
       <use xlink:href="#DejaVuSans-31"/>
       <use xlink:href="#DejaVuSans-30" x="63.623047"/>
      </g>
     </g>
    </g>
    <g id="xtick_7">
     <g id="line2d_13">
      <path d="M 399.270071 256.32 
L 399.270071 34.56 
" clip-path="url(#pda2ed653c8)" style="fill: none; stroke: #b0b0b0; stroke-width: 0.8; stroke-linecap: square"/>
     </g>
     <g id="line2d_14">
      <g>
       <use xlink:href="#m4bdd58ca30" x="399.270071" y="256.32" style="stroke: #000000; stroke-width: 0.8"/>
      </g>
     </g>
     <g id="text_7">
      <!-- 12 -->
      <g transform="translate(392.907571 270.918437) scale(0.1 -0.1)">
       <use xlink:href="#DejaVuSans-31"/>
       <use xlink:href="#DejaVuSans-32" x="63.623047"/>
      </g>
     </g>
    </g>
    <g id="text_8">
     <!-- Time (s) -->
     <g transform="translate(239.852912 284.596563) scale(0.1 -0.1)">
      <defs>
       <path id="DejaVuSans-54" d="M -19 4666 
L 3928 4666 
L 3928 4134 
L 2272 4134 
L 2272 0 
L 1638 0 
L 1638 4134 
L -19 4134 
L -19 4666 
z
" transform="scale(0.015625)"/>
       <path id="DejaVuSans-69" d="M 603 3500 
L 1178 3500 
L 1178 0 
L 603 0 
L 603 3500 
z
M 603 4863 
L 1178 4863 
L 1178 4134 
L 603 4134 
L 603 4863 
z
" transform="scale(0.015625)"/>
       <path id="DejaVuSans-6d" d="M 3328 2828 
Q 3544 3216 3844 3400 
Q 4144 3584 4550 3584 
Q 5097 3584 5394 3201 
Q 5691 2819 5691 2113 
L 5691 0 
L 5113 0 
L 5113 2094 
Q 5113 2597 4934 2840 
Q 4756 3084 4391 3084 
Q 3944 3084 3684 2787 
Q 3425 2491 3425 1978 
L 3425 0 
L 2847 0 
L 2847 2094 
Q 2847 2600 2669 2842 
Q 2491 3084 2119 3084 
Q 1678 3084 1418 2786 
Q 1159 2488 1159 1978 
L 1159 0 
L 581 0 
L 581 3500 
L 1159 3500 
L 1159 2956 
Q 1356 3278 1631 3431 
Q 1906 3584 2284 3584 
Q 2666 3584 2933 3390 
Q 3200 3197 3328 2828 
z
" transform="scale(0.015625)"/>
       <path id="DejaVuSans-65" d="M 3597 1894 
L 3597 1613 
L 953 1613 
Q 991 1019 1311 708 
Q 1631 397 2203 397 
Q 2534 397 2845 478 
Q 3156 559 3463 722 
L 3463 178 
Q 3153 47 2828 -22 
Q 2503 -91 2169 -91 
Q 1331 -91 842 396 
Q 353 884 353 1716 
Q 353 2575 817 3079 
Q 1281 3584 2069 3584 
Q 2775 3584 3186 3129 
Q 3597 2675 3597 1894 
z
M 3022 2063 
Q 3016 2534 2758 2815 
Q 2500 3097 2075 3097 
Q 1594 3097 1305 2825 
Q 1016 2553 972 2059 
L 3022 2063 
z
" transform="scale(0.015625)"/>
       <path id="DejaVuSans-20" transform="scale(0.015625)"/>
       <path id="DejaVuSans-28" d="M 1984 4856 
Q 1566 4138 1362 3434 
Q 1159 2731 1159 2009 
Q 1159 1288 1364 580 
Q 1569 -128 1984 -844 
L 1484 -844 
Q 1016 -109 783 600 
Q 550 1309 550 2009 
Q 550 2706 781 3412 
Q 1013 4119 1484 4856 
L 1984 4856 
z
" transform="scale(0.015625)"/>
       <path id="DejaVuSans-73" d="M 2834 3397 
L 2834 2853 
Q 2591 2978 2328 3040 
Q 2066 3103 1784 3103 
Q 1356 3103 1142 2972 
Q 928 2841 928 2578 
Q 928 2378 1081 2264 
Q 1234 2150 1697 2047 
L 1894 2003 
Q 2506 1872 2764 1633 
Q 3022 1394 3022 966 
Q 3022 478 2636 193 
Q 2250 -91 1575 -91 
Q 1294 -91 989 -36 
Q 684 19 347 128 
L 347 722 
Q 666 556 975 473 
Q 1284 391 1588 391 
Q 1994 391 2212 530 
Q 2431 669 2431 922 
Q 2431 1156 2273 1281 
Q 2116 1406 1581 1522 
L 1381 1569 
Q 847 1681 609 1914 
Q 372 2147 372 2553 
Q 372 3047 722 3315 
Q 1072 3584 1716 3584 
Q 2034 3584 2315 3537 
Q 2597 3491 2834 3397 
z
" transform="scale(0.015625)"/>
       <path id="DejaVuSans-29" d="M 513 4856 
L 1013 4856 
Q 1481 4119 1714 3412 
Q 1947 2706 1947 2009 
Q 1947 1309 1714 600 
Q 1481 -109 1013 -844 
L 513 -844 
Q 928 -128 1133 580 
Q 1338 1288 1338 2009 
Q 1338 2731 1133 3434 
Q 928 4138 513 4856 
z
" transform="scale(0.015625)"/>
      </defs>
      <use xlink:href="#DejaVuSans-54"/>
      <use xlink:href="#DejaVuSans-69" x="57.958984"/>
      <use xlink:href="#DejaVuSans-6d" x="85.742188"/>
      <use xlink:href="#DejaVuSans-65" x="183.154297"/>
      <use xlink:href="#DejaVuSans-20" x="244.677734"/>
      <use xlink:href="#DejaVuSans-28" x="276.464844"/>
      <use xlink:href="#DejaVuSans-73" x="315.478516"/>
      <use xlink:href="#DejaVuSans-29" x="367.578125"/>
     </g>
    </g>
   </g>
   <g id="matplotlib.axis_2">
    <g id="ytick_1">
     <g id="line2d_15">
      <path d="M 108 225.476019 
L 412.363636 225.476019 
" clip-path="url(#pda2ed653c8)" style="fill: none; stroke: #b0b0b0; stroke-width: 0.8; stroke-linecap: square"/>
     </g>
     <g id="line2d_16">
      <defs>
       <path id="mdf4450604a" d="M 0 0 
L -3.5 0 
" style="stroke: #000000; stroke-width: 0.8"/>
      </defs>
      <g>
       <use xlink:href="#mdf4450604a" x="108" y="225.476019" style="stroke: #000000; stroke-width: 0.8"/>
      </g>
     </g>
     <g id="text_9">
      <!-- −80 -->
      <g transform="translate(79.895313 229.275238) scale(0.1 -0.1)">
       <defs>
        <path id="DejaVuSans-2212" d="M 678 2272 
L 4684 2272 
L 4684 1741 
L 678 1741 
L 678 2272 
z
" transform="scale(0.015625)"/>
       </defs>
       <use xlink:href="#DejaVuSans-2212"/>
       <use xlink:href="#DejaVuSans-38" x="83.789062"/>
       <use xlink:href="#DejaVuSans-30" x="147.412109"/>
      </g>
     </g>
    </g>
    <g id="ytick_2">
     <g id="line2d_17">
      <path d="M 108 180.267014 
L 412.363636 180.267014 
" clip-path="url(#pda2ed653c8)" style="fill: none; stroke: #b0b0b0; stroke-width: 0.8; stroke-linecap: square"/>
     </g>
     <g id="line2d_18">
      <g>
       <use xlink:href="#mdf4450604a" x="108" y="180.267014" style="stroke: #000000; stroke-width: 0.8"/>
      </g>
     </g>
     <g id="text_10">
      <!-- −60 -->
      <g transform="translate(79.895313 184.066233) scale(0.1 -0.1)">
       <use xlink:href="#DejaVuSans-2212"/>
       <use xlink:href="#DejaVuSans-36" x="83.789062"/>
       <use xlink:href="#DejaVuSans-30" x="147.412109"/>
      </g>
     </g>
    </g>
    <g id="ytick_3">
     <g id="line2d_19">
      <path d="M 108 135.05801 
L 412.363636 135.05801 
" clip-path="url(#pda2ed653c8)" style="fill: none; stroke: #b0b0b0; stroke-width: 0.8; stroke-linecap: square"/>
     </g>
     <g id="line2d_20">
      <g>
       <use xlink:href="#mdf4450604a" x="108" y="135.05801" style="stroke: #000000; stroke-width: 0.8"/>
      </g>
     </g>
     <g id="text_11">
      <!-- −40 -->
      <g transform="translate(79.895313 138.857228) scale(0.1 -0.1)">
       <use xlink:href="#DejaVuSans-2212"/>
       <use xlink:href="#DejaVuSans-34" x="83.789062"/>
       <use xlink:href="#DejaVuSans-30" x="147.412109"/>
      </g>
     </g>
    </g>
    <g id="ytick_4">
     <g id="line2d_21">
      <path d="M 108 89.849005 
L 412.363636 89.849005 
" clip-path="url(#pda2ed653c8)" style="fill: none; stroke: #b0b0b0; stroke-width: 0.8; stroke-linecap: square"/>
     </g>
     <g id="line2d_22">
      <g>
       <use xlink:href="#mdf4450604a" x="108" y="89.849005" style="stroke: #000000; stroke-width: 0.8"/>
      </g>
     </g>
     <g id="text_12">
      <!-- −20 -->
      <g transform="translate(79.895313 93.648224) scale(0.1 -0.1)">
       <use xlink:href="#DejaVuSans-2212"/>
       <use xlink:href="#DejaVuSans-32" x="83.789062"/>
       <use xlink:href="#DejaVuSans-30" x="147.412109"/>
      </g>
     </g>
    </g>
    <g id="ytick_5">
     <g id="line2d_23">
      <path d="M 108 44.64 
L 412.363636 44.64 
" clip-path="url(#pda2ed653c8)" style="fill: none; stroke: #b0b0b0; stroke-width: 0.8; stroke-linecap: square"/>
     </g>
     <g id="line2d_24">
      <g>
       <use xlink:href="#mdf4450604a" x="108" y="44.64" style="stroke: #000000; stroke-width: 0.8"/>
      </g>
     </g>
     <g id="text_13">
      <!-- 0 -->
      <g transform="translate(94.6375 48.439219) scale(0.1 -0.1)">
       <use xlink:href="#DejaVuSans-30"/>
      </g>
     </g>
    </g>
    <g id="text_14">
     <!-- Amplitude -->
     <g transform="translate(73.815625 171.062656) rotate(-90) scale(0.1 -0.1)">
      <defs>
       <path id="DejaVuSans-41" d="M 2188 4044 
L 1331 1722 
L 3047 1722 
L 2188 4044 
z
M 1831 4666 
L 2547 4666 
L 4325 0 
L 3669 0 
L 3244 1197 
L 1141 1197 
L 716 0 
L 50 0 
L 1831 4666 
z
" transform="scale(0.015625)"/>
       <path id="DejaVuSans-70" d="M 1159 525 
L 1159 -1331 
L 581 -1331 
L 581 3500 
L 1159 3500 
L 1159 2969 
Q 1341 3281 1617 3432 
Q 1894 3584 2278 3584 
Q 2916 3584 3314 3078 
Q 3713 2572 3713 1747 
Q 3713 922 3314 415 
Q 2916 -91 2278 -91 
Q 1894 -91 1617 61 
Q 1341 213 1159 525 
z
M 3116 1747 
Q 3116 2381 2855 2742 
Q 2594 3103 2138 3103 
Q 1681 3103 1420 2742 
Q 1159 2381 1159 1747 
Q 1159 1113 1420 752 
Q 1681 391 2138 391 
Q 2594 391 2855 752 
Q 3116 1113 3116 1747 
z
" transform="scale(0.015625)"/>
       <path id="DejaVuSans-6c" d="M 603 4863 
L 1178 4863 
L 1178 0 
L 603 0 
L 603 4863 
z
" transform="scale(0.015625)"/>
       <path id="DejaVuSans-74" d="M 1172 4494 
L 1172 3500 
L 2356 3500 
L 2356 3053 
L 1172 3053 
L 1172 1153 
Q 1172 725 1289 603 
Q 1406 481 1766 481 
L 2356 481 
L 2356 0 
L 1766 0 
Q 1100 0 847 248 
Q 594 497 594 1153 
L 594 3053 
L 172 3053 
L 172 3500 
L 594 3500 
L 594 4494 
L 1172 4494 
z
" transform="scale(0.015625)"/>
       <path id="DejaVuSans-75" d="M 544 1381 
L 544 3500 
L 1119 3500 
L 1119 1403 
Q 1119 906 1312 657 
Q 1506 409 1894 409 
Q 2359 409 2629 706 
Q 2900 1003 2900 1516 
L 2900 3500 
L 3475 3500 
L 3475 0 
L 2900 0 
L 2900 538 
Q 2691 219 2414 64 
Q 2138 -91 1772 -91 
Q 1169 -91 856 284 
Q 544 659 544 1381 
z
M 1991 3584 
L 1991 3584 
z
" transform="scale(0.015625)"/>
       <path id="DejaVuSans-64" d="M 2906 2969 
L 2906 4863 
L 3481 4863 
L 3481 0 
L 2906 0 
L 2906 525 
Q 2725 213 2448 61 
Q 2172 -91 1784 -91 
Q 1150 -91 751 415 
Q 353 922 353 1747 
Q 353 2572 751 3078 
Q 1150 3584 1784 3584 
Q 2172 3584 2448 3432 
Q 2725 3281 2906 2969 
z
M 947 1747 
Q 947 1113 1208 752 
Q 1469 391 1925 391 
Q 2381 391 2643 752 
Q 2906 1113 2906 1747 
Q 2906 2381 2643 2742 
Q 2381 3103 1925 3103 
Q 1469 3103 1208 2742 
Q 947 2381 947 1747 
z
" transform="scale(0.015625)"/>
      </defs>
      <use xlink:href="#DejaVuSans-41"/>
      <use xlink:href="#DejaVuSans-6d" x="68.408203"/>
      <use xlink:href="#DejaVuSans-70" x="165.820312"/>
      <use xlink:href="#DejaVuSans-6c" x="229.296875"/>
      <use xlink:href="#DejaVuSans-69" x="257.080078"/>
      <use xlink:href="#DejaVuSans-74" x="284.863281"/>
      <use xlink:href="#DejaVuSans-75" x="324.072266"/>
      <use xlink:href="#DejaVuSans-64" x="387.451172"/>
      <use xlink:href="#DejaVuSans-65" x="450.927734"/>
     </g>
    </g>
   </g>
   <g id="line2d_25">
    <path d="M 121.834711 165.612401 
L 122.328808 44.64 
L 122.822904 44.64 
L 123.317001 56.599778 
L 123.811098 64.971156 
L 124.305195 67.040394 
L 124.799292 67.040394 
L 125.293388 66.769712 
L 125.787485 66.769712 
L 126.281582 68.70514 
L 126.775679 68.70514 
L 127.269776 68.836907 
L 127.763872 68.845369 
L 128.257969 71.623752 
L 128.752066 71.623752 
L 129.246163 73.032113 
L 129.74026 73.032113 
L 130.234357 74.265406 
L 130.728453 74.265406 
L 131.22255 75.354856 
L 131.716647 75.354856 
L 132.210744 77.500439 
L 132.704841 77.500439 
L 133.198937 79.68926 
L 133.693034 79.68926 
L 134.187131 81.091884 
L 134.681228 81.340842 
L 138.139906 84.782923 
L 138.634002 84.782923 
L 139.128099 85.788821 
L 139.622196 85.788821 
L 140.116293 86.469116 
L 140.61039 86.794282 
L 143.080874 87.039324 
L 143.57497 87.339636 
L 146.045455 87.277115 
L 146.539551 87.720874 
L 147.527745 87.762705 
L 148.021842 87.976559 
L 148.515939 88.320522 
L 149.010035 88.3564 
L 149.504132 89.083312 
L 149.998229 89.332789 
L 150.492326 89.918718 
L 150.986423 90.145162 
L 151.480519 90.727058 
L 152.468713 91.274554 
L 152.96281 92.230086 
L 153.456907 92.679744 
L 153.951004 92.929905 
L 154.4451 93.798687 
L 154.939197 94.199364 
L 155.433294 94.429436 
L 155.927391 94.844626 
L 156.421488 95.096259 
L 157.409681 95.906355 
L 157.903778 96.57216 
L 158.397875 96.576397 
L 158.891972 96.723119 
L 159.880165 97.197081 
L 161.362456 97.726576 
L 162.350649 97.906719 
L 163.338843 98.012332 
L 163.83294 98.561281 
L 167.291617 100.589269 
L 167.785714 100.598837 
L 168.279811 101.310931 
L 168.773908 101.75207 
L 169.268005 101.875057 
L 169.762102 102.207113 
L 170.256198 103.04033 
L 170.750295 103.432573 
L 171.244392 104.080076 
L 171.738489 104.997804 
L 172.232586 105.484743 
L 172.726682 105.484743 
L 173.714876 106.999047 
L 174.208973 107.213409 
L 174.70307 107.837688 
L 175.197166 107.885575 
L 176.18536 108.824574 
L 177.173554 109.282847 
L 177.667651 109.312118 
L 178.161747 109.161265 
L 179.644038 109.098188 
L 180.138135 109.421811 
L 180.632231 109.08408 
L 181.620425 109.122153 
L 182.114522 108.700025 
L 182.608619 108.700025 
L 183.102715 109.35941 
L 183.596812 109.35941 
L 184.090909 109.993757 
L 184.585006 109.993757 
L 185.079103 110.180748 
L 186.067296 110.202792 
L 186.561393 109.800771 
L 187.05549 109.800771 
L 187.549587 111.167849 
L 188.043684 111.620444 
L 188.53778 112.460749 
L 189.031877 112.566098 
L 189.525974 113.049902 
L 190.020071 113.283642 
L 190.514168 114.242602 
L 191.008264 114.358965 
L 191.502361 114.907761 
L 191.996458 116.19892 
L 192.490555 116.060793 
L 192.984652 116.060793 
L 193.478749 116.683317 
L 194.466942 117.625851 
L 195.455136 117.720004 
L 195.949233 117.802281 
L 196.443329 118.125227 
L 196.937426 117.582814 
L 197.92562 117.66369 
L 198.913813 117.859663 
L 199.40791 117.859663 
L 199.902007 116.910564 
L 200.396104 116.910564 
L 200.890201 117.956458 
L 201.384298 117.594347 
L 201.878394 117.594347 
L 202.372491 118.626169 
L 202.866588 118.967316 
L 204.842975 118.853116 
L 205.831169 119.495588 
L 206.325266 120.194386 
L 206.819362 119.91232 
L 207.313459 119.91232 
L 207.807556 121.588342 
L 208.301653 122.826817 
L 208.79575 122.506517 
L 209.289847 122.506517 
L 209.783943 123.885602 
L 210.27804 123.885602 
L 210.772137 124.455078 
L 211.266234 124.470979 
L 211.760331 125.152419 
L 212.254427 125.27901 
L 212.748524 125.27901 
L 213.242621 124.832199 
L 213.736718 124.832199 
L 214.724911 126.586732 
L 215.219008 126.310161 
L 216.207202 126.306308 
L 216.701299 125.959046 
L 217.195396 125.808216 
L 217.689492 125.808216 
L 218.183589 126.026287 
L 218.677686 126.695159 
L 219.171783 126.920716 
L 220.159976 126.896614 
L 220.654073 127.125314 
L 221.14817 126.850083 
L 221.642267 126.850083 
L 222.136364 127.830621 
L 222.63046 126.826067 
L 223.124557 126.826067 
L 223.618654 127.387896 
L 224.112751 127.625446 
L 224.606848 129.202982 
L 225.100945 129.202982 
L 225.595041 129.901431 
L 226.583235 129.843524 
L 227.077332 130.788266 
L 227.571429 130.788266 
L 228.065525 131.118263 
L 229.053719 133.60988 
L 229.547816 133.446248 
L 230.041913 133.103039 
L 230.536009 133.103039 
L 231.030106 133.766247 
L 231.524203 133.467321 
L 232.0183 133.467321 
L 232.512397 134.573193 
L 233.006494 134.263751 
L 233.50059 134.263751 
L 233.994687 135.213572 
L 234.488784 135.213572 
L 234.982881 135.998873 
L 235.476978 136.330733 
L 235.971074 136.211688 
L 236.959268 136.251716 
L 237.453365 135.177218 
L 237.947462 135.177218 
L 238.441558 135.719767 
L 238.935655 135.719767 
L 239.429752 136.084905 
L 239.923849 135.737614 
L 240.417946 135.737614 
L 240.912043 134.763123 
L 241.406139 134.607269 
L 241.900236 134.607269 
L 242.394333 135.713545 
L 242.88843 137.155857 
L 243.382527 137.22382 
L 243.876623 137.861107 
L 244.37072 137.476712 
L 244.864817 136.845872 
L 245.358914 136.845872 
L 245.853011 137.219789 
L 246.347107 139.409971 
L 246.841204 138.513079 
L 247.335301 138.513079 
L 247.829398 141.014811 
L 248.323495 141.42102 
L 248.817591 140.780427 
L 249.311688 140.780427 
L 250.299882 141.280092 
L 250.793979 141.280092 
L 251.288076 142.265344 
L 251.782172 142.265344 
L 252.276269 142.150456 
L 252.770366 142.150456 
L 253.264463 142.525888 
L 253.75856 140.189747 
L 254.252656 140.189747 
L 254.746753 141.243231 
L 255.24085 143.212524 
L 255.734947 142.129744 
L 256.229044 142.129744 
L 256.72314 143.001596 
L 257.217237 141.747637 
L 257.711334 141.747637 
L 258.205431 141.931783 
L 258.699528 143.06723 
L 259.193625 141.291108 
L 259.687721 141.291108 
L 260.181818 141.571908 
L 260.675915 141.571908 
L 261.170012 143.154883 
L 261.664109 143.195518 
L 262.158205 144.010556 
L 262.652302 144.233311 
L 263.146399 144.233311 
L 263.640496 144.025117 
L 264.134593 144.025117 
L 264.628689 145.867644 
L 265.122786 146.052154 
L 265.616883 147.426282 
L 266.11098 145.787117 
L 266.605077 145.787117 
L 267.099174 148.689065 
L 267.59327 148.021889 
L 268.087367 148.021889 
L 268.581464 149.224764 
L 269.569658 149.139116 
L 270.063754 149.624979 
L 270.557851 149.624979 
L 271.051948 149.200019 
L 271.546045 148.596123 
L 272.040142 146.515406 
L 272.534238 146.515406 
L 273.028335 148.868984 
L 273.522432 148.868984 
L 274.016529 147.248604 
L 274.510626 147.248604 
L 275.004723 148.517944 
L 275.498819 149.188482 
L 275.992916 149.188482 
L 276.487013 149.827336 
L 276.98111 148.427391 
L 277.475207 148.427391 
L 277.969303 146.680741 
L 278.4634 146.680741 
L 278.957497 147.38716 
L 279.451594 149.826485 
L 279.945691 150.708074 
L 280.439787 148.60012 
L 280.933884 148.60012 
L 281.427981 149.715316 
L 281.922078 149.715316 
L 282.416175 151.776258 
L 282.910272 151.205666 
L 283.404368 151.205666 
L 283.898465 152.372648 
L 284.392562 152.081255 
L 284.886659 152.081255 
L 285.380756 150.175944 
L 285.874852 150.175944 
L 286.368949 154.569282 
L 286.863046 154.681206 
L 287.357143 155.919246 
L 288.345336 155.872874 
L 288.839433 155.600342 
L 289.33353 155.600342 
L 289.827627 156.087099 
L 290.321724 153.449982 
L 290.815821 153.449982 
L 291.309917 153.760502 
L 291.804014 153.116102 
L 292.298111 153.116102 
L 292.792208 154.139514 
L 293.286305 155.763176 
L 293.780401 153.260526 
L 294.274498 153.260526 
L 294.768595 155.132051 
L 295.262692 155.639208 
L 295.756789 153.469438 
L 296.250885 153.469438 
L 296.744982 153.174551 
L 297.239079 153.174551 
L 298.227273 153.977986 
L 298.72137 155.780456 
L 299.215466 155.5992 
L 300.697757 155.606053 
L 301.191854 153.865806 
L 301.68595 153.865806 
L 302.180047 156.091782 
L 302.674144 156.091782 
L 303.168241 156.225723 
L 303.662338 155.382298 
L 304.156434 155.382298 
L 304.650531 157.023343 
L 305.144628 157.023343 
L 305.638725 156.39385 
L 306.132822 156.39385 
L 306.626919 159.151975 
L 307.121015 160.605749 
L 307.615112 158.113911 
L 308.109209 154.343044 
L 308.603306 154.343044 
L 309.097403 155.982023 
L 310.579693 155.932018 
L 311.07379 154.527068 
L 311.567887 154.527068 
L 312.061983 157.737249 
L 312.55608 157.406452 
L 313.050177 157.406452 
L 313.544274 158.590811 
L 314.038371 159.13146 
L 314.532468 159.13146 
L 315.026564 158.644077 
L 315.520661 158.644077 
L 316.014758 159.102774 
L 316.508855 161.125372 
L 317.002952 158.941008 
L 317.497048 158.941008 
L 317.991145 161.733894 
L 318.485242 156.854631 
L 318.979339 156.854631 
L 319.473436 160.013549 
L 319.967532 158.962681 
L 320.461629 158.962681 
L 320.955726 161.342947 
L 321.449823 157.894491 
L 321.94392 157.894491 
L 322.438017 160.546894 
L 322.932113 160.546894 
L 323.42621 163.152708 
L 323.920307 157.493031 
L 324.414404 157.140333 
L 324.908501 157.140333 
L 325.402597 156.641545 
L 325.896694 156.641545 
L 326.390791 162.209386 
L 326.884888 159.150607 
L 327.378985 159.150607 
L 327.873081 158.670765 
L 328.367178 158.670765 
L 328.861275 154.619189 
L 329.355372 154.619189 
L 329.849469 161.859151 
L 330.343566 161.859151 
L 330.837662 165.734482 
L 331.331759 161.309317 
L 331.825856 161.309317 
L 332.319953 160.563062 
L 332.81405 160.563062 
L 333.308146 160.862349 
L 333.802243 157.115646 
L 334.29634 157.115646 
L 334.790437 164.541138 
L 335.284534 165.146379 
L 335.77863 161.505797 
L 336.272727 161.505797 
L 336.766824 163.268811 
L 337.260921 163.319506 
L 337.755018 165.822699 
L 338.249115 162.06124 
L 338.743211 162.06124 
L 339.237308 158.150287 
L 339.731405 158.150287 
L 340.225502 162.740988 
L 340.719599 162.740988 
L 341.213695 159.090493 
L 341.707792 159.090493 
L 342.201889 162.223782 
L 342.695986 162.685209 
L 343.190083 164.618718 
L 343.684179 163.952251 
L 344.178276 163.952251 
L 344.672373 165.765121 
L 345.16647 165.765121 
L 345.660567 166.66308 
L 346.154664 164.496174 
L 346.64876 164.496174 
L 347.142857 163.368636 
L 347.636954 163.368636 
L 348.625148 167.208222 
L 349.119244 160.866828 
L 349.613341 160.743273 
L 350.107438 160.743273 
L 350.601535 165.610499 
L 351.095632 158.728266 
L 351.589728 158.728266 
L 352.083825 159.515208 
L 352.577922 169.103691 
L 353.072019 162.378002 
L 353.566116 162.378002 
L 354.060213 159.564057 
L 354.554309 159.564057 
L 355.048406 167.307477 
L 355.542503 166.639021 
L 356.0366 164.198427 
L 356.530697 164.198427 
L 357.024793 164.463864 
L 357.51889 164.463864 
L 358.012987 167.918063 
L 358.507084 169.286271 
L 359.001181 159.391535 
L 359.495277 159.391535 
L 359.989374 163.145998 
L 360.483471 163.145998 
L 360.977568 165.125962 
L 361.471665 164.562758 
L 361.965762 164.562758 
L 362.459858 165.498635 
L 363.942149 165.602895 
L 364.436246 161.575341 
L 364.930342 161.575341 
L 365.424439 161.089091 
L 365.918536 161.089091 
L 366.412633 168.204571 
L 366.90673 162.955732 
L 367.400826 162.955732 
L 367.894923 164.503361 
L 368.38902 164.503361 
L 368.883117 168.725713 
L 369.377214 164.836856 
L 370.365407 164.787563 
L 370.859504 160.678088 
L 371.353601 160.678088 
L 371.847698 164.404765 
L 372.341795 162.884441 
L 372.835891 162.884441 
L 373.329988 168.647875 
L 373.824085 170.115209 
L 374.318182 166.19525 
L 374.812279 164.017012 
L 375.306375 161.265073 
L 375.800472 161.265073 
L 376.294569 163.440007 
L 376.788666 166.931725 
L 377.282763 164.064405 
L 377.77686 164.064405 
L 378.270956 162.182222 
L 378.765053 159.332061 
L 379.25915 159.332061 
L 379.753247 164.963391 
L 380.247344 164.963391 
L 380.74144 170.980693 
L 381.235537 164.483603 
L 381.729634 161.953622 
L 382.223731 161.953622 
L 382.717828 164.515946 
L 383.211924 169.199334 
L 383.706021 168.154724 
L 384.200118 164.722031 
L 384.694215 164.722031 
L 385.188312 169.332182 
L 385.682409 171.410283 
L 386.176505 168.794913 
L 386.670602 163.074014 
L 387.164699 163.074014 
L 387.658796 167.608292 
L 388.152893 166.463484 
L 388.646989 166.463484 
L 389.141086 169.853862 
L 389.635183 169.853862 
L 390.12928 170.848662 
L 390.623377 159.268636 
L 391.117473 159.268636 
L 391.61157 159.762091 
L 392.105667 159.762091 
L 392.599764 167.208222 
L 393.093861 161.794857 
L 393.587957 161.794857 
L 394.082054 165.545957 
L 394.576151 165.545957 
L 395.070248 168.619042 
L 396.058442 165.703891 
L 396.552538 165.703891 
L 397.046635 163.74886 
L 397.540732 163.74886 
L 398.034829 167.405154 
L 398.528926 246.24 
L 398.528926 246.24 
" clip-path="url(#pda2ed653c8)" style="fill: none; stroke: #800080; stroke-width: 1.5; stroke-linecap: square"/>
   </g>
   <g id="patch_3">
    <path d="M 108 256.32 
L 108 34.56 
" style="fill: none; stroke: #000000; stroke-width: 0.8; stroke-linejoin: miter; stroke-linecap: square"/>
   </g>
   <g id="patch_4">
    <path d="M 412.363636 256.32 
L 412.363636 34.56 
" style="fill: none; stroke: #000000; stroke-width: 0.8; stroke-linejoin: miter; stroke-linecap: square"/>
   </g>
   <g id="patch_5">
    <path d="M 108 256.32 
L 412.363636 256.32 
" style="fill: none; stroke: #000000; stroke-width: 0.8; stroke-linejoin: miter; stroke-linecap: square"/>
   </g>
   <g id="patch_6">
    <path d="M 108 34.56 
L 412.363636 34.56 
" style="fill: none; stroke: #000000; stroke-width: 0.8; stroke-linejoin: miter; stroke-linecap: square"/>
   </g>
   <g id="text_15">
    <!-- Mid Channel Time Peak Envelope -->
    <g transform="translate(160.669006 28.56) scale(0.12 -0.12)">
     <defs>
      <path id="DejaVuSans-4d" d="M 628 4666 
L 1569 4666 
L 2759 1491 
L 3956 4666 
L 4897 4666 
L 4897 0 
L 4281 0 
L 4281 4097 
L 3078 897 
L 2444 897 
L 1241 4097 
L 1241 0 
L 628 0 
L 628 4666 
z
" transform="scale(0.015625)"/>
      <path id="DejaVuSans-43" d="M 4122 4306 
L 4122 3641 
Q 3803 3938 3442 4084 
Q 3081 4231 2675 4231 
Q 1875 4231 1450 3742 
Q 1025 3253 1025 2328 
Q 1025 1406 1450 917 
Q 1875 428 2675 428 
Q 3081 428 3442 575 
Q 3803 722 4122 1019 
L 4122 359 
Q 3791 134 3420 21 
Q 3050 -91 2638 -91 
Q 1578 -91 968 557 
Q 359 1206 359 2328 
Q 359 3453 968 4101 
Q 1578 4750 2638 4750 
Q 3056 4750 3426 4639 
Q 3797 4528 4122 4306 
z
" transform="scale(0.015625)"/>
      <path id="DejaVuSans-68" d="M 3513 2113 
L 3513 0 
L 2938 0 
L 2938 2094 
Q 2938 2591 2744 2837 
Q 2550 3084 2163 3084 
Q 1697 3084 1428 2787 
Q 1159 2491 1159 1978 
L 1159 0 
L 581 0 
L 581 4863 
L 1159 4863 
L 1159 2956 
Q 1366 3272 1645 3428 
Q 1925 3584 2291 3584 
Q 2894 3584 3203 3211 
Q 3513 2838 3513 2113 
z
" transform="scale(0.015625)"/>
      <path id="DejaVuSans-61" d="M 2194 1759 
Q 1497 1759 1228 1600 
Q 959 1441 959 1056 
Q 959 750 1161 570 
Q 1363 391 1709 391 
Q 2188 391 2477 730 
Q 2766 1069 2766 1631 
L 2766 1759 
L 2194 1759 
z
M 3341 1997 
L 3341 0 
L 2766 0 
L 2766 531 
Q 2569 213 2275 61 
Q 1981 -91 1556 -91 
Q 1019 -91 701 211 
Q 384 513 384 1019 
Q 384 1609 779 1909 
Q 1175 2209 1959 2209 
L 2766 2209 
L 2766 2266 
Q 2766 2663 2505 2880 
Q 2244 3097 1772 3097 
Q 1472 3097 1187 3025 
Q 903 2953 641 2809 
L 641 3341 
Q 956 3463 1253 3523 
Q 1550 3584 1831 3584 
Q 2591 3584 2966 3190 
Q 3341 2797 3341 1997 
z
" transform="scale(0.015625)"/>
      <path id="DejaVuSans-6e" d="M 3513 2113 
L 3513 0 
L 2938 0 
L 2938 2094 
Q 2938 2591 2744 2837 
Q 2550 3084 2163 3084 
Q 1697 3084 1428 2787 
Q 1159 2491 1159 1978 
L 1159 0 
L 581 0 
L 581 3500 
L 1159 3500 
L 1159 2956 
Q 1366 3272 1645 3428 
Q 1925 3584 2291 3584 
Q 2894 3584 3203 3211 
Q 3513 2838 3513 2113 
z
" transform="scale(0.015625)"/>
      <path id="DejaVuSans-50" d="M 1259 4147 
L 1259 2394 
L 2053 2394 
Q 2494 2394 2734 2622 
Q 2975 2850 2975 3272 
Q 2975 3691 2734 3919 
Q 2494 4147 2053 4147 
L 1259 4147 
z
M 628 4666 
L 2053 4666 
Q 2838 4666 3239 4311 
Q 3641 3956 3641 3272 
Q 3641 2581 3239 2228 
Q 2838 1875 2053 1875 
L 1259 1875 
L 1259 0 
L 628 0 
L 628 4666 
z
" transform="scale(0.015625)"/>
      <path id="DejaVuSans-6b" d="M 581 4863 
L 1159 4863 
L 1159 1991 
L 2875 3500 
L 3609 3500 
L 1753 1863 
L 3688 0 
L 2938 0 
L 1159 1709 
L 1159 0 
L 581 0 
L 581 4863 
z
" transform="scale(0.015625)"/>
      <path id="DejaVuSans-45" d="M 628 4666 
L 3578 4666 
L 3578 4134 
L 1259 4134 
L 1259 2753 
L 3481 2753 
L 3481 2222 
L 1259 2222 
L 1259 531 
L 3634 531 
L 3634 0 
L 628 0 
L 628 4666 
z
" transform="scale(0.015625)"/>
      <path id="DejaVuSans-76" d="M 191 3500 
L 800 3500 
L 1894 563 
L 2988 3500 
L 3597 3500 
L 2284 0 
L 1503 0 
L 191 3500 
z
" transform="scale(0.015625)"/>
      <path id="DejaVuSans-6f" d="M 1959 3097 
Q 1497 3097 1228 2736 
Q 959 2375 959 1747 
Q 959 1119 1226 758 
Q 1494 397 1959 397 
Q 2419 397 2687 759 
Q 2956 1122 2956 1747 
Q 2956 2369 2687 2733 
Q 2419 3097 1959 3097 
z
M 1959 3584 
Q 2709 3584 3137 3096 
Q 3566 2609 3566 1747 
Q 3566 888 3137 398 
Q 2709 -91 1959 -91 
Q 1206 -91 779 398 
Q 353 888 353 1747 
Q 353 2609 779 3096 
Q 1206 3584 1959 3584 
z
" transform="scale(0.015625)"/>
     </defs>
     <use xlink:href="#DejaVuSans-4d"/>
     <use xlink:href="#DejaVuSans-69" x="86.279297"/>
     <use xlink:href="#DejaVuSans-64" x="114.0625"/>
     <use xlink:href="#DejaVuSans-20" x="177.539062"/>
     <use xlink:href="#DejaVuSans-43" x="209.326172"/>
     <use xlink:href="#DejaVuSans-68" x="279.150391"/>
     <use xlink:href="#DejaVuSans-61" x="342.529297"/>
     <use xlink:href="#DejaVuSans-6e" x="403.808594"/>
     <use xlink:href="#DejaVuSans-6e" x="467.1875"/>
     <use xlink:href="#DejaVuSans-65" x="530.566406"/>
     <use xlink:href="#DejaVuSans-6c" x="592.089844"/>
     <use xlink:href="#DejaVuSans-20" x="619.873047"/>
     <use xlink:href="#DejaVuSans-54" x="651.660156"/>
     <use xlink:href="#DejaVuSans-69" x="709.619141"/>
     <use xlink:href="#DejaVuSans-6d" x="737.402344"/>
     <use xlink:href="#DejaVuSans-65" x="834.814453"/>
     <use xlink:href="#DejaVuSans-20" x="896.337891"/>
     <use xlink:href="#DejaVuSans-50" x="928.125"/>
     <use xlink:href="#DejaVuSans-65" x="984.802734"/>
     <use xlink:href="#DejaVuSans-61" x="1046.326172"/>
     <use xlink:href="#DejaVuSans-6b" x="1107.605469"/>
     <use xlink:href="#DejaVuSans-20" x="1165.515625"/>
     <use xlink:href="#DejaVuSans-45" x="1197.302734"/>
     <use xlink:href="#DejaVuSans-6e" x="1260.486328"/>
     <use xlink:href="#DejaVuSans-76" x="1323.865234"/>
     <use xlink:href="#DejaVuSans-65" x="1383.044922"/>
     <use xlink:href="#DejaVuSans-6c" x="1444.568359"/>
     <use xlink:href="#DejaVuSans-6f" x="1472.351562"/>
     <use xlink:href="#DejaVuSans-70" x="1533.533203"/>
     <use xlink:href="#DejaVuSans-65" x="1597.009766"/>
    </g>
   </g>
  </g>
  <g id="axes_2">
   <g id="patch_7">
    <path d="M 473.236364 256.32 
L 777.6 256.32 
L 777.6 34.56 
L 473.236364 34.56 
z
" style="fill: #ffffff"/>
   </g>
   <g id="matplotlib.axis_3">
    <g id="xtick_8">
     <g id="line2d_26">
      <path d="M 486.576978 256.32 
L 486.576978 34.56 
" clip-path="url(#p66de185f7d)" style="fill: none; stroke: #b0b0b0; stroke-width: 0.8; stroke-linecap: square"/>
     </g>
     <g id="line2d_27">
      <g>
       <use xlink:href="#m4bdd58ca30" x="486.576978" y="256.32" style="stroke: #000000; stroke-width: 0.8"/>
      </g>
     </g>
     <g id="text_16">
      <!-- 0 -->
      <g transform="translate(483.395728 270.918437) scale(0.1 -0.1)">
       <use xlink:href="#DejaVuSans-30"/>
      </g>
     </g>
    </g>
    <g id="xtick_9">
     <g id="line2d_28">
      <path d="M 532.898554 256.32 
L 532.898554 34.56 
" clip-path="url(#p66de185f7d)" style="fill: none; stroke: #b0b0b0; stroke-width: 0.8; stroke-linecap: square"/>
     </g>
     <g id="line2d_29">
      <g>
       <use xlink:href="#m4bdd58ca30" x="532.898554" y="256.32" style="stroke: #000000; stroke-width: 0.8"/>
      </g>
     </g>
     <g id="text_17">
      <!-- 2 -->
      <g transform="translate(529.717304 270.918437) scale(0.1 -0.1)">
       <use xlink:href="#DejaVuSans-32"/>
      </g>
     </g>
    </g>
    <g id="xtick_10">
     <g id="line2d_30">
      <path d="M 579.22013 256.32 
L 579.22013 34.56 
" clip-path="url(#p66de185f7d)" style="fill: none; stroke: #b0b0b0; stroke-width: 0.8; stroke-linecap: square"/>
     </g>
     <g id="line2d_31">
      <g>
       <use xlink:href="#m4bdd58ca30" x="579.22013" y="256.32" style="stroke: #000000; stroke-width: 0.8"/>
      </g>
     </g>
     <g id="text_18">
      <!-- 4 -->
      <g transform="translate(576.03888 270.918437) scale(0.1 -0.1)">
       <use xlink:href="#DejaVuSans-34"/>
      </g>
     </g>
    </g>
    <g id="xtick_11">
     <g id="line2d_32">
      <path d="M 625.541706 256.32 
L 625.541706 34.56 
" clip-path="url(#p66de185f7d)" style="fill: none; stroke: #b0b0b0; stroke-width: 0.8; stroke-linecap: square"/>
     </g>
     <g id="line2d_33">
      <g>
       <use xlink:href="#m4bdd58ca30" x="625.541706" y="256.32" style="stroke: #000000; stroke-width: 0.8"/>
      </g>
     </g>
     <g id="text_19">
      <!-- 6 -->
      <g transform="translate(622.360456 270.918437) scale(0.1 -0.1)">
       <use xlink:href="#DejaVuSans-36"/>
      </g>
     </g>
    </g>
    <g id="xtick_12">
     <g id="line2d_34">
      <path d="M 671.863282 256.32 
L 671.863282 34.56 
" clip-path="url(#p66de185f7d)" style="fill: none; stroke: #b0b0b0; stroke-width: 0.8; stroke-linecap: square"/>
     </g>
     <g id="line2d_35">
      <g>
       <use xlink:href="#m4bdd58ca30" x="671.863282" y="256.32" style="stroke: #000000; stroke-width: 0.8"/>
      </g>
     </g>
     <g id="text_20">
      <!-- 8 -->
      <g transform="translate(668.682032 270.918437) scale(0.1 -0.1)">
       <use xlink:href="#DejaVuSans-38"/>
      </g>
     </g>
    </g>
    <g id="xtick_13">
     <g id="line2d_36">
      <path d="M 718.184858 256.32 
L 718.184858 34.56 
" clip-path="url(#p66de185f7d)" style="fill: none; stroke: #b0b0b0; stroke-width: 0.8; stroke-linecap: square"/>
     </g>
     <g id="line2d_37">
      <g>
       <use xlink:href="#m4bdd58ca30" x="718.184858" y="256.32" style="stroke: #000000; stroke-width: 0.8"/>
      </g>
     </g>
     <g id="text_21">
      <!-- 10 -->
      <g transform="translate(711.822358 270.918437) scale(0.1 -0.1)">
       <use xlink:href="#DejaVuSans-31"/>
       <use xlink:href="#DejaVuSans-30" x="63.623047"/>
      </g>
     </g>
    </g>
    <g id="xtick_14">
     <g id="line2d_38">
      <path d="M 764.506434 256.32 
L 764.506434 34.56 
" clip-path="url(#p66de185f7d)" style="fill: none; stroke: #b0b0b0; stroke-width: 0.8; stroke-linecap: square"/>
     </g>
     <g id="line2d_39">
      <g>
       <use xlink:href="#m4bdd58ca30" x="764.506434" y="256.32" style="stroke: #000000; stroke-width: 0.8"/>
      </g>
     </g>
     <g id="text_22">
      <!-- 12 -->
      <g transform="translate(758.143934 270.918437) scale(0.1 -0.1)">
       <use xlink:href="#DejaVuSans-31"/>
       <use xlink:href="#DejaVuSans-32" x="63.623047"/>
      </g>
     </g>
    </g>
    <g id="text_23">
     <!-- Time (s) -->
     <g transform="translate(605.089276 284.596563) scale(0.1 -0.1)">
      <use xlink:href="#DejaVuSans-54"/>
      <use xlink:href="#DejaVuSans-69" x="57.958984"/>
      <use xlink:href="#DejaVuSans-6d" x="85.742188"/>
      <use xlink:href="#DejaVuSans-65" x="183.154297"/>
      <use xlink:href="#DejaVuSans-20" x="244.677734"/>
      <use xlink:href="#DejaVuSans-28" x="276.464844"/>
      <use xlink:href="#DejaVuSans-73" x="315.478516"/>
      <use xlink:href="#DejaVuSans-29" x="367.578125"/>
     </g>
    </g>
   </g>
   <g id="matplotlib.axis_4">
    <g id="ytick_6">
     <g id="line2d_40">
      <path d="M 473.236364 229.894302 
L 777.6 229.894302 
" clip-path="url(#p66de185f7d)" style="fill: none; stroke: #b0b0b0; stroke-width: 0.8; stroke-linecap: square"/>
     </g>
     <g id="line2d_41">
      <g>
       <use xlink:href="#mdf4450604a" x="473.236364" y="229.894302" style="stroke: #000000; stroke-width: 0.8"/>
      </g>
     </g>
     <g id="text_24">
      <!-- −70 -->
      <g transform="translate(445.131676 233.693521) scale(0.1 -0.1)">
       <defs>
        <path id="DejaVuSans-37" d="M 525 4666 
L 3525 4666 
L 3525 4397 
L 1831 0 
L 1172 0 
L 2766 4134 
L 525 4134 
L 525 4666 
z
" transform="scale(0.015625)"/>
       </defs>
       <use xlink:href="#DejaVuSans-2212"/>
       <use xlink:href="#DejaVuSans-37" x="83.789062"/>
       <use xlink:href="#DejaVuSans-30" x="147.412109"/>
      </g>
     </g>
    </g>
    <g id="ytick_7">
     <g id="line2d_42">
      <path d="M 473.236364 203.429402 
L 777.6 203.429402 
" clip-path="url(#p66de185f7d)" style="fill: none; stroke: #b0b0b0; stroke-width: 0.8; stroke-linecap: square"/>
     </g>
     <g id="line2d_43">
      <g>
       <use xlink:href="#mdf4450604a" x="473.236364" y="203.429402" style="stroke: #000000; stroke-width: 0.8"/>
      </g>
     </g>
     <g id="text_25">
      <!-- −60 -->
      <g transform="translate(445.131676 207.228621) scale(0.1 -0.1)">
       <use xlink:href="#DejaVuSans-2212"/>
       <use xlink:href="#DejaVuSans-36" x="83.789062"/>
       <use xlink:href="#DejaVuSans-30" x="147.412109"/>
      </g>
     </g>
    </g>
    <g id="ytick_8">
     <g id="line2d_44">
      <path d="M 473.236364 176.964502 
L 777.6 176.964502 
" clip-path="url(#p66de185f7d)" style="fill: none; stroke: #b0b0b0; stroke-width: 0.8; stroke-linecap: square"/>
     </g>
     <g id="line2d_45">
      <g>
       <use xlink:href="#mdf4450604a" x="473.236364" y="176.964502" style="stroke: #000000; stroke-width: 0.8"/>
      </g>
     </g>
     <g id="text_26">
      <!-- −50 -->
      <g transform="translate(445.131676 180.76372) scale(0.1 -0.1)">
       <defs>
        <path id="DejaVuSans-35" d="M 691 4666 
L 3169 4666 
L 3169 4134 
L 1269 4134 
L 1269 2991 
Q 1406 3038 1543 3061 
Q 1681 3084 1819 3084 
Q 2600 3084 3056 2656 
Q 3513 2228 3513 1497 
Q 3513 744 3044 326 
Q 2575 -91 1722 -91 
Q 1428 -91 1123 -41 
Q 819 9 494 109 
L 494 744 
Q 775 591 1075 516 
Q 1375 441 1709 441 
Q 2250 441 2565 725 
Q 2881 1009 2881 1497 
Q 2881 1984 2565 2268 
Q 2250 2553 1709 2553 
Q 1456 2553 1204 2497 
Q 953 2441 691 2322 
L 691 4666 
z
" transform="scale(0.015625)"/>
       </defs>
       <use xlink:href="#DejaVuSans-2212"/>
       <use xlink:href="#DejaVuSans-35" x="83.789062"/>
       <use xlink:href="#DejaVuSans-30" x="147.412109"/>
      </g>
     </g>
    </g>
    <g id="ytick_9">
     <g id="line2d_46">
      <path d="M 473.236364 150.499601 
L 777.6 150.499601 
" clip-path="url(#p66de185f7d)" style="fill: none; stroke: #b0b0b0; stroke-width: 0.8; stroke-linecap: square"/>
     </g>
     <g id="line2d_47">
      <g>
       <use xlink:href="#mdf4450604a" x="473.236364" y="150.499601" style="stroke: #000000; stroke-width: 0.8"/>
      </g>
     </g>
     <g id="text_27">
      <!-- −40 -->
      <g transform="translate(445.131676 154.29882) scale(0.1 -0.1)">
       <use xlink:href="#DejaVuSans-2212"/>
       <use xlink:href="#DejaVuSans-34" x="83.789062"/>
       <use xlink:href="#DejaVuSans-30" x="147.412109"/>
      </g>
     </g>
    </g>
    <g id="ytick_10">
     <g id="line2d_48">
      <path d="M 473.236364 124.034701 
L 777.6 124.034701 
" clip-path="url(#p66de185f7d)" style="fill: none; stroke: #b0b0b0; stroke-width: 0.8; stroke-linecap: square"/>
     </g>
     <g id="line2d_49">
      <g>
       <use xlink:href="#mdf4450604a" x="473.236364" y="124.034701" style="stroke: #000000; stroke-width: 0.8"/>
      </g>
     </g>
     <g id="text_28">
      <!-- −30 -->
      <g transform="translate(445.131676 127.83392) scale(0.1 -0.1)">
       <defs>
        <path id="DejaVuSans-33" d="M 2597 2516 
Q 3050 2419 3304 2112 
Q 3559 1806 3559 1356 
Q 3559 666 3084 287 
Q 2609 -91 1734 -91 
Q 1441 -91 1130 -33 
Q 819 25 488 141 
L 488 750 
Q 750 597 1062 519 
Q 1375 441 1716 441 
Q 2309 441 2620 675 
Q 2931 909 2931 1356 
Q 2931 1769 2642 2001 
Q 2353 2234 1838 2234 
L 1294 2234 
L 1294 2753 
L 1863 2753 
Q 2328 2753 2575 2939 
Q 2822 3125 2822 3475 
Q 2822 3834 2567 4026 
Q 2313 4219 1838 4219 
Q 1578 4219 1281 4162 
Q 984 4106 628 3988 
L 628 4550 
Q 988 4650 1302 4700 
Q 1616 4750 1894 4750 
Q 2613 4750 3031 4423 
Q 3450 4097 3450 3541 
Q 3450 3153 3228 2886 
Q 3006 2619 2597 2516 
z
" transform="scale(0.015625)"/>
       </defs>
       <use xlink:href="#DejaVuSans-2212"/>
       <use xlink:href="#DejaVuSans-33" x="83.789062"/>
       <use xlink:href="#DejaVuSans-30" x="147.412109"/>
      </g>
     </g>
    </g>
    <g id="ytick_11">
     <g id="line2d_50">
      <path d="M 473.236364 97.569801 
L 777.6 97.569801 
" clip-path="url(#p66de185f7d)" style="fill: none; stroke: #b0b0b0; stroke-width: 0.8; stroke-linecap: square"/>
     </g>
     <g id="line2d_51">
      <g>
       <use xlink:href="#mdf4450604a" x="473.236364" y="97.569801" style="stroke: #000000; stroke-width: 0.8"/>
      </g>
     </g>
     <g id="text_29">
      <!-- −20 -->
      <g transform="translate(445.131676 101.369019) scale(0.1 -0.1)">
       <use xlink:href="#DejaVuSans-2212"/>
       <use xlink:href="#DejaVuSans-32" x="83.789062"/>
       <use xlink:href="#DejaVuSans-30" x="147.412109"/>
      </g>
     </g>
    </g>
    <g id="ytick_12">
     <g id="line2d_52">
      <path d="M 473.236364 71.1049 
L 777.6 71.1049 
" clip-path="url(#p66de185f7d)" style="fill: none; stroke: #b0b0b0; stroke-width: 0.8; stroke-linecap: square"/>
     </g>
     <g id="line2d_53">
      <g>
       <use xlink:href="#mdf4450604a" x="473.236364" y="71.1049" style="stroke: #000000; stroke-width: 0.8"/>
      </g>
     </g>
     <g id="text_30">
      <!-- −10 -->
      <g transform="translate(445.131676 74.904119) scale(0.1 -0.1)">
       <use xlink:href="#DejaVuSans-2212"/>
       <use xlink:href="#DejaVuSans-31" x="83.789062"/>
       <use xlink:href="#DejaVuSans-30" x="147.412109"/>
      </g>
     </g>
    </g>
    <g id="ytick_13">
     <g id="line2d_54">
      <path d="M 473.236364 44.64 
L 777.6 44.64 
" clip-path="url(#p66de185f7d)" style="fill: none; stroke: #b0b0b0; stroke-width: 0.8; stroke-linecap: square"/>
     </g>
     <g id="line2d_55">
      <g>
       <use xlink:href="#mdf4450604a" x="473.236364" y="44.64" style="stroke: #000000; stroke-width: 0.8"/>
      </g>
     </g>
     <g id="text_31">
      <!-- 0 -->
      <g transform="translate(459.873864 48.439219) scale(0.1 -0.1)">
       <use xlink:href="#DejaVuSans-30"/>
      </g>
     </g>
    </g>
    <g id="text_32">
     <!-- Amplitude -->
     <g transform="translate(439.051989 171.062656) rotate(-90) scale(0.1 -0.1)">
      <use xlink:href="#DejaVuSans-41"/>
      <use xlink:href="#DejaVuSans-6d" x="68.408203"/>
      <use xlink:href="#DejaVuSans-70" x="165.820312"/>
      <use xlink:href="#DejaVuSans-6c" x="229.296875"/>
      <use xlink:href="#DejaVuSans-69" x="257.080078"/>
      <use xlink:href="#DejaVuSans-74" x="284.863281"/>
      <use xlink:href="#DejaVuSans-75" x="324.072266"/>
      <use xlink:href="#DejaVuSans-64" x="387.451172"/>
      <use xlink:href="#DejaVuSans-65" x="450.927734"/>
     </g>
    </g>
   </g>
   <g id="line2d_56">
    <path d="M 487.071074 140.416998 
L 487.565171 44.64 
L 488.059268 44.64 
L 488.553365 48.293527 
L 489.047462 63.666478 
L 489.541558 69.469518 
L 490.035655 71.386771 
L 490.529752 72.240751 
L 491.023849 72.240751 
L 491.517946 72.481248 
L 492.012043 76.811891 
L 492.506139 76.811891 
L 493.000236 76.017874 
L 493.494333 76.017874 
L 493.98843 80.944112 
L 494.482527 81.338163 
L 494.976623 82.803705 
L 495.47072 82.803705 
L 495.964817 84.799597 
L 496.458914 84.799597 
L 496.953011 85.412177 
L 497.941204 84.559249 
L 498.435301 84.559249 
L 498.929398 84.941087 
L 499.423495 85.615309 
L 500.411688 85.514239 
L 500.905785 84.30589 
L 501.399882 84.255598 
L 501.893979 82.540381 
L 502.388076 82.540381 
L 502.882172 81.307749 
L 503.376269 81.25901 
L 503.870366 80.673894 
L 504.85856 80.701144 
L 505.352656 80.847283 
L 505.846753 80.572965 
L 506.834947 80.640461 
L 507.82314 81.119757 
L 508.317237 81.119757 
L 508.811334 81.457004 
L 509.305431 82.578811 
L 509.799528 83.129528 
L 510.293625 84.076487 
L 510.787721 84.502884 
L 511.775915 86.204256 
L 512.270012 86.204256 
L 512.764109 87.683209 
L 513.258205 87.683209 
L 513.752302 91.139469 
L 514.740496 94.238037 
L 515.234593 96.96888 
L 516.222786 99.417001 
L 516.716883 102.397745 
L 517.21098 102.415269 
L 517.705077 104.404211 
L 518.199174 109.32839 
L 518.69327 108.824467 
L 519.187367 108.824467 
L 519.681464 109.777966 
L 521.163754 107.573014 
L 521.657851 107.573014 
L 522.151948 106.68338 
L 522.646045 106.286984 
L 523.140142 106.286984 
L 524.128335 104.228481 
L 524.622432 104.228481 
L 525.116529 105.488922 
L 525.610626 105.690186 
L 526.598819 105.770608 
L 527.092916 106.907605 
L 527.587013 106.025881 
L 528.08111 106.025881 
L 528.575207 108.234376 
L 529.5634 109.349374 
L 530.057497 109.518625 
L 531.539787 112.836037 
L 532.033884 114.028982 
L 532.527981 114.028982 
L 533.516175 115.082102 
L 534.010272 121.160512 
L 534.504368 121.402922 
L 534.998465 121.468228 
L 535.492562 120.095371 
L 535.986659 120.095371 
L 536.480756 124.728157 
L 536.974852 126.233405 
L 537.468949 122.608999 
L 537.963046 122.608999 
L 538.457143 123.221145 
L 539.445336 120.766544 
L 539.939433 120.524111 
L 540.43353 117.6269 
L 540.927627 115.749566 
L 541.421724 115.749566 
L 541.915821 116.17759 
L 542.409917 115.341668 
L 542.904014 113.147086 
L 543.398111 113.147086 
L 543.892208 113.2833 
L 544.880401 112.841555 
L 545.374498 112.841555 
L 545.868595 114.635435 
L 546.362692 114.472369 
L 546.856789 113.903147 
L 547.844982 113.898194 
L 548.339079 115.440318 
L 548.833176 116.525657 
L 549.327273 115.597977 
L 549.82137 115.597977 
L 550.315466 118.839783 
L 550.809563 119.217424 
L 551.30366 122.533164 
L 552.291854 122.712926 
L 552.78595 124.211747 
L 553.280047 125.144418 
L 553.774144 128.686103 
L 554.268241 129.687655 
L 554.762338 129.687655 
L 555.256434 130.237187 
L 555.750531 130.237187 
L 556.244628 132.007375 
L 556.738725 132.360313 
L 557.232822 131.201415 
L 557.726919 128.489056 
L 558.221015 128.112209 
L 558.715112 126.028224 
L 559.209209 126.028224 
L 559.703306 126.162931 
L 560.197403 123.834774 
L 560.691499 123.834774 
L 561.185596 124.113704 
L 561.679693 124.113704 
L 562.17379 124.342691 
L 562.667887 126.447557 
L 563.161983 123.925247 
L 563.65608 123.023872 
L 564.150177 123.023872 
L 564.644274 126.265896 
L 565.138371 120.390159 
L 565.632468 120.390159 
L 566.126564 123.059503 
L 566.620661 126.450407 
L 567.114758 125.722466 
L 567.608855 125.722466 
L 568.102952 126.813796 
L 568.597048 129.344083 
L 569.091145 128.92608 
L 569.585242 128.92608 
L 570.079339 131.326159 
L 570.573436 132.213359 
L 571.067532 132.213359 
L 571.561629 132.545336 
L 572.055726 136.628889 
L 572.549823 138.820239 
L 573.04392 138.820239 
L 573.538017 143.280363 
L 574.032113 143.584635 
L 574.52621 140.364731 
L 575.020307 140.364731 
L 575.514404 139.348588 
L 576.008501 138.030935 
L 576.502597 137.379896 
L 577.490791 137.423495 
L 577.984888 129.216757 
L 578.478985 129.216757 
L 578.973081 130.655994 
L 579.467178 129.809376 
L 579.961275 129.809376 
L 580.455372 131.075602 
L 580.949469 128.375662 
L 581.443566 128.375662 
L 581.937662 127.836601 
L 582.431759 127.836601 
L 582.925856 128.467266 
L 583.419953 126.935729 
L 583.91405 126.624921 
L 584.408146 126.624921 
L 584.902243 125.852611 
L 585.39634 125.852611 
L 585.890437 128.991243 
L 586.384534 130.560371 
L 586.87863 130.560371 
L 587.372727 132.193227 
L 587.866824 132.193227 
L 588.360921 129.568207 
L 588.855018 129.568207 
L 589.349115 131.257554 
L 590.337308 131.319114 
L 590.831405 135.687669 
L 591.325502 134.577587 
L 591.819599 131.456899 
L 592.313695 131.456899 
L 592.807792 129.091731 
L 593.301889 129.091731 
L 593.795986 133.170516 
L 594.290083 131.16115 
L 594.784179 131.16115 
L 595.278276 132.176767 
L 595.772373 132.506357 
L 596.26647 132.277536 
L 596.760567 130.43123 
L 597.254664 129.991512 
L 597.74876 129.991512 
L 598.242857 130.919297 
L 598.736954 127.993034 
L 599.725148 127.968663 
L 600.219244 128.307584 
L 600.713341 127.258175 
L 601.207438 127.258175 
L 601.701535 129.077349 
L 602.195632 131.84643 
L 602.689728 130.599597 
L 603.183825 129.891986 
L 603.677922 129.891986 
L 604.172019 132.8558 
L 604.666116 132.8558 
L 605.160213 129.776415 
L 605.654309 129.776415 
L 606.148406 132.01282 
L 606.642503 130.250633 
L 607.1366 130.250633 
L 607.630697 133.23551 
L 608.124793 131.724215 
L 608.61889 131.724215 
L 609.112987 133.128558 
L 609.607084 137.382189 
L 610.101181 134.425883 
L 610.595277 134.425883 
L 611.089374 141.22916 
L 611.583471 131.864457 
L 612.077568 131.864457 
L 612.571665 139.453724 
L 613.065762 133.933233 
L 613.559858 132.608584 
L 614.053955 132.608584 
L 614.548052 136.375129 
L 615.042149 136.375129 
L 615.536246 136.786968 
L 616.030342 132.325326 
L 616.524439 132.325326 
L 617.018536 136.421259 
L 617.512633 131.823015 
L 618.00673 131.823015 
L 618.500826 136.285331 
L 618.994923 133.010724 
L 619.983117 129.76489 
L 620.477214 129.76489 
L 620.971311 131.670502 
L 621.465407 131.670502 
L 621.959504 133.416164 
L 622.453601 133.416164 
L 622.947698 133.124747 
L 623.441795 133.124747 
L 623.935891 136.076435 
L 624.429988 138.232277 
L 624.924085 138.232277 
L 625.418182 139.820433 
L 625.912279 138.64275 
L 626.406375 137.034047 
L 626.900472 137.034047 
L 627.394569 142.21208 
L 627.888666 139.060687 
L 628.382763 139.060687 
L 628.87686 140.598238 
L 629.865053 140.5035 
L 630.35915 142.623085 
L 630.853247 138.883787 
L 631.347344 137.831342 
L 631.84144 137.831342 
L 632.335537 142.099204 
L 632.829634 139.431155 
L 633.323731 135.536947 
L 633.817828 135.536947 
L 634.311924 139.904715 
L 634.806021 137.633467 
L 635.300118 137.292945 
L 635.794215 137.292945 
L 636.288312 140.048449 
L 637.770602 140.061326 
L 638.264699 141.886255 
L 638.758796 134.267163 
L 639.252893 134.267163 
L 639.746989 140.045874 
L 640.735183 134.66298 
L 641.22928 134.66298 
L 641.723377 136.546938 
L 642.217473 143.006406 
L 642.71157 141.678024 
L 643.205667 141.678024 
L 643.699764 135.242614 
L 644.193861 135.242614 
L 644.687957 145.815515 
L 645.182054 144.850018 
L 645.676151 144.850018 
L 646.170248 145.140573 
L 646.664345 144.789813 
L 647.158442 144.789813 
L 647.652538 141.477142 
L 648.146635 141.477142 
L 648.640732 142.971293 
L 649.134829 145.457642 
L 649.628926 145.457642 
L 650.123022 142.419518 
L 650.617119 142.419518 
L 651.111216 145.92497 
L 651.605313 139.848493 
L 652.09941 139.848493 
L 652.593506 144.082461 
L 653.087603 144.082461 
L 654.075797 139.589609 
L 654.569894 139.589609 
L 655.063991 144.406947 
L 655.558087 145.00282 
L 656.052184 143.182778 
L 656.546281 143.047438 
L 657.040378 138.662134 
L 657.534475 138.662134 
L 658.028571 147.369105 
L 658.522668 142.23189 
L 659.016765 140.619344 
L 659.510862 140.619344 
L 660.004959 144.447442 
L 660.499055 143.518666 
L 660.993152 143.518666 
L 661.487249 141.406017 
L 661.981346 141.406017 
L 662.475443 143.289255 
L 662.96954 143.289255 
L 663.463636 144.891301 
L 664.45183 144.913562 
L 664.945927 148.308518 
L 665.440024 148.260624 
L 665.93412 141.633845 
L 666.428217 141.633845 
L 666.922314 142.944994 
L 667.416411 142.944994 
L 667.910508 140.338642 
L 668.404604 140.338642 
L 668.898701 144.335476 
L 669.392798 140.112907 
L 669.886895 140.112907 
L 670.380992 153.151158 
L 670.875089 144.506755 
L 671.369185 142.396693 
L 671.863282 142.042973 
L 672.357379 142.042973 
L 672.851476 148.110225 
L 673.345573 148.110225 
L 673.839669 147.776283 
L 674.333766 147.700733 
L 674.827863 147.171699 
L 675.32196 144.416286 
L 676.80425 144.335476 
L 677.298347 145.630958 
L 677.792444 145.630958 
L 678.286541 146.195862 
L 678.780638 148.419424 
L 679.274734 143.437963 
L 679.768831 143.437963 
L 680.262928 147.287822 
L 680.757025 145.875153 
L 681.251122 145.875153 
L 681.745218 139.38358 
L 682.239315 139.38358 
L 682.733412 143.411124 
L 683.227509 142.09076 
L 684.709799 142.042973 
L 685.203896 148.21283 
L 685.697993 140.00729 
L 686.19209 140.00729 
L 686.686187 143.771572 
L 687.180283 146.56209 
L 687.67438 142.525377 
L 688.168477 142.525377 
L 688.662574 144.116241 
L 689.156671 144.116241 
L 689.650767 145.444615 
L 690.144864 144.220966 
L 690.638961 144.220966 
L 691.133058 147.62185 
L 691.627155 147.443572 
L 692.121251 147.443572 
L 692.615348 150.976399 
L 693.109445 147.259617 
L 693.603542 147.259617 
L 694.097639 149.172797 
L 694.591736 149.172797 
L 695.085832 149.999284 
L 695.579929 149.96755 
L 696.568123 145.204927 
L 697.06222 145.204927 
L 697.556316 150.134643 
L 698.050413 151.474637 
L 698.54451 150.170608 
L 699.038607 149.207286 
L 699.532704 141.689082 
L 700.0268 141.689082 
L 700.520897 147.89551 
L 701.014994 148.691552 
L 702.003188 148.793024 
L 702.497285 150.222655 
L 702.991381 150.926751 
L 703.485478 148.560678 
L 703.979575 148.560678 
L 704.473672 150.647419 
L 704.967769 150.647419 
L 705.461865 144.079393 
L 705.955962 144.079393 
L 706.450059 145.719756 
L 706.944156 145.719756 
L 707.438253 141.819416 
L 707.932349 141.819416 
L 708.426446 140.767631 
L 708.920543 140.767631 
L 709.41464 146.12197 
L 710.402834 142.331199 
L 710.89693 142.331199 
L 711.391027 145.102048 
L 711.885124 149.403709 
L 712.379221 151.682974 
L 712.873318 146.657999 
L 713.367414 146.081765 
L 713.861511 146.081765 
L 714.355608 149.65651 
L 714.849705 151.12599 
L 715.343802 148.430544 
L 715.837898 148.430544 
L 716.331995 151.824355 
L 716.826092 139.496416 
L 717.320189 139.496416 
L 717.814286 146.969014 
L 718.308383 145.031584 
L 718.802479 145.031584 
L 719.296576 140.762319 
L 719.790673 140.762319 
L 720.28477 141.877889 
L 721.272963 141.816635 
L 721.76706 146.297008 
L 722.261157 146.297008 
L 722.755254 150.72103 
L 723.249351 138.766605 
L 723.743447 138.766605 
L 724.237544 146.330823 
L 724.731641 146.330823 
L 725.225738 149.077264 
L 725.719835 150.692375 
L 726.213932 146.317291 
L 726.708028 146.317291 
L 727.202125 148.925232 
L 727.696222 143.372413 
L 728.190319 143.372413 
L 728.684416 147.007317 
L 729.178512 147.007317 
L 729.672609 150.415859 
L 730.166706 150.557768 
L 730.660803 143.723185 
L 731.1549 143.723185 
L 731.648996 151.953642 
L 732.143093 145.690118 
L 732.63719 143.387294 
L 733.131287 143.387294 
L 733.625384 142.854636 
L 734.119481 142.854636 
L 734.613577 149.100156 
L 735.107674 151.268171 
L 735.601771 146.962056 
L 736.095868 146.962056 
L 736.589965 146.568928 
L 737.578158 142.408103 
L 738.072255 142.408103 
L 738.566352 144.805641 
L 739.060449 144.805641 
L 739.554545 148.67281 
L 740.048642 148.67281 
L 740.542739 152.597875 
L 741.036836 152.597875 
L 741.530933 147.454229 
L 742.02503 147.454229 
L 742.519126 149.609629 
L 743.013223 149.83711 
L 743.50732 153.750776 
L 744.001417 147.231447 
L 744.495514 147.231447 
L 744.98961 148.91387 
L 745.483707 144.942214 
L 745.977804 144.815143 
L 746.471901 144.815143 
L 746.965998 145.217819 
L 747.460094 149.084892 
L 747.954191 149.084892 
L 748.448288 154.184775 
L 748.942385 151.423902 
L 749.436482 145.99823 
L 749.930579 145.99823 
L 750.424675 147.280768 
L 750.918772 148.227525 
L 751.412869 147.931761 
L 751.906966 146.236267 
L 752.401063 146.236267 
L 752.895159 147.917254 
L 753.389256 151.017855 
L 753.883353 148.665318 
L 754.37745 148.612938 
L 754.871547 146.750862 
L 755.365643 146.750862 
L 755.85974 152.727129 
L 756.353837 151.100991 
L 756.847934 150.885459 
L 757.342031 146.098509 
L 757.836128 146.098509 
L 758.330224 146.688911 
L 758.824321 140.040726 
L 759.318418 140.040726 
L 759.812515 148.102914 
L 760.306612 151.717169 
L 760.800708 150.166609 
L 761.294805 149.492844 
L 761.788902 149.268729 
L 762.282999 149.268729 
L 762.777096 154.222904 
L 763.271192 155.899663 
L 763.765289 246.24 
L 763.765289 246.24 
" clip-path="url(#p66de185f7d)" style="fill: none; stroke: #ffa500; stroke-width: 1.5; stroke-linecap: square"/>
   </g>
   <g id="patch_8">
    <path d="M 473.236364 256.32 
L 473.236364 34.56 
" style="fill: none; stroke: #000000; stroke-width: 0.8; stroke-linejoin: miter; stroke-linecap: square"/>
   </g>
   <g id="patch_9">
    <path d="M 777.6 256.32 
L 777.6 34.56 
" style="fill: none; stroke: #000000; stroke-width: 0.8; stroke-linejoin: miter; stroke-linecap: square"/>
   </g>
   <g id="patch_10">
    <path d="M 473.236364 256.32 
L 777.6 256.32 
" style="fill: none; stroke: #000000; stroke-width: 0.8; stroke-linejoin: miter; stroke-linecap: square"/>
   </g>
   <g id="patch_11">
    <path d="M 473.236364 34.56 
L 777.6 34.56 
" style="fill: none; stroke: #000000; stroke-width: 0.8; stroke-linejoin: miter; stroke-linecap: square"/>
   </g>
   <g id="text_33">
    <!-- Side Channel Time Peak Envelope -->
    <g transform="translate(523.581307 28.56) scale(0.12 -0.12)">
     <defs>
      <path id="DejaVuSans-53" d="M 3425 4513 
L 3425 3897 
Q 3066 4069 2747 4153 
Q 2428 4238 2131 4238 
Q 1616 4238 1336 4038 
Q 1056 3838 1056 3469 
Q 1056 3159 1242 3001 
Q 1428 2844 1947 2747 
L 2328 2669 
Q 3034 2534 3370 2195 
Q 3706 1856 3706 1288 
Q 3706 609 3251 259 
Q 2797 -91 1919 -91 
Q 1588 -91 1214 -16 
Q 841 59 441 206 
L 441 856 
Q 825 641 1194 531 
Q 1563 422 1919 422 
Q 2459 422 2753 634 
Q 3047 847 3047 1241 
Q 3047 1584 2836 1778 
Q 2625 1972 2144 2069 
L 1759 2144 
Q 1053 2284 737 2584 
Q 422 2884 422 3419 
Q 422 4038 858 4394 
Q 1294 4750 2059 4750 
Q 2388 4750 2728 4690 
Q 3069 4631 3425 4513 
z
" transform="scale(0.015625)"/>
     </defs>
     <use xlink:href="#DejaVuSans-53"/>
     <use xlink:href="#DejaVuSans-69" x="63.476562"/>
     <use xlink:href="#DejaVuSans-64" x="91.259766"/>
     <use xlink:href="#DejaVuSans-65" x="154.736328"/>
     <use xlink:href="#DejaVuSans-20" x="216.259766"/>
     <use xlink:href="#DejaVuSans-43" x="248.046875"/>
     <use xlink:href="#DejaVuSans-68" x="317.871094"/>
     <use xlink:href="#DejaVuSans-61" x="381.25"/>
     <use xlink:href="#DejaVuSans-6e" x="442.529297"/>
     <use xlink:href="#DejaVuSans-6e" x="505.908203"/>
     <use xlink:href="#DejaVuSans-65" x="569.287109"/>
     <use xlink:href="#DejaVuSans-6c" x="630.810547"/>
     <use xlink:href="#DejaVuSans-20" x="658.59375"/>
     <use xlink:href="#DejaVuSans-54" x="690.380859"/>
     <use xlink:href="#DejaVuSans-69" x="748.339844"/>
     <use xlink:href="#DejaVuSans-6d" x="776.123047"/>
     <use xlink:href="#DejaVuSans-65" x="873.535156"/>
     <use xlink:href="#DejaVuSans-20" x="935.058594"/>
     <use xlink:href="#DejaVuSans-50" x="966.845703"/>
     <use xlink:href="#DejaVuSans-65" x="1023.523438"/>
     <use xlink:href="#DejaVuSans-61" x="1085.046875"/>
     <use xlink:href="#DejaVuSans-6b" x="1146.326172"/>
     <use xlink:href="#DejaVuSans-20" x="1204.236328"/>
     <use xlink:href="#DejaVuSans-45" x="1236.023438"/>
     <use xlink:href="#DejaVuSans-6e" x="1299.207031"/>
     <use xlink:href="#DejaVuSans-76" x="1362.585938"/>
     <use xlink:href="#DejaVuSans-65" x="1421.765625"/>
     <use xlink:href="#DejaVuSans-6c" x="1483.289062"/>
     <use xlink:href="#DejaVuSans-6f" x="1511.072266"/>
     <use xlink:href="#DejaVuSans-70" x="1572.253906"/>
     <use xlink:href="#DejaVuSans-65" x="1635.730469"/>
    </g>
   </g>
  </g>
 </g>
 <defs>
  <clipPath id="pda2ed653c8">
   <rect x="108" y="34.56" width="304.363636" height="221.76"/>
  </clipPath>
  <clipPath id="p66de185f7d">
   <rect x="473.236364" y="34.56" width="304.363636" height="221.76"/>
  </clipPath>
 </defs>
</svg>
