<?xml version="1.0" encoding="utf-8" standalone="no"?>
<!DOCTYPE svg PUBLIC "-//W3C//DTD SVG 1.1//EN"
  "http://www.w3.org/Graphics/SVG/1.1/DTD/svg11.dtd">
<svg xmlns:xlink="http://www.w3.org/1999/xlink" width="864pt" height="288pt" viewBox="0 0 864 288" xmlns="http://www.w3.org/2000/svg" version="1.1">
 <metadata>
  <rdf:RDF xmlns:dc="http://purl.org/dc/elements/1.1/" xmlns:cc="http://creativecommons.org/ns#" xmlns:rdf="http://www.w3.org/1999/02/22-rdf-syntax-ns#">
   <cc:Work>
    <dc:type rdf:resource="http://purl.org/dc/dcmitype/StillImage"/>
    <dc:date>2024-06-21T12:36:24.524252</dc:date>
    <dc:format>image/svg+xml</dc:format>
    <dc:creator>
     <cc:Agent>
      <dc:title>Matplotlib v3.8.0, https://matplotlib.org/</dc:title>
     </cc:Agent>
    </dc:creator>
   </cc:Work>
  </rdf:RDF>
 </metadata>
 <defs>
  <style type="text/css">*{stroke-linejoin: round; stroke-linecap: butt}</style>
 </defs>
 <g id="figure_1">
  <g id="patch_1">
   <path d="M 0 288 
L 864 288 
L 864 0 
L 0 0 
z
" style="fill: #ffffff"/>
  </g>
  <g id="axes_1">
   <g id="patch_2">
    <path d="M 108 256.32 
L 412.363636 256.32 
L 412.363636 34.56 
L 108 34.56 
z
" style="fill: #ffffff"/>
   </g>
   <g id="matplotlib.axis_1">
    <g id="xtick_1">
     <g id="line2d_1">
      <path d="M 121.340614 256.32 
L 121.340614 34.56 
" clip-path="url(#pe14f89b33a)" style="fill: none; stroke: #b0b0b0; stroke-width: 0.8; stroke-linecap: square"/>
     </g>
     <g id="line2d_2">
      <defs>
       <path id="m283c2a459c" d="M 0 0 
L 0 3.5 
" style="stroke: #000000; stroke-width: 0.8"/>
      </defs>
      <g>
       <use xlink:href="#m283c2a459c" x="121.340614" y="256.32" style="stroke: #000000; stroke-width: 0.8"/>
      </g>
     </g>
     <g id="text_1">
      <!-- 0 -->
      <g transform="translate(118.159364 270.918437) scale(0.1 -0.1)">
       <defs>
        <path id="DejaVuSans-30" d="M 2034 4250 
Q 1547 4250 1301 3770 
Q 1056 3291 1056 2328 
Q 1056 1369 1301 889 
Q 1547 409 2034 409 
Q 2525 409 2770 889 
Q 3016 1369 3016 2328 
Q 3016 3291 2770 3770 
Q 2525 4250 2034 4250 
z
M 2034 4750 
Q 2819 4750 3233 4129 
Q 3647 3509 3647 2328 
Q 3647 1150 3233 529 
Q 2819 -91 2034 -91 
Q 1250 -91 836 529 
Q 422 1150 422 2328 
Q 422 3509 836 4129 
Q 1250 4750 2034 4750 
z
" transform="scale(0.015625)"/>
       </defs>
       <use xlink:href="#DejaVuSans-30"/>
      </g>
     </g>
    </g>
    <g id="xtick_2">
     <g id="line2d_3">
      <path d="M 167.66219 256.32 
L 167.66219 34.56 
" clip-path="url(#pe14f89b33a)" style="fill: none; stroke: #b0b0b0; stroke-width: 0.8; stroke-linecap: square"/>
     </g>
     <g id="line2d_4">
      <g>
       <use xlink:href="#m283c2a459c" x="167.66219" y="256.32" style="stroke: #000000; stroke-width: 0.8"/>
      </g>
     </g>
     <g id="text_2">
      <!-- 2 -->
      <g transform="translate(164.48094 270.918437) scale(0.1 -0.1)">
       <defs>
        <path id="DejaVuSans-32" d="M 1228 531 
L 3431 531 
L 3431 0 
L 469 0 
L 469 531 
Q 828 903 1448 1529 
Q 2069 2156 2228 2338 
Q 2531 2678 2651 2914 
Q 2772 3150 2772 3378 
Q 2772 3750 2511 3984 
Q 2250 4219 1831 4219 
Q 1534 4219 1204 4116 
Q 875 4013 500 3803 
L 500 4441 
Q 881 4594 1212 4672 
Q 1544 4750 1819 4750 
Q 2544 4750 2975 4387 
Q 3406 4025 3406 3419 
Q 3406 3131 3298 2873 
Q 3191 2616 2906 2266 
Q 2828 2175 2409 1742 
Q 1991 1309 1228 531 
z
" transform="scale(0.015625)"/>
       </defs>
       <use xlink:href="#DejaVuSans-32"/>
      </g>
     </g>
    </g>
    <g id="xtick_3">
     <g id="line2d_5">
      <path d="M 213.983766 256.32 
L 213.983766 34.56 
" clip-path="url(#pe14f89b33a)" style="fill: none; stroke: #b0b0b0; stroke-width: 0.8; stroke-linecap: square"/>
     </g>
     <g id="line2d_6">
      <g>
       <use xlink:href="#m283c2a459c" x="213.983766" y="256.32" style="stroke: #000000; stroke-width: 0.8"/>
      </g>
     </g>
     <g id="text_3">
      <!-- 4 -->
      <g transform="translate(210.802516 270.918437) scale(0.1 -0.1)">
       <defs>
        <path id="DejaVuSans-34" d="M 2419 4116 
L 825 1625 
L 2419 1625 
L 2419 4116 
z
M 2253 4666 
L 3047 4666 
L 3047 1625 
L 3713 1625 
L 3713 1100 
L 3047 1100 
L 3047 0 
L 2419 0 
L 2419 1100 
L 313 1100 
L 313 1709 
L 2253 4666 
z
" transform="scale(0.015625)"/>
       </defs>
       <use xlink:href="#DejaVuSans-34"/>
      </g>
     </g>
    </g>
    <g id="xtick_4">
     <g id="line2d_7">
      <path d="M 260.305342 256.32 
L 260.305342 34.56 
" clip-path="url(#pe14f89b33a)" style="fill: none; stroke: #b0b0b0; stroke-width: 0.8; stroke-linecap: square"/>
     </g>
     <g id="line2d_8">
      <g>
       <use xlink:href="#m283c2a459c" x="260.305342" y="256.32" style="stroke: #000000; stroke-width: 0.8"/>
      </g>
     </g>
     <g id="text_4">
      <!-- 6 -->
      <g transform="translate(257.124092 270.918437) scale(0.1 -0.1)">
       <defs>
        <path id="DejaVuSans-36" d="M 2113 2584 
Q 1688 2584 1439 2293 
Q 1191 2003 1191 1497 
Q 1191 994 1439 701 
Q 1688 409 2113 409 
Q 2538 409 2786 701 
Q 3034 994 3034 1497 
Q 3034 2003 2786 2293 
Q 2538 2584 2113 2584 
z
M 3366 4563 
L 3366 3988 
Q 3128 4100 2886 4159 
Q 2644 4219 2406 4219 
Q 1781 4219 1451 3797 
Q 1122 3375 1075 2522 
Q 1259 2794 1537 2939 
Q 1816 3084 2150 3084 
Q 2853 3084 3261 2657 
Q 3669 2231 3669 1497 
Q 3669 778 3244 343 
Q 2819 -91 2113 -91 
Q 1303 -91 875 529 
Q 447 1150 447 2328 
Q 447 3434 972 4092 
Q 1497 4750 2381 4750 
Q 2619 4750 2861 4703 
Q 3103 4656 3366 4563 
z
" transform="scale(0.015625)"/>
       </defs>
       <use xlink:href="#DejaVuSans-36"/>
      </g>
     </g>
    </g>
    <g id="xtick_5">
     <g id="line2d_9">
      <path d="M 306.626919 256.32 
L 306.626919 34.56 
" clip-path="url(#pe14f89b33a)" style="fill: none; stroke: #b0b0b0; stroke-width: 0.8; stroke-linecap: square"/>
     </g>
     <g id="line2d_10">
      <g>
       <use xlink:href="#m283c2a459c" x="306.626919" y="256.32" style="stroke: #000000; stroke-width: 0.8"/>
      </g>
     </g>
     <g id="text_5">
      <!-- 8 -->
      <g transform="translate(303.445669 270.918437) scale(0.1 -0.1)">
       <defs>
        <path id="DejaVuSans-38" d="M 2034 2216 
Q 1584 2216 1326 1975 
Q 1069 1734 1069 1313 
Q 1069 891 1326 650 
Q 1584 409 2034 409 
Q 2484 409 2743 651 
Q 3003 894 3003 1313 
Q 3003 1734 2745 1975 
Q 2488 2216 2034 2216 
z
M 1403 2484 
Q 997 2584 770 2862 
Q 544 3141 544 3541 
Q 544 4100 942 4425 
Q 1341 4750 2034 4750 
Q 2731 4750 3128 4425 
Q 3525 4100 3525 3541 
Q 3525 3141 3298 2862 
Q 3072 2584 2669 2484 
Q 3125 2378 3379 2068 
Q 3634 1759 3634 1313 
Q 3634 634 3220 271 
Q 2806 -91 2034 -91 
Q 1263 -91 848 271 
Q 434 634 434 1313 
Q 434 1759 690 2068 
Q 947 2378 1403 2484 
z
M 1172 3481 
Q 1172 3119 1398 2916 
Q 1625 2713 2034 2713 
Q 2441 2713 2670 2916 
Q 2900 3119 2900 3481 
Q 2900 3844 2670 4047 
Q 2441 4250 2034 4250 
Q 1625 4250 1398 4047 
Q 1172 3844 1172 3481 
z
" transform="scale(0.015625)"/>
       </defs>
       <use xlink:href="#DejaVuSans-38"/>
      </g>
     </g>
    </g>
    <g id="xtick_6">
     <g id="line2d_11">
      <path d="M 352.948495 256.32 
L 352.948495 34.56 
" clip-path="url(#pe14f89b33a)" style="fill: none; stroke: #b0b0b0; stroke-width: 0.8; stroke-linecap: square"/>
     </g>
     <g id="line2d_12">
      <g>
       <use xlink:href="#m283c2a459c" x="352.948495" y="256.32" style="stroke: #000000; stroke-width: 0.8"/>
      </g>
     </g>
     <g id="text_6">
      <!-- 10 -->
      <g transform="translate(346.585995 270.918437) scale(0.1 -0.1)">
       <defs>
        <path id="DejaVuSans-31" d="M 794 531 
L 1825 531 
L 1825 4091 
L 703 3866 
L 703 4441 
L 1819 4666 
L 2450 4666 
L 2450 531 
L 3481 531 
L 3481 0 
L 794 0 
L 794 531 
z
" transform="scale(0.015625)"/>
       </defs>
       <use xlink:href="#DejaVuSans-31"/>
       <use xlink:href="#DejaVuSans-30" x="63.623047"/>
      </g>
     </g>
    </g>
    <g id="xtick_7">
     <g id="line2d_13">
      <path d="M 399.270071 256.32 
L 399.270071 34.56 
" clip-path="url(#pe14f89b33a)" style="fill: none; stroke: #b0b0b0; stroke-width: 0.8; stroke-linecap: square"/>
     </g>
     <g id="line2d_14">
      <g>
       <use xlink:href="#m283c2a459c" x="399.270071" y="256.32" style="stroke: #000000; stroke-width: 0.8"/>
      </g>
     </g>
     <g id="text_7">
      <!-- 12 -->
      <g transform="translate(392.907571 270.918437) scale(0.1 -0.1)">
       <use xlink:href="#DejaVuSans-31"/>
       <use xlink:href="#DejaVuSans-32" x="63.623047"/>
      </g>
     </g>
    </g>
    <g id="text_8">
     <!-- Time (s) -->
     <g transform="translate(239.852912 284.596563) scale(0.1 -0.1)">
      <defs>
       <path id="DejaVuSans-54" d="M -19 4666 
L 3928 4666 
L 3928 4134 
L 2272 4134 
L 2272 0 
L 1638 0 
L 1638 4134 
L -19 4134 
L -19 4666 
z
" transform="scale(0.015625)"/>
       <path id="DejaVuSans-69" d="M 603 3500 
L 1178 3500 
L 1178 0 
L 603 0 
L 603 3500 
z
M 603 4863 
L 1178 4863 
L 1178 4134 
L 603 4134 
L 603 4863 
z
" transform="scale(0.015625)"/>
       <path id="DejaVuSans-6d" d="M 3328 2828 
Q 3544 3216 3844 3400 
Q 4144 3584 4550 3584 
Q 5097 3584 5394 3201 
Q 5691 2819 5691 2113 
L 5691 0 
L 5113 0 
L 5113 2094 
Q 5113 2597 4934 2840 
Q 4756 3084 4391 3084 
Q 3944 3084 3684 2787 
Q 3425 2491 3425 1978 
L 3425 0 
L 2847 0 
L 2847 2094 
Q 2847 2600 2669 2842 
Q 2491 3084 2119 3084 
Q 1678 3084 1418 2786 
Q 1159 2488 1159 1978 
L 1159 0 
L 581 0 
L 581 3500 
L 1159 3500 
L 1159 2956 
Q 1356 3278 1631 3431 
Q 1906 3584 2284 3584 
Q 2666 3584 2933 3390 
Q 3200 3197 3328 2828 
z
" transform="scale(0.015625)"/>
       <path id="DejaVuSans-65" d="M 3597 1894 
L 3597 1613 
L 953 1613 
Q 991 1019 1311 708 
Q 1631 397 2203 397 
Q 2534 397 2845 478 
Q 3156 559 3463 722 
L 3463 178 
Q 3153 47 2828 -22 
Q 2503 -91 2169 -91 
Q 1331 -91 842 396 
Q 353 884 353 1716 
Q 353 2575 817 3079 
Q 1281 3584 2069 3584 
Q 2775 3584 3186 3129 
Q 3597 2675 3597 1894 
z
M 3022 2063 
Q 3016 2534 2758 2815 
Q 2500 3097 2075 3097 
Q 1594 3097 1305 2825 
Q 1016 2553 972 2059 
L 3022 2063 
z
" transform="scale(0.015625)"/>
       <path id="DejaVuSans-20" transform="scale(0.015625)"/>
       <path id="DejaVuSans-28" d="M 1984 4856 
Q 1566 4138 1362 3434 
Q 1159 2731 1159 2009 
Q 1159 1288 1364 580 
Q 1569 -128 1984 -844 
L 1484 -844 
Q 1016 -109 783 600 
Q 550 1309 550 2009 
Q 550 2706 781 3412 
Q 1013 4119 1484 4856 
L 1984 4856 
z
" transform="scale(0.015625)"/>
       <path id="DejaVuSans-73" d="M 2834 3397 
L 2834 2853 
Q 2591 2978 2328 3040 
Q 2066 3103 1784 3103 
Q 1356 3103 1142 2972 
Q 928 2841 928 2578 
Q 928 2378 1081 2264 
Q 1234 2150 1697 2047 
L 1894 2003 
Q 2506 1872 2764 1633 
Q 3022 1394 3022 966 
Q 3022 478 2636 193 
Q 2250 -91 1575 -91 
Q 1294 -91 989 -36 
Q 684 19 347 128 
L 347 722 
Q 666 556 975 473 
Q 1284 391 1588 391 
Q 1994 391 2212 530 
Q 2431 669 2431 922 
Q 2431 1156 2273 1281 
Q 2116 1406 1581 1522 
L 1381 1569 
Q 847 1681 609 1914 
Q 372 2147 372 2553 
Q 372 3047 722 3315 
Q 1072 3584 1716 3584 
Q 2034 3584 2315 3537 
Q 2597 3491 2834 3397 
z
" transform="scale(0.015625)"/>
       <path id="DejaVuSans-29" d="M 513 4856 
L 1013 4856 
Q 1481 4119 1714 3412 
Q 1947 2706 1947 2009 
Q 1947 1309 1714 600 
Q 1481 -109 1013 -844 
L 513 -844 
Q 928 -128 1133 580 
Q 1338 1288 1338 2009 
Q 1338 2731 1133 3434 
Q 928 4138 513 4856 
z
" transform="scale(0.015625)"/>
      </defs>
      <use xlink:href="#DejaVuSans-54"/>
      <use xlink:href="#DejaVuSans-69" x="57.958984"/>
      <use xlink:href="#DejaVuSans-6d" x="85.742188"/>
      <use xlink:href="#DejaVuSans-65" x="183.154297"/>
      <use xlink:href="#DejaVuSans-20" x="244.677734"/>
      <use xlink:href="#DejaVuSans-28" x="276.464844"/>
      <use xlink:href="#DejaVuSans-73" x="315.478516"/>
      <use xlink:href="#DejaVuSans-29" x="367.578125"/>
     </g>
    </g>
   </g>
   <g id="matplotlib.axis_2">
    <g id="ytick_1">
     <g id="line2d_15">
      <path d="M 108 230.140622 
L 412.363636 230.140622 
" clip-path="url(#pe14f89b33a)" style="fill: none; stroke: #b0b0b0; stroke-width: 0.8; stroke-linecap: square"/>
     </g>
     <g id="line2d_16">
      <defs>
       <path id="m7dde75770f" d="M 0 0 
L -3.5 0 
" style="stroke: #000000; stroke-width: 0.8"/>
      </defs>
      <g>
       <use xlink:href="#m7dde75770f" x="108" y="230.140622" style="stroke: #000000; stroke-width: 0.8"/>
      </g>
     </g>
     <g id="text_9">
      <!-- −80 -->
      <g transform="translate(79.895313 233.939841) scale(0.1 -0.1)">
       <defs>
        <path id="DejaVuSans-2212" d="M 678 2272 
L 4684 2272 
L 4684 1741 
L 678 1741 
L 678 2272 
z
" transform="scale(0.015625)"/>
       </defs>
       <use xlink:href="#DejaVuSans-2212"/>
       <use xlink:href="#DejaVuSans-38" x="83.789062"/>
       <use xlink:href="#DejaVuSans-30" x="147.412109"/>
      </g>
     </g>
    </g>
    <g id="ytick_2">
     <g id="line2d_17">
      <path d="M 108 183.765467 
L 412.363636 183.765467 
" clip-path="url(#pe14f89b33a)" style="fill: none; stroke: #b0b0b0; stroke-width: 0.8; stroke-linecap: square"/>
     </g>
     <g id="line2d_18">
      <g>
       <use xlink:href="#m7dde75770f" x="108" y="183.765467" style="stroke: #000000; stroke-width: 0.8"/>
      </g>
     </g>
     <g id="text_10">
      <!-- −60 -->
      <g transform="translate(79.895313 187.564686) scale(0.1 -0.1)">
       <use xlink:href="#DejaVuSans-2212"/>
       <use xlink:href="#DejaVuSans-36" x="83.789062"/>
       <use xlink:href="#DejaVuSans-30" x="147.412109"/>
      </g>
     </g>
    </g>
    <g id="ytick_3">
     <g id="line2d_19">
      <path d="M 108 137.390311 
L 412.363636 137.390311 
" clip-path="url(#pe14f89b33a)" style="fill: none; stroke: #b0b0b0; stroke-width: 0.8; stroke-linecap: square"/>
     </g>
     <g id="line2d_20">
      <g>
       <use xlink:href="#m7dde75770f" x="108" y="137.390311" style="stroke: #000000; stroke-width: 0.8"/>
      </g>
     </g>
     <g id="text_11">
      <!-- −40 -->
      <g transform="translate(79.895313 141.18953) scale(0.1 -0.1)">
       <use xlink:href="#DejaVuSans-2212"/>
       <use xlink:href="#DejaVuSans-34" x="83.789062"/>
       <use xlink:href="#DejaVuSans-30" x="147.412109"/>
      </g>
     </g>
    </g>
    <g id="ytick_4">
     <g id="line2d_21">
      <path d="M 108 91.015156 
L 412.363636 91.015156 
" clip-path="url(#pe14f89b33a)" style="fill: none; stroke: #b0b0b0; stroke-width: 0.8; stroke-linecap: square"/>
     </g>
     <g id="line2d_22">
      <g>
       <use xlink:href="#m7dde75770f" x="108" y="91.015156" style="stroke: #000000; stroke-width: 0.8"/>
      </g>
     </g>
     <g id="text_12">
      <!-- −20 -->
      <g transform="translate(79.895313 94.814374) scale(0.1 -0.1)">
       <use xlink:href="#DejaVuSans-2212"/>
       <use xlink:href="#DejaVuSans-32" x="83.789062"/>
       <use xlink:href="#DejaVuSans-30" x="147.412109"/>
      </g>
     </g>
    </g>
    <g id="ytick_5">
     <g id="line2d_23">
      <path d="M 108 44.64 
L 412.363636 44.64 
" clip-path="url(#pe14f89b33a)" style="fill: none; stroke: #b0b0b0; stroke-width: 0.8; stroke-linecap: square"/>
     </g>
     <g id="line2d_24">
      <g>
       <use xlink:href="#m7dde75770f" x="108" y="44.64" style="stroke: #000000; stroke-width: 0.8"/>
      </g>
     </g>
     <g id="text_13">
      <!-- 0 -->
      <g transform="translate(94.6375 48.439219) scale(0.1 -0.1)">
       <use xlink:href="#DejaVuSans-30"/>
      </g>
     </g>
    </g>
    <g id="text_14">
     <!-- Amplitude -->
     <g transform="translate(73.815625 171.062656) rotate(-90) scale(0.1 -0.1)">
      <defs>
       <path id="DejaVuSans-41" d="M 2188 4044 
L 1331 1722 
L 3047 1722 
L 2188 4044 
z
M 1831 4666 
L 2547 4666 
L 4325 0 
L 3669 0 
L 3244 1197 
L 1141 1197 
L 716 0 
L 50 0 
L 1831 4666 
z
" transform="scale(0.015625)"/>
       <path id="DejaVuSans-70" d="M 1159 525 
L 1159 -1331 
L 581 -1331 
L 581 3500 
L 1159 3500 
L 1159 2969 
Q 1341 3281 1617 3432 
Q 1894 3584 2278 3584 
Q 2916 3584 3314 3078 
Q 3713 2572 3713 1747 
Q 3713 922 3314 415 
Q 2916 -91 2278 -91 
Q 1894 -91 1617 61 
Q 1341 213 1159 525 
z
M 3116 1747 
Q 3116 2381 2855 2742 
Q 2594 3103 2138 3103 
Q 1681 3103 1420 2742 
Q 1159 2381 1159 1747 
Q 1159 1113 1420 752 
Q 1681 391 2138 391 
Q 2594 391 2855 752 
Q 3116 1113 3116 1747 
z
" transform="scale(0.015625)"/>
       <path id="DejaVuSans-6c" d="M 603 4863 
L 1178 4863 
L 1178 0 
L 603 0 
L 603 4863 
z
" transform="scale(0.015625)"/>
       <path id="DejaVuSans-74" d="M 1172 4494 
L 1172 3500 
L 2356 3500 
L 2356 3053 
L 1172 3053 
L 1172 1153 
Q 1172 725 1289 603 
Q 1406 481 1766 481 
L 2356 481 
L 2356 0 
L 1766 0 
Q 1100 0 847 248 
Q 594 497 594 1153 
L 594 3053 
L 172 3053 
L 172 3500 
L 594 3500 
L 594 4494 
L 1172 4494 
z
" transform="scale(0.015625)"/>
       <path id="DejaVuSans-75" d="M 544 1381 
L 544 3500 
L 1119 3500 
L 1119 1403 
Q 1119 906 1312 657 
Q 1506 409 1894 409 
Q 2359 409 2629 706 
Q 2900 1003 2900 1516 
L 2900 3500 
L 3475 3500 
L 3475 0 
L 2900 0 
L 2900 538 
Q 2691 219 2414 64 
Q 2138 -91 1772 -91 
Q 1169 -91 856 284 
Q 544 659 544 1381 
z
M 1991 3584 
L 1991 3584 
z
" transform="scale(0.015625)"/>
       <path id="DejaVuSans-64" d="M 2906 2969 
L 2906 4863 
L 3481 4863 
L 3481 0 
L 2906 0 
L 2906 525 
Q 2725 213 2448 61 
Q 2172 -91 1784 -91 
Q 1150 -91 751 415 
Q 353 922 353 1747 
Q 353 2572 751 3078 
Q 1150 3584 1784 3584 
Q 2172 3584 2448 3432 
Q 2725 3281 2906 2969 
z
M 947 1747 
Q 947 1113 1208 752 
Q 1469 391 1925 391 
Q 2381 391 2643 752 
Q 2906 1113 2906 1747 
Q 2906 2381 2643 2742 
Q 2381 3103 1925 3103 
Q 1469 3103 1208 2742 
Q 947 2381 947 1747 
z
" transform="scale(0.015625)"/>
      </defs>
      <use xlink:href="#DejaVuSans-41"/>
      <use xlink:href="#DejaVuSans-6d" x="68.408203"/>
      <use xlink:href="#DejaVuSans-70" x="165.820312"/>
      <use xlink:href="#DejaVuSans-6c" x="229.296875"/>
      <use xlink:href="#DejaVuSans-69" x="257.080078"/>
      <use xlink:href="#DejaVuSans-74" x="284.863281"/>
      <use xlink:href="#DejaVuSans-75" x="324.072266"/>
      <use xlink:href="#DejaVuSans-64" x="387.451172"/>
      <use xlink:href="#DejaVuSans-65" x="450.927734"/>
     </g>
    </g>
   </g>
   <g id="line2d_25">
    <path d="M 121.834711 167.19732 
L 122.328808 44.64 
L 122.822904 44.64 
L 123.317001 45.492248 
L 123.811098 45.188577 
L 124.305195 45.188577 
L 124.799292 51.059811 
L 125.293388 51.059811 
L 125.787485 53.278978 
L 126.281582 53.710829 
L 126.775679 55.219473 
L 127.269776 55.667047 
L 127.763872 56.775741 
L 128.257969 58.724533 
L 128.752066 59.119993 
L 129.246163 61.043083 
L 129.74026 61.043083 
L 130.234357 63.449389 
L 130.728453 63.449389 
L 131.22255 66.079918 
L 131.716647 66.432504 
L 132.704841 68.780204 
L 133.198937 69.774145 
L 133.693034 72.003504 
L 134.187131 72.003504 
L 134.681228 74.385892 
L 135.175325 74.385892 
L 135.669421 77.042423 
L 136.163518 77.042423 
L 136.657615 80.14158 
L 137.151712 80.14158 
L 137.645809 82.541763 
L 138.139906 82.541763 
L 138.634002 84.638798 
L 139.128099 84.638798 
L 139.622196 85.726783 
L 140.116293 85.726783 
L 140.61039 86.498468 
L 141.104486 86.498468 
L 141.598583 86.733935 
L 142.09268 86.733935 
L 142.586777 86.408149 
L 143.080874 86.408149 
L 143.57497 86.200488 
L 144.563164 86.139262 
L 145.057261 86.699051 
L 145.551358 86.864036 
L 146.045455 87.373491 
L 146.539551 87.548596 
L 147.033648 88.244812 
L 147.527745 88.244812 
L 148.021842 89.343378 
L 148.515939 89.343378 
L 149.010035 90.81659 
L 149.504132 91.297235 
L 150.492326 93.019573 
L 150.986423 93.323195 
L 151.480519 95.542325 
L 151.974616 95.542325 
L 152.468713 98.066652 
L 152.96281 98.162466 
L 153.456907 101.16084 
L 153.951004 101.448843 
L 154.4451 103.913172 
L 154.939197 104.553281 
L 155.433294 107.429858 
L 155.927391 107.803665 
L 156.421488 109.857795 
L 156.915584 110.230418 
L 157.409681 111.149766 
L 158.891972 111.094857 
L 159.880165 110.177223 
L 160.374262 109.357329 
L 160.868359 108.75417 
L 162.844746 107.736628 
L 163.83294 107.696162 
L 164.327037 107.620057 
L 164.821133 107.418098 
L 165.31523 107.418098 
L 165.809327 107.934741 
L 166.303424 107.934741 
L 166.797521 108.380562 
L 167.291617 109.360495 
L 167.785714 109.360495 
L 168.279811 110.134255 
L 168.773908 110.37686 
L 169.268005 111.101223 
L 169.762102 111.566547 
L 170.256198 113.58461 
L 170.750295 115.000782 
L 171.244392 115.748339 
L 172.232586 118.0273 
L 172.726682 118.33839 
L 173.220779 120.349174 
L 173.714876 121.456193 
L 174.208973 122.967808 
L 174.70307 123.941817 
L 175.197166 124.237291 
L 176.18536 124.173473 
L 176.679457 124.228898 
L 177.173554 123.62474 
L 178.161747 123.574085 
L 178.655844 122.560019 
L 179.149941 122.465115 
L 179.644038 122.008916 
L 180.138135 122.008916 
L 180.632231 120.880051 
L 181.126328 119.424247 
L 181.620425 119.424247 
L 182.114522 120.95524 
L 182.608619 120.171227 
L 183.102715 120.171227 
L 183.596812 120.56083 
L 184.090909 120.56083 
L 184.585006 121.822419 
L 185.079103 121.822419 
L 185.5732 122.958545 
L 186.067296 122.958545 
L 186.561393 123.5328 
L 187.05549 123.5328 
L 187.549587 124.467027 
L 188.043684 124.467027 
L 188.53778 125.742576 
L 189.525974 129.998675 
L 190.020071 130.266891 
L 190.514168 130.266891 
L 191.008264 132.207375 
L 191.502361 133.645677 
L 191.996458 135.859169 
L 192.490555 135.859169 
L 192.984652 136.87909 
L 193.478749 136.87909 
L 193.972845 139.304683 
L 194.466942 141.113171 
L 194.961039 139.563392 
L 195.455136 138.533536 
L 195.949233 138.533536 
L 196.443329 140.167186 
L 196.937426 140.167186 
L 197.431523 138.558411 
L 197.92562 138.558411 
L 198.419717 138.105324 
L 198.913813 138.105324 
L 199.40791 137.327967 
L 199.902007 135.937741 
L 200.396104 135.937741 
L 200.890201 136.695631 
L 201.384298 135.272701 
L 201.878394 135.272701 
L 202.372491 135.922212 
L 202.866588 136.879366 
L 203.360685 135.598851 
L 203.854782 135.598851 
L 204.348878 137.698666 
L 204.842975 137.336714 
L 205.337072 137.336714 
L 206.325266 138.476111 
L 206.819362 139.481599 
L 207.313459 141.098538 
L 207.807556 139.831535 
L 208.301653 139.831535 
L 208.79575 142.619783 
L 209.289847 142.619783 
L 209.783943 145.765461 
L 210.27804 146.391866 
L 210.772137 146.391866 
L 211.266234 147.291248 
L 211.760331 148.563591 
L 212.254427 149.281474 
L 212.748524 151.980492 
L 213.242621 149.505385 
L 213.736718 149.505385 
L 214.230815 150.733463 
L 214.724911 150.359861 
L 215.219008 150.359861 
L 215.713105 151.215626 
L 216.207202 150.445173 
L 216.701299 150.445173 
L 217.195396 150.793381 
L 217.689492 149.306514 
L 218.183589 148.361562 
L 218.677686 148.361562 
L 219.171783 147.244112 
L 219.66588 147.244112 
L 220.159976 147.899961 
L 220.654073 147.899961 
L 221.14817 146.91131 
L 221.642267 145.33896 
L 222.136364 145.33896 
L 222.63046 146.444587 
L 223.124557 145.165444 
L 223.618654 145.165444 
L 224.112751 147.916181 
L 224.606848 147.916181 
L 225.100945 151.163971 
L 225.595041 151.222374 
L 226.089138 151.894252 
L 226.583235 149.906481 
L 227.077332 149.906481 
L 227.571429 154.302031 
L 228.065525 153.2339 
L 228.559622 153.2339 
L 229.053719 155.326999 
L 229.547816 158.026434 
L 230.041913 158.301884 
L 230.536009 158.043787 
L 231.030106 158.043787 
L 231.524203 162.602417 
L 232.0183 161.804084 
L 232.512397 161.804084 
L 233.006494 163.308289 
L 233.50059 159.060917 
L 233.994687 159.060917 
L 234.488784 162.042299 
L 234.982881 162.662867 
L 235.476978 161.635504 
L 235.971074 160.871169 
L 236.465171 158.824938 
L 236.959268 158.824938 
L 237.947462 160.509419 
L 238.441558 160.153176 
L 238.935655 160.153176 
L 239.429752 160.589845 
L 239.923849 159.577065 
L 240.417946 158.938457 
L 240.912043 157.37407 
L 241.406139 157.37407 
L 241.900236 157.231084 
L 242.394333 157.231084 
L 242.88843 158.290698 
L 243.382527 160.218999 
L 243.876623 158.586017 
L 244.37072 158.586017 
L 244.864817 155.956604 
L 245.358914 155.956604 
L 245.853011 160.06749 
L 246.347107 163.177539 
L 246.841204 161.151874 
L 247.335301 161.151874 
L 247.829398 164.193416 
L 248.323495 163.050668 
L 248.817591 163.050668 
L 249.311688 162.88642 
L 249.805785 162.88642 
L 250.299882 164.129268 
L 250.793979 167.104304 
L 251.288076 167.104304 
L 251.782172 168.014212 
L 252.276269 167.49663 
L 252.770366 167.49663 
L 253.264463 167.126588 
L 253.75856 167.126588 
L 254.746753 160.107665 
L 255.24085 160.107665 
L 255.734947 162.727482 
L 256.229044 161.982721 
L 256.72314 161.982721 
L 257.217237 163.199952 
L 257.711334 163.199952 
L 258.205431 167.976705 
L 259.193625 164.910654 
L 259.687721 164.450988 
L 260.181818 164.450988 
L 260.675915 165.960669 
L 261.170012 164.888473 
L 261.664109 164.888473 
L 262.158205 169.237729 
L 262.652302 170.063285 
L 263.146399 166.668552 
L 263.640496 166.668552 
L 264.134593 169.314911 
L 264.628689 170.534539 
L 265.122786 170.7573 
L 265.616883 170.7573 
L 266.11098 170.227334 
L 266.605077 167.881314 
L 267.099174 167.881314 
L 267.59327 169.474345 
L 268.087367 169.474345 
L 268.581464 168.477774 
L 269.075561 168.477774 
L 269.569658 173.918169 
L 270.063754 172.712377 
L 270.557851 170.467165 
L 271.051948 170.467165 
L 271.546045 166.371665 
L 272.040142 166.371665 
L 272.534238 170.354888 
L 273.028335 170.702488 
L 273.522432 170.748401 
L 274.016529 172.36396 
L 274.510626 166.252702 
L 275.004723 166.252702 
L 275.498819 169.063778 
L 276.98111 163.503949 
L 277.475207 163.503949 
L 277.969303 163.724532 
L 278.4634 163.724532 
L 279.451594 169.679997 
L 279.945691 169.679997 
L 280.439787 166.877907 
L 280.933884 166.877907 
L 281.427981 166.277626 
L 281.922078 166.277626 
L 282.416175 165.890648 
L 282.910272 165.890648 
L 283.404368 168.464531 
L 283.898465 159.26445 
L 284.392562 159.26445 
L 284.886659 166.680665 
L 285.380756 168.133663 
L 285.874852 168.133663 
L 286.368949 166.257447 
L 286.863046 166.257447 
L 287.357143 167.630816 
L 287.85124 167.630816 
L 288.345336 165.477838 
L 288.839433 165.477838 
L 289.33353 172.045174 
L 289.827627 165.127088 
L 290.321724 165.127088 
L 290.815821 161.921404 
L 291.309917 161.921404 
L 291.804014 162.928613 
L 292.298111 162.928613 
L 292.792208 164.518348 
L 293.286305 162.820293 
L 293.780401 162.820293 
L 294.274498 164.296481 
L 294.768595 164.296481 
L 295.262692 167.20478 
L 295.756789 166.484135 
L 296.250885 166.484135 
L 296.744982 167.278283 
L 297.239079 174.069726 
L 297.733176 177.660796 
L 298.227273 172.727094 
L 298.72137 172.727094 
L 299.709563 168.009034 
L 300.20366 168.009034 
L 300.697757 175.252629 
L 301.191854 170.240342 
L 301.68595 168.357587 
L 302.180047 168.357587 
L 302.674144 169.388232 
L 303.168241 170.683265 
L 304.156434 177.654528 
L 304.650531 179.154813 
L 305.144628 183.70933 
L 305.638725 173.053624 
L 306.132822 173.053624 
L 306.626919 181.090618 
L 307.121015 182.828656 
L 307.615112 181.526457 
L 308.109209 171.90178 
L 308.603306 171.90178 
L 309.097403 180.780796 
L 309.591499 179.869609 
L 310.085596 179.869609 
L 310.579693 175.461399 
L 311.07379 175.461399 
L 311.567887 179.700078 
L 312.061983 180.451649 
L 312.55608 179.771896 
L 313.050177 179.771896 
L 313.544274 181.886688 
L 314.038371 178.070376 
L 314.532468 176.958437 
L 315.026564 176.958437 
L 315.520661 179.958427 
L 316.014758 181.912482 
L 316.508855 177.165362 
L 317.002952 176.604332 
L 317.497048 176.604332 
L 317.991145 177.816047 
L 318.485242 181.264823 
L 318.979339 171.543842 
L 319.473436 171.543842 
L 319.967532 177.366194 
L 320.461629 174.852377 
L 320.955726 174.852377 
L 321.449823 177.021101 
L 321.94392 176.139735 
L 322.438017 176.139735 
L 322.932113 180.194045 
L 323.42621 178.37121 
L 324.414404 178.276177 
L 324.908501 180.038228 
L 325.402597 173.27765 
L 325.896694 173.27765 
L 326.390791 176.839709 
L 326.884888 176.839709 
L 327.378985 179.231487 
L 327.873081 180.559963 
L 328.367178 182.263983 
L 328.861275 172.950807 
L 329.355372 170.877817 
L 329.849469 170.877817 
L 330.343566 177.035278 
L 330.837662 180.432453 
L 331.331759 174.950784 
L 331.825856 174.950784 
L 332.319953 177.409492 
L 332.81405 181.155147 
L 333.308146 181.155147 
L 333.802243 181.31738 
L 334.29634 176.891944 
L 334.790437 176.891944 
L 335.284534 183.763019 
L 335.77863 183.616419 
L 336.272727 183.616419 
L 336.766824 182.587 
L 337.260921 172.070492 
L 337.755018 171.751605 
L 338.249115 171.751605 
L 338.743211 178.632693 
L 339.237308 178.632693 
L 339.731405 180.996677 
L 340.225502 178.072509 
L 340.719599 171.915916 
L 341.213695 171.915916 
L 341.707792 181.567011 
L 342.201889 173.192093 
L 342.695986 173.192093 
L 343.190083 182.258731 
L 343.684179 183.537921 
L 344.178276 182.677952 
L 344.672373 178.384204 
L 345.16647 177.616956 
L 345.660567 177.616956 
L 346.154664 177.980995 
L 346.64876 176.61425 
L 347.142857 176.61425 
L 347.636954 175.90852 
L 348.131051 175.90852 
L 349.119244 179.9514 
L 349.613341 173.567203 
L 350.107438 173.567203 
L 351.095632 179.809064 
L 351.589728 179.809064 
L 352.083825 180.741792 
L 352.577922 179.013507 
L 353.072019 179.013507 
L 353.566116 180.649461 
L 354.060213 183.819689 
L 354.554309 185.242099 
L 355.048406 180.227253 
L 355.542503 180.227253 
L 356.0366 178.689798 
L 356.530697 178.689798 
L 357.024793 178.828843 
L 357.51889 178.6305 
L 358.012987 178.6305 
L 358.507084 180.296215 
L 359.001181 176.133922 
L 359.495277 176.133922 
L 359.989374 176.285603 
L 360.483471 176.285603 
L 360.977568 175.502663 
L 361.471665 169.232227 
L 361.965762 169.232227 
L 362.459858 171.659863 
L 362.953955 177.951289 
L 363.448052 173.793599 
L 364.436246 171.591716 
L 364.930342 164.745988 
L 365.424439 164.745988 
L 365.918536 168.739099 
L 366.412633 161.073762 
L 366.90673 161.073762 
L 367.400826 169.843776 
L 367.894923 159.911918 
L 368.38902 159.911918 
L 369.377214 171.85473 
L 369.871311 169.25562 
L 370.365407 169.25562 
L 370.859504 171.006568 
L 371.353601 175.534606 
L 371.847698 164.818761 
L 372.341795 164.818761 
L 372.835891 166.45536 
L 373.329988 166.45536 
L 373.824085 168.205414 
L 374.318182 175.45016 
L 374.812279 175.45016 
L 375.306375 172.44929 
L 375.800472 167.495369 
L 376.294569 167.135261 
L 376.788666 167.135261 
L 377.282763 172.621044 
L 377.77686 172.621044 
L 378.270956 170.061852 
L 379.25915 170.037504 
L 379.753247 175.864506 
L 380.247344 175.864506 
L 380.74144 176.653971 
L 381.235537 172.175266 
L 381.729634 168.772677 
L 382.223731 168.504285 
L 382.717828 168.504285 
L 383.211924 172.162537 
L 383.706021 174.236533 
L 384.200118 169.910516 
L 385.188312 170.008898 
L 385.682409 166.838792 
L 386.176505 165.311885 
L 386.670602 165.311885 
L 387.164699 167.967662 
L 387.658796 162.786313 
L 388.152893 162.786313 
L 388.646989 165.377648 
L 389.141086 166.557459 
L 389.635183 166.42184 
L 390.12928 166.42184 
L 390.623377 167.192348 
L 391.117473 167.192348 
L 391.61157 169.031074 
L 392.105667 169.031074 
L 392.599764 179.285786 
L 393.093861 181.602564 
L 393.587957 178.427577 
L 394.082054 178.427577 
L 394.576151 176.721676 
L 395.070248 176.397174 
L 395.564345 176.397174 
L 396.058442 175.049673 
L 396.552538 170.78699 
L 397.046635 170.78699 
L 397.540732 175.634522 
L 398.034829 183.876519 
L 398.528926 246.24 
L 398.528926 246.24 
" clip-path="url(#pe14f89b33a)" style="fill: none; stroke: #800080; stroke-width: 1.5; stroke-linecap: square"/>
   </g>
   <g id="patch_3">
    <path d="M 108 256.32 
L 108 34.56 
" style="fill: none; stroke: #000000; stroke-width: 0.8; stroke-linejoin: miter; stroke-linecap: square"/>
   </g>
   <g id="patch_4">
    <path d="M 412.363636 256.32 
L 412.363636 34.56 
" style="fill: none; stroke: #000000; stroke-width: 0.8; stroke-linejoin: miter; stroke-linecap: square"/>
   </g>
   <g id="patch_5">
    <path d="M 108 256.32 
L 412.363636 256.32 
" style="fill: none; stroke: #000000; stroke-width: 0.8; stroke-linejoin: miter; stroke-linecap: square"/>
   </g>
   <g id="patch_6">
    <path d="M 108 34.56 
L 412.363636 34.56 
" style="fill: none; stroke: #000000; stroke-width: 0.8; stroke-linejoin: miter; stroke-linecap: square"/>
   </g>
   <g id="text_15">
    <!-- Mid Channel Time Peak Envelope -->
    <g transform="translate(160.669006 28.56) scale(0.12 -0.12)">
     <defs>
      <path id="DejaVuSans-4d" d="M 628 4666 
L 1569 4666 
L 2759 1491 
L 3956 4666 
L 4897 4666 
L 4897 0 
L 4281 0 
L 4281 4097 
L 3078 897 
L 2444 897 
L 1241 4097 
L 1241 0 
L 628 0 
L 628 4666 
z
" transform="scale(0.015625)"/>
      <path id="DejaVuSans-43" d="M 4122 4306 
L 4122 3641 
Q 3803 3938 3442 4084 
Q 3081 4231 2675 4231 
Q 1875 4231 1450 3742 
Q 1025 3253 1025 2328 
Q 1025 1406 1450 917 
Q 1875 428 2675 428 
Q 3081 428 3442 575 
Q 3803 722 4122 1019 
L 4122 359 
Q 3791 134 3420 21 
Q 3050 -91 2638 -91 
Q 1578 -91 968 557 
Q 359 1206 359 2328 
Q 359 3453 968 4101 
Q 1578 4750 2638 4750 
Q 3056 4750 3426 4639 
Q 3797 4528 4122 4306 
z
" transform="scale(0.015625)"/>
      <path id="DejaVuSans-68" d="M 3513 2113 
L 3513 0 
L 2938 0 
L 2938 2094 
Q 2938 2591 2744 2837 
Q 2550 3084 2163 3084 
Q 1697 3084 1428 2787 
Q 1159 2491 1159 1978 
L 1159 0 
L 581 0 
L 581 4863 
L 1159 4863 
L 1159 2956 
Q 1366 3272 1645 3428 
Q 1925 3584 2291 3584 
Q 2894 3584 3203 3211 
Q 3513 2838 3513 2113 
z
" transform="scale(0.015625)"/>
      <path id="DejaVuSans-61" d="M 2194 1759 
Q 1497 1759 1228 1600 
Q 959 1441 959 1056 
Q 959 750 1161 570 
Q 1363 391 1709 391 
Q 2188 391 2477 730 
Q 2766 1069 2766 1631 
L 2766 1759 
L 2194 1759 
z
M 3341 1997 
L 3341 0 
L 2766 0 
L 2766 531 
Q 2569 213 2275 61 
Q 1981 -91 1556 -91 
Q 1019 -91 701 211 
Q 384 513 384 1019 
Q 384 1609 779 1909 
Q 1175 2209 1959 2209 
L 2766 2209 
L 2766 2266 
Q 2766 2663 2505 2880 
Q 2244 3097 1772 3097 
Q 1472 3097 1187 3025 
Q 903 2953 641 2809 
L 641 3341 
Q 956 3463 1253 3523 
Q 1550 3584 1831 3584 
Q 2591 3584 2966 3190 
Q 3341 2797 3341 1997 
z
" transform="scale(0.015625)"/>
      <path id="DejaVuSans-6e" d="M 3513 2113 
L 3513 0 
L 2938 0 
L 2938 2094 
Q 2938 2591 2744 2837 
Q 2550 3084 2163 3084 
Q 1697 3084 1428 2787 
Q 1159 2491 1159 1978 
L 1159 0 
L 581 0 
L 581 3500 
L 1159 3500 
L 1159 2956 
Q 1366 3272 1645 3428 
Q 1925 3584 2291 3584 
Q 2894 3584 3203 3211 
Q 3513 2838 3513 2113 
z
" transform="scale(0.015625)"/>
      <path id="DejaVuSans-50" d="M 1259 4147 
L 1259 2394 
L 2053 2394 
Q 2494 2394 2734 2622 
Q 2975 2850 2975 3272 
Q 2975 3691 2734 3919 
Q 2494 4147 2053 4147 
L 1259 4147 
z
M 628 4666 
L 2053 4666 
Q 2838 4666 3239 4311 
Q 3641 3956 3641 3272 
Q 3641 2581 3239 2228 
Q 2838 1875 2053 1875 
L 1259 1875 
L 1259 0 
L 628 0 
L 628 4666 
z
" transform="scale(0.015625)"/>
      <path id="DejaVuSans-6b" d="M 581 4863 
L 1159 4863 
L 1159 1991 
L 2875 3500 
L 3609 3500 
L 1753 1863 
L 3688 0 
L 2938 0 
L 1159 1709 
L 1159 0 
L 581 0 
L 581 4863 
z
" transform="scale(0.015625)"/>
      <path id="DejaVuSans-45" d="M 628 4666 
L 3578 4666 
L 3578 4134 
L 1259 4134 
L 1259 2753 
L 3481 2753 
L 3481 2222 
L 1259 2222 
L 1259 531 
L 3634 531 
L 3634 0 
L 628 0 
L 628 4666 
z
" transform="scale(0.015625)"/>
      <path id="DejaVuSans-76" d="M 191 3500 
L 800 3500 
L 1894 563 
L 2988 3500 
L 3597 3500 
L 2284 0 
L 1503 0 
L 191 3500 
z
" transform="scale(0.015625)"/>
      <path id="DejaVuSans-6f" d="M 1959 3097 
Q 1497 3097 1228 2736 
Q 959 2375 959 1747 
Q 959 1119 1226 758 
Q 1494 397 1959 397 
Q 2419 397 2687 759 
Q 2956 1122 2956 1747 
Q 2956 2369 2687 2733 
Q 2419 3097 1959 3097 
z
M 1959 3584 
Q 2709 3584 3137 3096 
Q 3566 2609 3566 1747 
Q 3566 888 3137 398 
Q 2709 -91 1959 -91 
Q 1206 -91 779 398 
Q 353 888 353 1747 
Q 353 2609 779 3096 
Q 1206 3584 1959 3584 
z
" transform="scale(0.015625)"/>
     </defs>
     <use xlink:href="#DejaVuSans-4d"/>
     <use xlink:href="#DejaVuSans-69" x="86.279297"/>
     <use xlink:href="#DejaVuSans-64" x="114.0625"/>
     <use xlink:href="#DejaVuSans-20" x="177.539062"/>
     <use xlink:href="#DejaVuSans-43" x="209.326172"/>
     <use xlink:href="#DejaVuSans-68" x="279.150391"/>
     <use xlink:href="#DejaVuSans-61" x="342.529297"/>
     <use xlink:href="#DejaVuSans-6e" x="403.808594"/>
     <use xlink:href="#DejaVuSans-6e" x="467.1875"/>
     <use xlink:href="#DejaVuSans-65" x="530.566406"/>
     <use xlink:href="#DejaVuSans-6c" x="592.089844"/>
     <use xlink:href="#DejaVuSans-20" x="619.873047"/>
     <use xlink:href="#DejaVuSans-54" x="651.660156"/>
     <use xlink:href="#DejaVuSans-69" x="709.619141"/>
     <use xlink:href="#DejaVuSans-6d" x="737.402344"/>
     <use xlink:href="#DejaVuSans-65" x="834.814453"/>
     <use xlink:href="#DejaVuSans-20" x="896.337891"/>
     <use xlink:href="#DejaVuSans-50" x="928.125"/>
     <use xlink:href="#DejaVuSans-65" x="984.802734"/>
     <use xlink:href="#DejaVuSans-61" x="1046.326172"/>
     <use xlink:href="#DejaVuSans-6b" x="1107.605469"/>
     <use xlink:href="#DejaVuSans-20" x="1165.515625"/>
     <use xlink:href="#DejaVuSans-45" x="1197.302734"/>
     <use xlink:href="#DejaVuSans-6e" x="1260.486328"/>
     <use xlink:href="#DejaVuSans-76" x="1323.865234"/>
     <use xlink:href="#DejaVuSans-65" x="1383.044922"/>
     <use xlink:href="#DejaVuSans-6c" x="1444.568359"/>
     <use xlink:href="#DejaVuSans-6f" x="1472.351562"/>
     <use xlink:href="#DejaVuSans-70" x="1533.533203"/>
     <use xlink:href="#DejaVuSans-65" x="1597.009766"/>
    </g>
   </g>
  </g>
  <g id="axes_2">
   <g id="patch_7">
    <path d="M 473.236364 256.32 
L 777.6 256.32 
L 777.6 34.56 
L 473.236364 34.56 
z
" style="fill: #ffffff"/>
   </g>
   <g id="matplotlib.axis_3">
    <g id="xtick_8">
     <g id="line2d_26">
      <path d="M 486.576978 256.32 
L 486.576978 34.56 
" clip-path="url(#p02747163d1)" style="fill: none; stroke: #b0b0b0; stroke-width: 0.8; stroke-linecap: square"/>
     </g>
     <g id="line2d_27">
      <g>
       <use xlink:href="#m283c2a459c" x="486.576978" y="256.32" style="stroke: #000000; stroke-width: 0.8"/>
      </g>
     </g>
     <g id="text_16">
      <!-- 0 -->
      <g transform="translate(483.395728 270.918437) scale(0.1 -0.1)">
       <use xlink:href="#DejaVuSans-30"/>
      </g>
     </g>
    </g>
    <g id="xtick_9">
     <g id="line2d_28">
      <path d="M 532.898554 256.32 
L 532.898554 34.56 
" clip-path="url(#p02747163d1)" style="fill: none; stroke: #b0b0b0; stroke-width: 0.8; stroke-linecap: square"/>
     </g>
     <g id="line2d_29">
      <g>
       <use xlink:href="#m283c2a459c" x="532.898554" y="256.32" style="stroke: #000000; stroke-width: 0.8"/>
      </g>
     </g>
     <g id="text_17">
      <!-- 2 -->
      <g transform="translate(529.717304 270.918437) scale(0.1 -0.1)">
       <use xlink:href="#DejaVuSans-32"/>
      </g>
     </g>
    </g>
    <g id="xtick_10">
     <g id="line2d_30">
      <path d="M 579.22013 256.32 
L 579.22013 34.56 
" clip-path="url(#p02747163d1)" style="fill: none; stroke: #b0b0b0; stroke-width: 0.8; stroke-linecap: square"/>
     </g>
     <g id="line2d_31">
      <g>
       <use xlink:href="#m283c2a459c" x="579.22013" y="256.32" style="stroke: #000000; stroke-width: 0.8"/>
      </g>
     </g>
     <g id="text_18">
      <!-- 4 -->
      <g transform="translate(576.03888 270.918437) scale(0.1 -0.1)">
       <use xlink:href="#DejaVuSans-34"/>
      </g>
     </g>
    </g>
    <g id="xtick_11">
     <g id="line2d_32">
      <path d="M 625.541706 256.32 
L 625.541706 34.56 
" clip-path="url(#p02747163d1)" style="fill: none; stroke: #b0b0b0; stroke-width: 0.8; stroke-linecap: square"/>
     </g>
     <g id="line2d_33">
      <g>
       <use xlink:href="#m283c2a459c" x="625.541706" y="256.32" style="stroke: #000000; stroke-width: 0.8"/>
      </g>
     </g>
     <g id="text_19">
      <!-- 6 -->
      <g transform="translate(622.360456 270.918437) scale(0.1 -0.1)">
       <use xlink:href="#DejaVuSans-36"/>
      </g>
     </g>
    </g>
    <g id="xtick_12">
     <g id="line2d_34">
      <path d="M 671.863282 256.32 
L 671.863282 34.56 
" clip-path="url(#p02747163d1)" style="fill: none; stroke: #b0b0b0; stroke-width: 0.8; stroke-linecap: square"/>
     </g>
     <g id="line2d_35">
      <g>
       <use xlink:href="#m283c2a459c" x="671.863282" y="256.32" style="stroke: #000000; stroke-width: 0.8"/>
      </g>
     </g>
     <g id="text_20">
      <!-- 8 -->
      <g transform="translate(668.682032 270.918437) scale(0.1 -0.1)">
       <use xlink:href="#DejaVuSans-38"/>
      </g>
     </g>
    </g>
    <g id="xtick_13">
     <g id="line2d_36">
      <path d="M 718.184858 256.32 
L 718.184858 34.56 
" clip-path="url(#p02747163d1)" style="fill: none; stroke: #b0b0b0; stroke-width: 0.8; stroke-linecap: square"/>
     </g>
     <g id="line2d_37">
      <g>
       <use xlink:href="#m283c2a459c" x="718.184858" y="256.32" style="stroke: #000000; stroke-width: 0.8"/>
      </g>
     </g>
     <g id="text_21">
      <!-- 10 -->
      <g transform="translate(711.822358 270.918437) scale(0.1 -0.1)">
       <use xlink:href="#DejaVuSans-31"/>
       <use xlink:href="#DejaVuSans-30" x="63.623047"/>
      </g>
     </g>
    </g>
    <g id="xtick_14">
     <g id="line2d_38">
      <path d="M 764.506434 256.32 
L 764.506434 34.56 
" clip-path="url(#p02747163d1)" style="fill: none; stroke: #b0b0b0; stroke-width: 0.8; stroke-linecap: square"/>
     </g>
     <g id="line2d_39">
      <g>
       <use xlink:href="#m283c2a459c" x="764.506434" y="256.32" style="stroke: #000000; stroke-width: 0.8"/>
      </g>
     </g>
     <g id="text_22">
      <!-- 12 -->
      <g transform="translate(758.143934 270.918437) scale(0.1 -0.1)">
       <use xlink:href="#DejaVuSans-31"/>
       <use xlink:href="#DejaVuSans-32" x="63.623047"/>
      </g>
     </g>
    </g>
    <g id="text_23">
     <!-- Time (s) -->
     <g transform="translate(605.089276 284.596563) scale(0.1 -0.1)">
      <use xlink:href="#DejaVuSans-54"/>
      <use xlink:href="#DejaVuSans-69" x="57.958984"/>
      <use xlink:href="#DejaVuSans-6d" x="85.742188"/>
      <use xlink:href="#DejaVuSans-65" x="183.154297"/>
      <use xlink:href="#DejaVuSans-20" x="244.677734"/>
      <use xlink:href="#DejaVuSans-28" x="276.464844"/>
      <use xlink:href="#DejaVuSans-73" x="315.478516"/>
      <use xlink:href="#DejaVuSans-29" x="367.578125"/>
     </g>
    </g>
   </g>
   <g id="matplotlib.axis_4">
    <g id="ytick_6">
     <g id="line2d_40">
      <path d="M 473.236364 232.012815 
L 777.6 232.012815 
" clip-path="url(#p02747163d1)" style="fill: none; stroke: #b0b0b0; stroke-width: 0.8; stroke-linecap: square"/>
     </g>
     <g id="line2d_41">
      <g>
       <use xlink:href="#m7dde75770f" x="473.236364" y="232.012815" style="stroke: #000000; stroke-width: 0.8"/>
      </g>
     </g>
     <g id="text_24">
      <!-- −70 -->
      <g transform="translate(445.131676 235.812034) scale(0.1 -0.1)">
       <defs>
        <path id="DejaVuSans-37" d="M 525 4666 
L 3525 4666 
L 3525 4397 
L 1831 0 
L 1172 0 
L 2766 4134 
L 525 4134 
L 525 4666 
z
" transform="scale(0.015625)"/>
       </defs>
       <use xlink:href="#DejaVuSans-2212"/>
       <use xlink:href="#DejaVuSans-37" x="83.789062"/>
       <use xlink:href="#DejaVuSans-30" x="147.412109"/>
      </g>
     </g>
    </g>
    <g id="ytick_7">
     <g id="line2d_42">
      <path d="M 473.236364 205.24527 
L 777.6 205.24527 
" clip-path="url(#p02747163d1)" style="fill: none; stroke: #b0b0b0; stroke-width: 0.8; stroke-linecap: square"/>
     </g>
     <g id="line2d_43">
      <g>
       <use xlink:href="#m7dde75770f" x="473.236364" y="205.24527" style="stroke: #000000; stroke-width: 0.8"/>
      </g>
     </g>
     <g id="text_25">
      <!-- −60 -->
      <g transform="translate(445.131676 209.044489) scale(0.1 -0.1)">
       <use xlink:href="#DejaVuSans-2212"/>
       <use xlink:href="#DejaVuSans-36" x="83.789062"/>
       <use xlink:href="#DejaVuSans-30" x="147.412109"/>
      </g>
     </g>
    </g>
    <g id="ytick_8">
     <g id="line2d_44">
      <path d="M 473.236364 178.477725 
L 777.6 178.477725 
" clip-path="url(#p02747163d1)" style="fill: none; stroke: #b0b0b0; stroke-width: 0.8; stroke-linecap: square"/>
     </g>
     <g id="line2d_45">
      <g>
       <use xlink:href="#m7dde75770f" x="473.236364" y="178.477725" style="stroke: #000000; stroke-width: 0.8"/>
      </g>
     </g>
     <g id="text_26">
      <!-- −50 -->
      <g transform="translate(445.131676 182.276944) scale(0.1 -0.1)">
       <defs>
        <path id="DejaVuSans-35" d="M 691 4666 
L 3169 4666 
L 3169 4134 
L 1269 4134 
L 1269 2991 
Q 1406 3038 1543 3061 
Q 1681 3084 1819 3084 
Q 2600 3084 3056 2656 
Q 3513 2228 3513 1497 
Q 3513 744 3044 326 
Q 2575 -91 1722 -91 
Q 1428 -91 1123 -41 
Q 819 9 494 109 
L 494 744 
Q 775 591 1075 516 
Q 1375 441 1709 441 
Q 2250 441 2565 725 
Q 2881 1009 2881 1497 
Q 2881 1984 2565 2268 
Q 2250 2553 1709 2553 
Q 1456 2553 1204 2497 
Q 953 2441 691 2322 
L 691 4666 
z
" transform="scale(0.015625)"/>
       </defs>
       <use xlink:href="#DejaVuSans-2212"/>
       <use xlink:href="#DejaVuSans-35" x="83.789062"/>
       <use xlink:href="#DejaVuSans-30" x="147.412109"/>
      </g>
     </g>
    </g>
    <g id="ytick_9">
     <g id="line2d_46">
      <path d="M 473.236364 151.71018 
L 777.6 151.71018 
" clip-path="url(#p02747163d1)" style="fill: none; stroke: #b0b0b0; stroke-width: 0.8; stroke-linecap: square"/>
     </g>
     <g id="line2d_47">
      <g>
       <use xlink:href="#m7dde75770f" x="473.236364" y="151.71018" style="stroke: #000000; stroke-width: 0.8"/>
      </g>
     </g>
     <g id="text_27">
      <!-- −40 -->
      <g transform="translate(445.131676 155.509399) scale(0.1 -0.1)">
       <use xlink:href="#DejaVuSans-2212"/>
       <use xlink:href="#DejaVuSans-34" x="83.789062"/>
       <use xlink:href="#DejaVuSans-30" x="147.412109"/>
      </g>
     </g>
    </g>
    <g id="ytick_10">
     <g id="line2d_48">
      <path d="M 473.236364 124.942635 
L 777.6 124.942635 
" clip-path="url(#p02747163d1)" style="fill: none; stroke: #b0b0b0; stroke-width: 0.8; stroke-linecap: square"/>
     </g>
     <g id="line2d_49">
      <g>
       <use xlink:href="#m7dde75770f" x="473.236364" y="124.942635" style="stroke: #000000; stroke-width: 0.8"/>
      </g>
     </g>
     <g id="text_28">
      <!-- −30 -->
      <g transform="translate(445.131676 128.741854) scale(0.1 -0.1)">
       <defs>
        <path id="DejaVuSans-33" d="M 2597 2516 
Q 3050 2419 3304 2112 
Q 3559 1806 3559 1356 
Q 3559 666 3084 287 
Q 2609 -91 1734 -91 
Q 1441 -91 1130 -33 
Q 819 25 488 141 
L 488 750 
Q 750 597 1062 519 
Q 1375 441 1716 441 
Q 2309 441 2620 675 
Q 2931 909 2931 1356 
Q 2931 1769 2642 2001 
Q 2353 2234 1838 2234 
L 1294 2234 
L 1294 2753 
L 1863 2753 
Q 2328 2753 2575 2939 
Q 2822 3125 2822 3475 
Q 2822 3834 2567 4026 
Q 2313 4219 1838 4219 
Q 1578 4219 1281 4162 
Q 984 4106 628 3988 
L 628 4550 
Q 988 4650 1302 4700 
Q 1616 4750 1894 4750 
Q 2613 4750 3031 4423 
Q 3450 4097 3450 3541 
Q 3450 3153 3228 2886 
Q 3006 2619 2597 2516 
z
" transform="scale(0.015625)"/>
       </defs>
       <use xlink:href="#DejaVuSans-2212"/>
       <use xlink:href="#DejaVuSans-33" x="83.789062"/>
       <use xlink:href="#DejaVuSans-30" x="147.412109"/>
      </g>
     </g>
    </g>
    <g id="ytick_11">
     <g id="line2d_50">
      <path d="M 473.236364 98.17509 
L 777.6 98.17509 
" clip-path="url(#p02747163d1)" style="fill: none; stroke: #b0b0b0; stroke-width: 0.8; stroke-linecap: square"/>
     </g>
     <g id="line2d_51">
      <g>
       <use xlink:href="#m7dde75770f" x="473.236364" y="98.17509" style="stroke: #000000; stroke-width: 0.8"/>
      </g>
     </g>
     <g id="text_29">
      <!-- −20 -->
      <g transform="translate(445.131676 101.974309) scale(0.1 -0.1)">
       <use xlink:href="#DejaVuSans-2212"/>
       <use xlink:href="#DejaVuSans-32" x="83.789062"/>
       <use xlink:href="#DejaVuSans-30" x="147.412109"/>
      </g>
     </g>
    </g>
    <g id="ytick_12">
     <g id="line2d_52">
      <path d="M 473.236364 71.407545 
L 777.6 71.407545 
" clip-path="url(#p02747163d1)" style="fill: none; stroke: #b0b0b0; stroke-width: 0.8; stroke-linecap: square"/>
     </g>
     <g id="line2d_53">
      <g>
       <use xlink:href="#m7dde75770f" x="473.236364" y="71.407545" style="stroke: #000000; stroke-width: 0.8"/>
      </g>
     </g>
     <g id="text_30">
      <!-- −10 -->
      <g transform="translate(445.131676 75.206764) scale(0.1 -0.1)">
       <use xlink:href="#DejaVuSans-2212"/>
       <use xlink:href="#DejaVuSans-31" x="83.789062"/>
       <use xlink:href="#DejaVuSans-30" x="147.412109"/>
      </g>
     </g>
    </g>
    <g id="ytick_13">
     <g id="line2d_54">
      <path d="M 473.236364 44.64 
L 777.6 44.64 
" clip-path="url(#p02747163d1)" style="fill: none; stroke: #b0b0b0; stroke-width: 0.8; stroke-linecap: square"/>
     </g>
     <g id="line2d_55">
      <g>
       <use xlink:href="#m7dde75770f" x="473.236364" y="44.64" style="stroke: #000000; stroke-width: 0.8"/>
      </g>
     </g>
     <g id="text_31">
      <!-- 0 -->
      <g transform="translate(459.873864 48.439219) scale(0.1 -0.1)">
       <use xlink:href="#DejaVuSans-30"/>
      </g>
     </g>
    </g>
    <g id="text_32">
     <!-- Amplitude -->
     <g transform="translate(439.051989 171.062656) rotate(-90) scale(0.1 -0.1)">
      <use xlink:href="#DejaVuSans-41"/>
      <use xlink:href="#DejaVuSans-6d" x="68.408203"/>
      <use xlink:href="#DejaVuSans-70" x="165.820312"/>
      <use xlink:href="#DejaVuSans-6c" x="229.296875"/>
      <use xlink:href="#DejaVuSans-69" x="257.080078"/>
      <use xlink:href="#DejaVuSans-74" x="284.863281"/>
      <use xlink:href="#DejaVuSans-75" x="324.072266"/>
      <use xlink:href="#DejaVuSans-64" x="387.451172"/>
      <use xlink:href="#DejaVuSans-65" x="450.927734"/>
     </g>
    </g>
   </g>
   <g id="line2d_56">
    <path d="M 487.071074 162.289172 
L 487.565171 44.64 
L 488.059268 44.64 
L 488.553365 45.13224 
L 489.047462 49.878636 
L 489.541558 50.826354 
L 490.035655 61.391567 
L 490.529752 63.286489 
L 491.023849 65.980418 
L 491.517946 65.980418 
L 492.012043 68.791922 
L 492.506139 68.791922 
L 493.000236 73.413841 
L 493.494333 73.703762 
L 494.482527 77.926466 
L 495.964817 83.862205 
L 496.458914 87.416595 
L 496.953011 88.36866 
L 497.447107 92.050374 
L 497.941204 92.050374 
L 498.435301 99.28556 
L 498.929398 99.468103 
L 499.423495 104.526083 
L 499.917591 108.022922 
L 500.411688 108.6606 
L 500.905785 108.6606 
L 501.399882 105.089503 
L 501.893979 105.089503 
L 502.882172 99.159439 
L 503.376269 98.821607 
L 503.870366 95.583247 
L 504.364463 95.583247 
L 504.85856 93.441129 
L 505.352656 93.441129 
L 505.846753 92.836321 
L 506.34085 92.836321 
L 506.834947 92.658773 
L 507.82314 92.690245 
L 508.317237 93.782835 
L 509.305431 94.407788 
L 509.799528 94.407788 
L 510.293625 96.82651 
L 510.787721 96.82651 
L 511.281818 100.126896 
L 511.775915 100.83064 
L 512.764109 105.158112 
L 513.258205 105.656437 
L 513.752302 108.52982 
L 514.246399 109.730767 
L 514.740496 113.88799 
L 515.234593 115.273918 
L 516.222786 120.813042 
L 516.716883 120.813042 
L 517.21098 123.453363 
L 517.705077 123.453363 
L 518.69327 123.991733 
L 519.187367 121.513187 
L 519.681464 121.513187 
L 520.175561 118.966517 
L 521.163754 119.076356 
L 521.657851 118.411368 
L 522.151948 118.411368 
L 522.646045 117.96192 
L 523.634238 117.990843 
L 524.128335 117.361411 
L 524.622432 117.361411 
L 525.116529 118.030503 
L 525.610626 116.795892 
L 526.104723 116.795892 
L 526.598819 118.60668 
L 527.092916 117.324173 
L 527.587013 117.324173 
L 528.08111 121.619635 
L 528.575207 120.801986 
L 529.069303 120.801986 
L 529.5634 121.66913 
L 530.057497 124.46274 
L 530.551594 124.024032 
L 531.045691 124.024032 
L 531.539787 126.691173 
L 532.033884 131.730371 
L 532.527981 131.730371 
L 533.022078 132.865506 
L 533.516175 132.865506 
L 534.010272 133.279448 
L 534.504368 133.279448 
L 534.998465 135.636168 
L 535.492562 145.074645 
L 535.986659 145.074645 
L 536.480756 148.105556 
L 536.974852 147.221771 
L 537.468949 140.128159 
L 537.963046 139.155432 
L 538.457143 139.155432 
L 538.95124 137.110391 
L 539.445336 137.110391 
L 539.939433 138.919847 
L 540.43353 131.770604 
L 540.927627 131.060753 
L 541.421724 131.060753 
L 541.915821 131.441935 
L 542.409917 131.441935 
L 542.904014 133.209944 
L 543.398111 131.592498 
L 543.892208 130.87713 
L 544.386305 130.87713 
L 544.880401 131.985011 
L 545.374498 135.895338 
L 545.868595 134.163125 
L 546.362692 130.941544 
L 546.856789 130.772739 
L 547.350885 130.772739 
L 547.844982 134.672111 
L 548.339079 134.147955 
L 548.833176 133.995023 
L 549.327273 133.995023 
L 549.82137 137.901922 
L 550.315466 137.901922 
L 551.30366 143.949111 
L 551.797757 143.454011 
L 552.291854 143.454011 
L 553.280047 152.829215 
L 553.774144 153.866069 
L 554.268241 153.079594 
L 554.762338 152.79935 
L 555.256434 152.79935 
L 555.750531 151.905459 
L 556.244628 150.163037 
L 556.738725 149.740554 
L 557.232822 149.561567 
L 558.221015 145.508267 
L 558.715112 145.508267 
L 559.209209 148.165796 
L 559.703306 144.210296 
L 560.197403 144.210296 
L 560.691499 144.939449 
L 561.185596 144.939449 
L 561.679693 144.049955 
L 562.17379 144.049955 
L 562.667887 149.735322 
L 563.161983 148.960079 
L 563.65608 148.960079 
L 564.150177 146.841392 
L 564.644274 146.841392 
L 565.138371 145.762672 
L 565.632468 145.762672 
L 566.126564 147.93868 
L 566.620661 143.979046 
L 567.114758 143.979046 
L 568.102952 149.166792 
L 568.597048 149.166792 
L 569.091145 150.899361 
L 569.585242 151.857641 
L 570.573436 146.286001 
L 571.067532 146.286001 
L 571.561629 156.698193 
L 572.549823 149.264004 
L 573.04392 149.264004 
L 573.538017 154.127931 
L 574.032113 152.231314 
L 574.52621 152.231314 
L 575.020307 155.102425 
L 575.514404 151.840451 
L 576.008501 151.144517 
L 576.502597 151.144517 
L 576.996694 153.292017 
L 577.490791 153.292017 
L 577.984888 149.248628 
L 578.478985 147.511593 
L 578.973081 147.511593 
L 579.467178 149.695243 
L 579.961275 146.311576 
L 580.455372 146.311576 
L 580.949469 150.959948 
L 581.443566 150.959948 
L 581.937662 151.111186 
L 582.431759 148.603525 
L 582.925856 148.603525 
L 583.419953 155.611042 
L 583.91405 155.611042 
L 584.408146 153.061476 
L 584.902243 153.061476 
L 585.890437 158.290347 
L 586.384534 154.619754 
L 586.87863 154.619754 
L 587.372727 158.292867 
L 587.866824 152.626884 
L 588.360921 152.626884 
L 588.855018 163.896676 
L 589.349115 158.952304 
L 589.843211 158.952304 
L 590.337308 167.280577 
L 590.831405 159.092725 
L 591.325502 159.092725 
L 591.819599 154.716786 
L 592.313695 154.716786 
L 592.807792 159.937307 
L 593.301889 159.220882 
L 593.795986 159.220882 
L 594.290083 166.683686 
L 594.784179 166.683686 
L 595.278276 164.865839 
L 595.772373 164.865839 
L 596.26647 164.999961 
L 596.760567 163.423693 
L 597.254664 163.423693 
L 597.74876 164.616427 
L 598.242857 164.507528 
L 598.736954 160.726823 
L 599.231051 160.726823 
L 599.725148 162.669339 
L 600.219244 163.759187 
L 600.713341 157.265062 
L 601.207438 157.265062 
L 601.701535 160.923525 
L 602.195632 160.923525 
L 602.689728 161.431337 
L 603.183825 158.658616 
L 603.677922 158.658616 
L 604.172019 164.369662 
L 604.666116 165.564987 
L 605.160213 165.016781 
L 605.654309 163.307717 
L 606.148406 160.827776 
L 606.642503 160.827776 
L 607.1366 162.385135 
L 607.630697 162.385135 
L 608.124793 166.147619 
L 608.61889 166.147619 
L 609.112987 164.265167 
L 609.607084 164.265167 
L 610.101181 165.975148 
L 610.595277 161.150384 
L 611.089374 161.150384 
L 611.583471 164.916044 
L 612.077568 167.463048 
L 612.571665 167.463048 
L 613.065762 170.222541 
L 613.559858 169.229523 
L 614.053955 167.756498 
L 614.548052 166.654782 
L 615.042149 166.654782 
L 615.536246 170.823813 
L 616.030342 163.127073 
L 616.524439 157.764662 
L 617.018536 157.764662 
L 617.512633 160.991351 
L 618.00673 161.187458 
L 618.500826 159.294433 
L 618.994923 156.948959 
L 619.48902 156.948959 
L 619.983117 149.707434 
L 620.477214 149.707434 
L 620.971311 155.168426 
L 621.465407 157.296427 
L 621.959504 157.296427 
L 622.453601 155.746165 
L 622.947698 152.715931 
L 623.441795 152.715931 
L 623.935891 156.280776 
L 624.429988 156.280776 
L 624.924085 158.57684 
L 625.418182 163.111566 
L 625.912279 166.611492 
L 626.406375 168.917007 
L 626.900472 161.304774 
L 627.394569 161.304774 
L 627.888666 167.65073 
L 628.382763 170.849747 
L 628.87686 165.23995 
L 629.370956 162.812754 
L 629.865053 162.812754 
L 630.35915 164.626352 
L 630.853247 164.626352 
L 631.347344 168.77813 
L 631.84144 168.77813 
L 632.335537 164.203345 
L 632.829634 161.544096 
L 633.323731 161.544096 
L 633.817828 160.794077 
L 634.311924 160.794077 
L 634.806021 164.919395 
L 635.300118 166.62952 
L 635.794215 169.834302 
L 636.288312 167.336283 
L 636.782409 160.067498 
L 637.276505 160.067498 
L 637.770602 158.124634 
L 638.264699 158.124634 
L 638.758796 163.730513 
L 639.252893 164.752441 
L 639.746989 168.265572 
L 640.241086 164.722516 
L 640.735183 164.722516 
L 641.22928 168.718864 
L 641.723377 160.872786 
L 642.217473 160.872786 
L 642.71157 156.740586 
L 643.205667 156.740586 
L 643.699764 156.89669 
L 644.193861 166.168826 
L 644.687957 167.077454 
L 645.182054 159.278653 
L 645.676151 159.278653 
L 646.170248 160.35486 
L 646.664345 153.793273 
L 647.158442 153.793273 
L 647.652538 161.463085 
L 648.146635 156.301585 
L 648.640732 156.301585 
L 649.134829 159.43959 
L 649.628926 158.673981 
L 650.123022 158.673981 
L 650.617119 162.821938 
L 651.111216 163.657395 
L 651.605313 155.927558 
L 652.09941 155.927558 
L 652.593506 159.064052 
L 653.087603 159.064052 
L 653.5817 169.052716 
L 654.075797 167.173255 
L 654.569894 157.512302 
L 655.063991 151.97449 
L 655.558087 151.97449 
L 656.052184 156.179308 
L 656.546281 157.209673 
L 657.040378 157.209673 
L 657.534475 154.888118 
L 658.028571 151.109336 
L 658.522668 149.252044 
L 659.016765 149.252044 
L 659.510862 154.237741 
L 660.004959 160.726823 
L 660.499055 160.726823 
L 660.993152 163.074391 
L 661.487249 163.074391 
L 661.981346 165.696285 
L 662.475443 171.027742 
L 662.96954 162.385135 
L 663.463636 162.385135 
L 663.957733 163.096069 
L 664.45183 167.658269 
L 664.945927 155.934388 
L 665.440024 155.934388 
L 665.93412 164.712549 
L 666.428217 163.899884 
L 667.416411 163.877443 
L 667.910508 164.481204 
L 668.404604 170.075668 
L 668.898701 167.325131 
L 669.392798 167.325131 
L 669.886895 164.676042 
L 670.380992 164.676042 
L 670.875089 164.216347 
L 671.369185 164.216347 
L 671.863282 163.651048 
L 672.357379 163.651048 
L 672.851476 166.785136 
L 673.345573 164.209845 
L 673.839669 164.209845 
L 674.333766 157.335089 
L 674.827863 157.335089 
L 675.32196 171.259872 
L 675.816057 171.259872 
L 676.310153 171.610236 
L 676.80425 167.195419 
L 677.298347 164.372935 
L 677.792444 164.372935 
L 678.286541 167.018696 
L 678.780638 167.018696 
L 679.274734 172.015927 
L 679.768831 169.4932 
L 680.262928 166.328499 
L 680.757025 166.328499 
L 681.251122 173.330152 
L 681.745218 167.369771 
L 682.239315 164.144928 
L 682.733412 164.144928 
L 683.227509 166.539522 
L 683.721606 165.803948 
L 684.215702 163.609833 
L 684.709799 161.947538 
L 685.203896 161.947538 
L 686.19209 169.181169 
L 686.686187 168.825652 
L 687.180283 168.000075 
L 687.67438 164.699267 
L 688.168477 164.699267 
L 688.662574 168.281057 
L 689.156671 159.885973 
L 689.650767 159.885973 
L 690.144864 171.115066 
L 690.638961 172.642724 
L 691.133058 173.791815 
L 691.627155 167.095847 
L 692.121251 167.095847 
L 692.615348 169.755775 
L 693.109445 168.797919 
L 693.603542 168.797919 
L 694.097639 169.908941 
L 694.591736 166.410534 
L 695.085832 166.204214 
L 695.579929 166.204214 
L 696.074026 165.07406 
L 696.568123 165.07406 
L 697.06222 163.571853 
L 697.556316 163.571853 
L 698.050413 167.741359 
L 698.54451 166.403389 
L 699.038607 166.403389 
L 699.532704 164.213096 
L 700.0268 164.213096 
L 700.520897 168.35475 
L 701.014994 163.915926 
L 701.509091 163.915926 
L 702.003188 159.609648 
L 702.497285 159.609648 
L 702.991381 163.217219 
L 703.485478 163.217219 
L 703.979575 166.756105 
L 704.473672 165.561542 
L 704.967769 165.561542 
L 705.461865 168.518483 
L 705.955962 173.205384 
L 706.450059 173.205384 
L 706.944156 171.54776 
L 707.438253 169.024711 
L 707.932349 169.024711 
L 708.426446 173.984025 
L 709.41464 169.314384 
L 709.908737 169.314384 
L 710.402834 166.449871 
L 710.89693 166.449871 
L 711.391027 172.465881 
L 711.885124 168.628282 
L 712.379221 168.428676 
L 712.873318 168.428676 
L 713.367414 170.180483 
L 713.861511 174.758929 
L 714.355608 173.499174 
L 714.849705 173.499174 
L 715.343802 168.600784 
L 715.837898 168.495021 
L 716.331995 166.2716 
L 716.826092 166.2716 
L 717.320189 164.596589 
L 717.814286 164.596589 
L 718.802479 171.875388 
L 719.296576 172.304182 
L 719.790673 174.616103 
L 720.28477 168.207597 
L 720.778867 167.362325 
L 721.272963 167.362325 
L 721.76706 167.931311 
L 722.261157 168.250098 
L 722.755254 172.029572 
L 723.249351 168.211458 
L 723.743447 168.211458 
L 724.237544 164.996599 
L 724.731641 164.996599 
L 725.225738 167.018696 
L 725.719835 165.689356 
L 726.213932 165.689356 
L 726.708028 169.698083 
L 727.202125 163.382879 
L 727.696222 163.382879 
L 728.190319 164.514113 
L 728.684416 168.130521 
L 729.178512 167.055403 
L 729.672609 167.055403 
L 730.166706 157.967547 
L 730.660803 157.967547 
L 731.1549 163.257744 
L 731.648996 160.102884 
L 732.143093 160.102884 
L 732.63719 162.071728 
L 733.131287 162.289172 
L 733.625384 162.289172 
L 734.119481 164.287985 
L 734.613577 161.674885 
L 735.107674 161.053698 
L 735.601771 161.053698 
L 736.095868 159.543071 
L 736.589965 159.543071 
L 737.084061 155.624519 
L 737.578158 154.634821 
L 738.072255 154.634821 
L 738.566352 160.573431 
L 739.060449 155.294347 
L 739.554545 155.294347 
L 740.048642 161.686547 
L 740.542739 153.377532 
L 741.036836 153.377532 
L 741.530933 160.264163 
L 742.02503 165.290971 
L 742.519126 162.178706 
L 743.013223 157.531805 
L 743.50732 157.531805 
L 744.001417 169.681626 
L 744.495514 164.386032 
L 744.98961 164.386032 
L 745.483707 159.184194 
L 745.977804 159.184194 
L 746.471901 159.751424 
L 746.965998 162.554029 
L 747.460094 158.396419 
L 747.954191 158.396419 
L 748.448288 159.639002 
L 748.942385 159.511181 
L 749.436482 159.511181 
L 749.930579 162.724159 
L 750.424675 162.724159 
L 751.412869 152.363726 
L 751.906966 152.363726 
L 752.401063 155.918455 
L 752.895159 149.878776 
L 753.389256 149.630913 
L 754.871547 149.540803 
L 755.365643 154.090041 
L 755.85974 152.638738 
L 756.847934 152.593333 
L 757.342031 154.669298 
L 757.836128 159.829368 
L 758.330224 160.620735 
L 758.824321 160.620735 
L 759.318418 161.167488 
L 759.812515 161.167488 
L 760.800708 168.215319 
L 761.294805 166.868802 
L 761.788902 166.868802 
L 762.282999 165.413879 
L 762.777096 165.413879 
L 763.271192 171.8528 
L 763.765289 246.24 
L 763.765289 246.24 
" clip-path="url(#p02747163d1)" style="fill: none; stroke: #ffa500; stroke-width: 1.5; stroke-linecap: square"/>
   </g>
   <g id="patch_8">
    <path d="M 473.236364 256.32 
L 473.236364 34.56 
" style="fill: none; stroke: #000000; stroke-width: 0.8; stroke-linejoin: miter; stroke-linecap: square"/>
   </g>
   <g id="patch_9">
    <path d="M 777.6 256.32 
L 777.6 34.56 
" style="fill: none; stroke: #000000; stroke-width: 0.8; stroke-linejoin: miter; stroke-linecap: square"/>
   </g>
   <g id="patch_10">
    <path d="M 473.236364 256.32 
L 777.6 256.32 
" style="fill: none; stroke: #000000; stroke-width: 0.8; stroke-linejoin: miter; stroke-linecap: square"/>
   </g>
   <g id="patch_11">
    <path d="M 473.236364 34.56 
L 777.6 34.56 
" style="fill: none; stroke: #000000; stroke-width: 0.8; stroke-linejoin: miter; stroke-linecap: square"/>
   </g>
   <g id="text_33">
    <!-- Side Channel Time Peak Envelope -->
    <g transform="translate(523.581307 28.56) scale(0.12 -0.12)">
     <defs>
      <path id="DejaVuSans-53" d="M 3425 4513 
L 3425 3897 
Q 3066 4069 2747 4153 
Q 2428 4238 2131 4238 
Q 1616 4238 1336 4038 
Q 1056 3838 1056 3469 
Q 1056 3159 1242 3001 
Q 1428 2844 1947 2747 
L 2328 2669 
Q 3034 2534 3370 2195 
Q 3706 1856 3706 1288 
Q 3706 609 3251 259 
Q 2797 -91 1919 -91 
Q 1588 -91 1214 -16 
Q 841 59 441 206 
L 441 856 
Q 825 641 1194 531 
Q 1563 422 1919 422 
Q 2459 422 2753 634 
Q 3047 847 3047 1241 
Q 3047 1584 2836 1778 
Q 2625 1972 2144 2069 
L 1759 2144 
Q 1053 2284 737 2584 
Q 422 2884 422 3419 
Q 422 4038 858 4394 
Q 1294 4750 2059 4750 
Q 2388 4750 2728 4690 
Q 3069 4631 3425 4513 
z
" transform="scale(0.015625)"/>
     </defs>
     <use xlink:href="#DejaVuSans-53"/>
     <use xlink:href="#DejaVuSans-69" x="63.476562"/>
     <use xlink:href="#DejaVuSans-64" x="91.259766"/>
     <use xlink:href="#DejaVuSans-65" x="154.736328"/>
     <use xlink:href="#DejaVuSans-20" x="216.259766"/>
     <use xlink:href="#DejaVuSans-43" x="248.046875"/>
     <use xlink:href="#DejaVuSans-68" x="317.871094"/>
     <use xlink:href="#DejaVuSans-61" x="381.25"/>
     <use xlink:href="#DejaVuSans-6e" x="442.529297"/>
     <use xlink:href="#DejaVuSans-6e" x="505.908203"/>
     <use xlink:href="#DejaVuSans-65" x="569.287109"/>
     <use xlink:href="#DejaVuSans-6c" x="630.810547"/>
     <use xlink:href="#DejaVuSans-20" x="658.59375"/>
     <use xlink:href="#DejaVuSans-54" x="690.380859"/>
     <use xlink:href="#DejaVuSans-69" x="748.339844"/>
     <use xlink:href="#DejaVuSans-6d" x="776.123047"/>
     <use xlink:href="#DejaVuSans-65" x="873.535156"/>
     <use xlink:href="#DejaVuSans-20" x="935.058594"/>
     <use xlink:href="#DejaVuSans-50" x="966.845703"/>
     <use xlink:href="#DejaVuSans-65" x="1023.523438"/>
     <use xlink:href="#DejaVuSans-61" x="1085.046875"/>
     <use xlink:href="#DejaVuSans-6b" x="1146.326172"/>
     <use xlink:href="#DejaVuSans-20" x="1204.236328"/>
     <use xlink:href="#DejaVuSans-45" x="1236.023438"/>
     <use xlink:href="#DejaVuSans-6e" x="1299.207031"/>
     <use xlink:href="#DejaVuSans-76" x="1362.585938"/>
     <use xlink:href="#DejaVuSans-65" x="1421.765625"/>
     <use xlink:href="#DejaVuSans-6c" x="1483.289062"/>
     <use xlink:href="#DejaVuSans-6f" x="1511.072266"/>
     <use xlink:href="#DejaVuSans-70" x="1572.253906"/>
     <use xlink:href="#DejaVuSans-65" x="1635.730469"/>
    </g>
   </g>
  </g>
 </g>
 <defs>
  <clipPath id="pe14f89b33a">
   <rect x="108" y="34.56" width="304.363636" height="221.76"/>
  </clipPath>
  <clipPath id="p02747163d1">
   <rect x="473.236364" y="34.56" width="304.363636" height="221.76"/>
  </clipPath>
 </defs>
</svg>
