<?xml version="1.0" encoding="utf-8" standalone="no"?>
<!DOCTYPE svg PUBLIC "-//W3C//DTD SVG 1.1//EN"
  "http://www.w3.org/Graphics/SVG/1.1/DTD/svg11.dtd">
<svg xmlns:xlink="http://www.w3.org/1999/xlink" width="360pt" height="144pt" viewBox="0 0 360 144" xmlns="http://www.w3.org/2000/svg" version="1.1">
 <metadata>
  <rdf:RDF xmlns:dc="http://purl.org/dc/elements/1.1/" xmlns:cc="http://creativecommons.org/ns#" xmlns:rdf="http://www.w3.org/1999/02/22-rdf-syntax-ns#">
   <cc:Work>
    <dc:type rdf:resource="http://purl.org/dc/dcmitype/StillImage"/>
    <dc:date>2024-06-21T12:36:29.259250</dc:date>
    <dc:format>image/svg+xml</dc:format>
    <dc:creator>
     <cc:Agent>
      <dc:title>Matplotlib v3.8.0, https://matplotlib.org/</dc:title>
     </cc:Agent>
    </dc:creator>
   </cc:Work>
  </rdf:RDF>
 </metadata>
 <defs>
  <style type="text/css">*{stroke-linejoin: round; stroke-linecap: butt}</style>
 </defs>
 <g id="figure_1">
  <g id="patch_1">
   <path d="M 0 144 
L 360 144 
L 360 0 
L 0 0 
z
" style="fill: #ffffff"/>
  </g>
  <g id="axes_1">
   <g id="patch_2">
    <path d="M 45 128.16 
L 324 128.16 
L 324 17.28 
L 45 17.28 
z
" style="fill: #ffffff"/>
   </g>
   <g id="matplotlib.axis_1">
    <g id="xtick_1">
     <g id="line2d_1">
      <path d="M 57.561554 128.16 
L 57.561554 17.28 
" clip-path="url(#p2e87494d6a)" style="fill: none; stroke: #b0b0b0; stroke-width: 0.8; stroke-linecap: square"/>
     </g>
     <g id="line2d_2">
      <defs>
       <path id="m2aa6ac3215" d="M 0 0 
L 0 3.5 
" style="stroke: #000000; stroke-width: 0.8"/>
      </defs>
      <g>
       <use xlink:href="#m2aa6ac3215" x="57.561554" y="128.16" style="stroke: #000000; stroke-width: 0.8"/>
      </g>
     </g>
     <g id="text_1">
      <!-- 0 -->
      <g transform="translate(54.380304 142.758438) scale(0.1 -0.1)">
       <defs>
        <path id="DejaVuSans-30" d="M 2034 4250 
Q 1547 4250 1301 3770 
Q 1056 3291 1056 2328 
Q 1056 1369 1301 889 
Q 1547 409 2034 409 
Q 2525 409 2770 889 
Q 3016 1369 3016 2328 
Q 3016 3291 2770 3770 
Q 2525 4250 2034 4250 
z
M 2034 4750 
Q 2819 4750 3233 4129 
Q 3647 3509 3647 2328 
Q 3647 1150 3233 529 
Q 2819 -91 2034 -91 
Q 1250 -91 836 529 
Q 422 1150 422 2328 
Q 422 3509 836 4129 
Q 1250 4750 2034 4750 
z
" transform="scale(0.015625)"/>
       </defs>
       <use xlink:href="#DejaVuSans-30"/>
      </g>
     </g>
    </g>
    <g id="xtick_2">
     <g id="line2d_3">
      <path d="M 113.935213 128.16 
L 113.935213 17.28 
" clip-path="url(#p2e87494d6a)" style="fill: none; stroke: #b0b0b0; stroke-width: 0.8; stroke-linecap: square"/>
     </g>
     <g id="line2d_4">
      <g>
       <use xlink:href="#m2aa6ac3215" x="113.935213" y="128.16" style="stroke: #000000; stroke-width: 0.8"/>
      </g>
     </g>
     <g id="text_2">
      <!-- 10 -->
      <g transform="translate(107.572713 142.758438) scale(0.1 -0.1)">
       <defs>
        <path id="DejaVuSans-31" d="M 794 531 
L 1825 531 
L 1825 4091 
L 703 3866 
L 703 4441 
L 1819 4666 
L 2450 4666 
L 2450 531 
L 3481 531 
L 3481 0 
L 794 0 
L 794 531 
z
" transform="scale(0.015625)"/>
       </defs>
       <use xlink:href="#DejaVuSans-31"/>
       <use xlink:href="#DejaVuSans-30" x="63.623047"/>
      </g>
     </g>
    </g>
    <g id="xtick_3">
     <g id="line2d_5">
      <path d="M 170.308871 128.16 
L 170.308871 17.28 
" clip-path="url(#p2e87494d6a)" style="fill: none; stroke: #b0b0b0; stroke-width: 0.8; stroke-linecap: square"/>
     </g>
     <g id="line2d_6">
      <g>
       <use xlink:href="#m2aa6ac3215" x="170.308871" y="128.16" style="stroke: #000000; stroke-width: 0.8"/>
      </g>
     </g>
     <g id="text_3">
      <!-- 20 -->
      <g transform="translate(163.946371 142.758438) scale(0.1 -0.1)">
       <defs>
        <path id="DejaVuSans-32" d="M 1228 531 
L 3431 531 
L 3431 0 
L 469 0 
L 469 531 
Q 828 903 1448 1529 
Q 2069 2156 2228 2338 
Q 2531 2678 2651 2914 
Q 2772 3150 2772 3378 
Q 2772 3750 2511 3984 
Q 2250 4219 1831 4219 
Q 1534 4219 1204 4116 
Q 875 4013 500 3803 
L 500 4441 
Q 881 4594 1212 4672 
Q 1544 4750 1819 4750 
Q 2544 4750 2975 4387 
Q 3406 4025 3406 3419 
Q 3406 3131 3298 2873 
Q 3191 2616 2906 2266 
Q 2828 2175 2409 1742 
Q 1991 1309 1228 531 
z
" transform="scale(0.015625)"/>
       </defs>
       <use xlink:href="#DejaVuSans-32"/>
       <use xlink:href="#DejaVuSans-30" x="63.623047"/>
      </g>
     </g>
    </g>
    <g id="xtick_4">
     <g id="line2d_7">
      <path d="M 226.682529 128.16 
L 226.682529 17.28 
" clip-path="url(#p2e87494d6a)" style="fill: none; stroke: #b0b0b0; stroke-width: 0.8; stroke-linecap: square"/>
     </g>
     <g id="line2d_8">
      <g>
       <use xlink:href="#m2aa6ac3215" x="226.682529" y="128.16" style="stroke: #000000; stroke-width: 0.8"/>
      </g>
     </g>
     <g id="text_4">
      <!-- 30 -->
      <g transform="translate(220.320029 142.758438) scale(0.1 -0.1)">
       <defs>
        <path id="DejaVuSans-33" d="M 2597 2516 
Q 3050 2419 3304 2112 
Q 3559 1806 3559 1356 
Q 3559 666 3084 287 
Q 2609 -91 1734 -91 
Q 1441 -91 1130 -33 
Q 819 25 488 141 
L 488 750 
Q 750 597 1062 519 
Q 1375 441 1716 441 
Q 2309 441 2620 675 
Q 2931 909 2931 1356 
Q 2931 1769 2642 2001 
Q 2353 2234 1838 2234 
L 1294 2234 
L 1294 2753 
L 1863 2753 
Q 2328 2753 2575 2939 
Q 2822 3125 2822 3475 
Q 2822 3834 2567 4026 
Q 2313 4219 1838 4219 
Q 1578 4219 1281 4162 
Q 984 4106 628 3988 
L 628 4550 
Q 988 4650 1302 4700 
Q 1616 4750 1894 4750 
Q 2613 4750 3031 4423 
Q 3450 4097 3450 3541 
Q 3450 3153 3228 2886 
Q 3006 2619 2597 2516 
z
" transform="scale(0.015625)"/>
       </defs>
       <use xlink:href="#DejaVuSans-33"/>
       <use xlink:href="#DejaVuSans-30" x="63.623047"/>
      </g>
     </g>
    </g>
    <g id="xtick_5">
     <g id="line2d_9">
      <path d="M 283.056188 128.16 
L 283.056188 17.28 
" clip-path="url(#p2e87494d6a)" style="fill: none; stroke: #b0b0b0; stroke-width: 0.8; stroke-linecap: square"/>
     </g>
     <g id="line2d_10">
      <g>
       <use xlink:href="#m2aa6ac3215" x="283.056188" y="128.16" style="stroke: #000000; stroke-width: 0.8"/>
      </g>
     </g>
     <g id="text_5">
      <!-- 40 -->
      <g transform="translate(276.693688 142.758438) scale(0.1 -0.1)">
       <defs>
        <path id="DejaVuSans-34" d="M 2419 4116 
L 825 1625 
L 2419 1625 
L 2419 4116 
z
M 2253 4666 
L 3047 4666 
L 3047 1625 
L 3713 1625 
L 3713 1100 
L 3047 1100 
L 3047 0 
L 2419 0 
L 2419 1100 
L 313 1100 
L 313 1709 
L 2253 4666 
z
" transform="scale(0.015625)"/>
       </defs>
       <use xlink:href="#DejaVuSans-34"/>
       <use xlink:href="#DejaVuSans-30" x="63.623047"/>
      </g>
     </g>
    </g>
    <g id="text_6">
     <!-- Frequency (Hz) -->
     <g transform="translate(146.795312 156.436563) scale(0.1 -0.1)">
      <defs>
       <path id="DejaVuSans-46" d="M 628 4666 
L 3309 4666 
L 3309 4134 
L 1259 4134 
L 1259 2759 
L 3109 2759 
L 3109 2228 
L 1259 2228 
L 1259 0 
L 628 0 
L 628 4666 
z
" transform="scale(0.015625)"/>
       <path id="DejaVuSans-72" d="M 2631 2963 
Q 2534 3019 2420 3045 
Q 2306 3072 2169 3072 
Q 1681 3072 1420 2755 
Q 1159 2438 1159 1844 
L 1159 0 
L 581 0 
L 581 3500 
L 1159 3500 
L 1159 2956 
Q 1341 3275 1631 3429 
Q 1922 3584 2338 3584 
Q 2397 3584 2469 3576 
Q 2541 3569 2628 3553 
L 2631 2963 
z
" transform="scale(0.015625)"/>
       <path id="DejaVuSans-65" d="M 3597 1894 
L 3597 1613 
L 953 1613 
Q 991 1019 1311 708 
Q 1631 397 2203 397 
Q 2534 397 2845 478 
Q 3156 559 3463 722 
L 3463 178 
Q 3153 47 2828 -22 
Q 2503 -91 2169 -91 
Q 1331 -91 842 396 
Q 353 884 353 1716 
Q 353 2575 817 3079 
Q 1281 3584 2069 3584 
Q 2775 3584 3186 3129 
Q 3597 2675 3597 1894 
z
M 3022 2063 
Q 3016 2534 2758 2815 
Q 2500 3097 2075 3097 
Q 1594 3097 1305 2825 
Q 1016 2553 972 2059 
L 3022 2063 
z
" transform="scale(0.015625)"/>
       <path id="DejaVuSans-71" d="M 947 1747 
Q 947 1113 1208 752 
Q 1469 391 1925 391 
Q 2381 391 2643 752 
Q 2906 1113 2906 1747 
Q 2906 2381 2643 2742 
Q 2381 3103 1925 3103 
Q 1469 3103 1208 2742 
Q 947 2381 947 1747 
z
M 2906 525 
Q 2725 213 2448 61 
Q 2172 -91 1784 -91 
Q 1150 -91 751 415 
Q 353 922 353 1747 
Q 353 2572 751 3078 
Q 1150 3584 1784 3584 
Q 2172 3584 2448 3432 
Q 2725 3281 2906 2969 
L 2906 3500 
L 3481 3500 
L 3481 -1331 
L 2906 -1331 
L 2906 525 
z
" transform="scale(0.015625)"/>
       <path id="DejaVuSans-75" d="M 544 1381 
L 544 3500 
L 1119 3500 
L 1119 1403 
Q 1119 906 1312 657 
Q 1506 409 1894 409 
Q 2359 409 2629 706 
Q 2900 1003 2900 1516 
L 2900 3500 
L 3475 3500 
L 3475 0 
L 2900 0 
L 2900 538 
Q 2691 219 2414 64 
Q 2138 -91 1772 -91 
Q 1169 -91 856 284 
Q 544 659 544 1381 
z
M 1991 3584 
L 1991 3584 
z
" transform="scale(0.015625)"/>
       <path id="DejaVuSans-6e" d="M 3513 2113 
L 3513 0 
L 2938 0 
L 2938 2094 
Q 2938 2591 2744 2837 
Q 2550 3084 2163 3084 
Q 1697 3084 1428 2787 
Q 1159 2491 1159 1978 
L 1159 0 
L 581 0 
L 581 3500 
L 1159 3500 
L 1159 2956 
Q 1366 3272 1645 3428 
Q 1925 3584 2291 3584 
Q 2894 3584 3203 3211 
Q 3513 2838 3513 2113 
z
" transform="scale(0.015625)"/>
       <path id="DejaVuSans-63" d="M 3122 3366 
L 3122 2828 
Q 2878 2963 2633 3030 
Q 2388 3097 2138 3097 
Q 1578 3097 1268 2742 
Q 959 2388 959 1747 
Q 959 1106 1268 751 
Q 1578 397 2138 397 
Q 2388 397 2633 464 
Q 2878 531 3122 666 
L 3122 134 
Q 2881 22 2623 -34 
Q 2366 -91 2075 -91 
Q 1284 -91 818 406 
Q 353 903 353 1747 
Q 353 2603 823 3093 
Q 1294 3584 2113 3584 
Q 2378 3584 2631 3529 
Q 2884 3475 3122 3366 
z
" transform="scale(0.015625)"/>
       <path id="DejaVuSans-79" d="M 2059 -325 
Q 1816 -950 1584 -1140 
Q 1353 -1331 966 -1331 
L 506 -1331 
L 506 -850 
L 844 -850 
Q 1081 -850 1212 -737 
Q 1344 -625 1503 -206 
L 1606 56 
L 191 3500 
L 800 3500 
L 1894 763 
L 2988 3500 
L 3597 3500 
L 2059 -325 
z
" transform="scale(0.015625)"/>
       <path id="DejaVuSans-20" transform="scale(0.015625)"/>
       <path id="DejaVuSans-28" d="M 1984 4856 
Q 1566 4138 1362 3434 
Q 1159 2731 1159 2009 
Q 1159 1288 1364 580 
Q 1569 -128 1984 -844 
L 1484 -844 
Q 1016 -109 783 600 
Q 550 1309 550 2009 
Q 550 2706 781 3412 
Q 1013 4119 1484 4856 
L 1984 4856 
z
" transform="scale(0.015625)"/>
       <path id="DejaVuSans-48" d="M 628 4666 
L 1259 4666 
L 1259 2753 
L 3553 2753 
L 3553 4666 
L 4184 4666 
L 4184 0 
L 3553 0 
L 3553 2222 
L 1259 2222 
L 1259 0 
L 628 0 
L 628 4666 
z
" transform="scale(0.015625)"/>
       <path id="DejaVuSans-7a" d="M 353 3500 
L 3084 3500 
L 3084 2975 
L 922 459 
L 3084 459 
L 3084 0 
L 275 0 
L 275 525 
L 2438 3041 
L 353 3041 
L 353 3500 
z
" transform="scale(0.015625)"/>
       <path id="DejaVuSans-29" d="M 513 4856 
L 1013 4856 
Q 1481 4119 1714 3412 
Q 1947 2706 1947 2009 
Q 1947 1309 1714 600 
Q 1481 -109 1013 -844 
L 513 -844 
Q 928 -128 1133 580 
Q 1338 1288 1338 2009 
Q 1338 2731 1133 3434 
Q 928 4138 513 4856 
z
" transform="scale(0.015625)"/>
      </defs>
      <use xlink:href="#DejaVuSans-46"/>
      <use xlink:href="#DejaVuSans-72" x="50.269531"/>
      <use xlink:href="#DejaVuSans-65" x="89.132812"/>
      <use xlink:href="#DejaVuSans-71" x="150.65625"/>
      <use xlink:href="#DejaVuSans-75" x="214.132812"/>
      <use xlink:href="#DejaVuSans-65" x="277.511719"/>
      <use xlink:href="#DejaVuSans-6e" x="339.035156"/>
      <use xlink:href="#DejaVuSans-63" x="402.414062"/>
      <use xlink:href="#DejaVuSans-79" x="457.394531"/>
      <use xlink:href="#DejaVuSans-20" x="516.574219"/>
      <use xlink:href="#DejaVuSans-28" x="548.361328"/>
      <use xlink:href="#DejaVuSans-48" x="587.375"/>
      <use xlink:href="#DejaVuSans-7a" x="662.570312"/>
      <use xlink:href="#DejaVuSans-29" x="715.060547"/>
     </g>
    </g>
   </g>
   <g id="matplotlib.axis_2">
    <g id="ytick_1">
     <g id="line2d_11">
      <path d="M 45 122.788359 
L 324 122.788359 
" clip-path="url(#p2e87494d6a)" style="fill: none; stroke: #b0b0b0; stroke-width: 0.8; stroke-linecap: square"/>
     </g>
     <g id="line2d_12">
      <defs>
       <path id="m629dc34200" d="M 0 0 
L -3.5 0 
" style="stroke: #000000; stroke-width: 0.8"/>
      </defs>
      <g>
       <use xlink:href="#m629dc34200" x="45" y="122.788359" style="stroke: #000000; stroke-width: 0.8"/>
      </g>
     </g>
     <g id="text_7">
      <!-- −1.5 -->
      <g transform="translate(13.717187 126.587578) scale(0.1 -0.1)">
       <defs>
        <path id="DejaVuSans-2212" d="M 678 2272 
L 4684 2272 
L 4684 1741 
L 678 1741 
L 678 2272 
z
" transform="scale(0.015625)"/>
        <path id="DejaVuSans-2e" d="M 684 794 
L 1344 794 
L 1344 0 
L 684 0 
L 684 794 
z
" transform="scale(0.015625)"/>
        <path id="DejaVuSans-35" d="M 691 4666 
L 3169 4666 
L 3169 4134 
L 1269 4134 
L 1269 2991 
Q 1406 3038 1543 3061 
Q 1681 3084 1819 3084 
Q 2600 3084 3056 2656 
Q 3513 2228 3513 1497 
Q 3513 744 3044 326 
Q 2575 -91 1722 -91 
Q 1428 -91 1123 -41 
Q 819 9 494 109 
L 494 744 
Q 775 591 1075 516 
Q 1375 441 1709 441 
Q 2250 441 2565 725 
Q 2881 1009 2881 1497 
Q 2881 1984 2565 2268 
Q 2250 2553 1709 2553 
Q 1456 2553 1204 2497 
Q 953 2441 691 2322 
L 691 4666 
z
" transform="scale(0.015625)"/>
       </defs>
       <use xlink:href="#DejaVuSans-2212"/>
       <use xlink:href="#DejaVuSans-31" x="83.789062"/>
       <use xlink:href="#DejaVuSans-2e" x="147.412109"/>
       <use xlink:href="#DejaVuSans-35" x="179.199219"/>
      </g>
     </g>
    </g>
    <g id="ytick_2">
     <g id="line2d_13">
      <path d="M 45 89.298906 
L 324 89.298906 
" clip-path="url(#p2e87494d6a)" style="fill: none; stroke: #b0b0b0; stroke-width: 0.8; stroke-linecap: square"/>
     </g>
     <g id="line2d_14">
      <g>
       <use xlink:href="#m629dc34200" x="45" y="89.298906" style="stroke: #000000; stroke-width: 0.8"/>
      </g>
     </g>
     <g id="text_8">
      <!-- −1.0 -->
      <g transform="translate(13.717187 93.098125) scale(0.1 -0.1)">
       <use xlink:href="#DejaVuSans-2212"/>
       <use xlink:href="#DejaVuSans-31" x="83.789062"/>
       <use xlink:href="#DejaVuSans-2e" x="147.412109"/>
       <use xlink:href="#DejaVuSans-30" x="179.199219"/>
      </g>
     </g>
    </g>
    <g id="ytick_3">
     <g id="line2d_15">
      <path d="M 45 55.809453 
L 324 55.809453 
" clip-path="url(#p2e87494d6a)" style="fill: none; stroke: #b0b0b0; stroke-width: 0.8; stroke-linecap: square"/>
     </g>
     <g id="line2d_16">
      <g>
       <use xlink:href="#m629dc34200" x="45" y="55.809453" style="stroke: #000000; stroke-width: 0.8"/>
      </g>
     </g>
     <g id="text_9">
      <!-- −0.5 -->
      <g transform="translate(13.717187 59.608672) scale(0.1 -0.1)">
       <use xlink:href="#DejaVuSans-2212"/>
       <use xlink:href="#DejaVuSans-30" x="83.789062"/>
       <use xlink:href="#DejaVuSans-2e" x="147.412109"/>
       <use xlink:href="#DejaVuSans-35" x="179.199219"/>
      </g>
     </g>
    </g>
    <g id="ytick_4">
     <g id="line2d_17">
      <path d="M 45 22.32 
L 324 22.32 
" clip-path="url(#p2e87494d6a)" style="fill: none; stroke: #b0b0b0; stroke-width: 0.8; stroke-linecap: square"/>
     </g>
     <g id="line2d_18">
      <g>
       <use xlink:href="#m629dc34200" x="45" y="22.32" style="stroke: #000000; stroke-width: 0.8"/>
      </g>
     </g>
     <g id="text_10">
      <!-- 0.0 -->
      <g transform="translate(22.096875 26.119219) scale(0.1 -0.1)">
       <use xlink:href="#DejaVuSans-30"/>
       <use xlink:href="#DejaVuSans-2e" x="63.623047"/>
       <use xlink:href="#DejaVuSans-30" x="95.410156"/>
      </g>
     </g>
    </g>
    <g id="text_11">
     <!-- Spectral Slope (dB/oct) -->
     <g transform="translate(7.6375 130.373906) rotate(-90) scale(0.1 -0.1)">
      <defs>
       <path id="DejaVuSans-53" d="M 3425 4513 
L 3425 3897 
Q 3066 4069 2747 4153 
Q 2428 4238 2131 4238 
Q 1616 4238 1336 4038 
Q 1056 3838 1056 3469 
Q 1056 3159 1242 3001 
Q 1428 2844 1947 2747 
L 2328 2669 
Q 3034 2534 3370 2195 
Q 3706 1856 3706 1288 
Q 3706 609 3251 259 
Q 2797 -91 1919 -91 
Q 1588 -91 1214 -16 
Q 841 59 441 206 
L 441 856 
Q 825 641 1194 531 
Q 1563 422 1919 422 
Q 2459 422 2753 634 
Q 3047 847 3047 1241 
Q 3047 1584 2836 1778 
Q 2625 1972 2144 2069 
L 1759 2144 
Q 1053 2284 737 2584 
Q 422 2884 422 3419 
Q 422 4038 858 4394 
Q 1294 4750 2059 4750 
Q 2388 4750 2728 4690 
Q 3069 4631 3425 4513 
z
" transform="scale(0.015625)"/>
       <path id="DejaVuSans-70" d="M 1159 525 
L 1159 -1331 
L 581 -1331 
L 581 3500 
L 1159 3500 
L 1159 2969 
Q 1341 3281 1617 3432 
Q 1894 3584 2278 3584 
Q 2916 3584 3314 3078 
Q 3713 2572 3713 1747 
Q 3713 922 3314 415 
Q 2916 -91 2278 -91 
Q 1894 -91 1617 61 
Q 1341 213 1159 525 
z
M 3116 1747 
Q 3116 2381 2855 2742 
Q 2594 3103 2138 3103 
Q 1681 3103 1420 2742 
Q 1159 2381 1159 1747 
Q 1159 1113 1420 752 
Q 1681 391 2138 391 
Q 2594 391 2855 752 
Q 3116 1113 3116 1747 
z
" transform="scale(0.015625)"/>
       <path id="DejaVuSans-74" d="M 1172 4494 
L 1172 3500 
L 2356 3500 
L 2356 3053 
L 1172 3053 
L 1172 1153 
Q 1172 725 1289 603 
Q 1406 481 1766 481 
L 2356 481 
L 2356 0 
L 1766 0 
Q 1100 0 847 248 
Q 594 497 594 1153 
L 594 3053 
L 172 3053 
L 172 3500 
L 594 3500 
L 594 4494 
L 1172 4494 
z
" transform="scale(0.015625)"/>
       <path id="DejaVuSans-61" d="M 2194 1759 
Q 1497 1759 1228 1600 
Q 959 1441 959 1056 
Q 959 750 1161 570 
Q 1363 391 1709 391 
Q 2188 391 2477 730 
Q 2766 1069 2766 1631 
L 2766 1759 
L 2194 1759 
z
M 3341 1997 
L 3341 0 
L 2766 0 
L 2766 531 
Q 2569 213 2275 61 
Q 1981 -91 1556 -91 
Q 1019 -91 701 211 
Q 384 513 384 1019 
Q 384 1609 779 1909 
Q 1175 2209 1959 2209 
L 2766 2209 
L 2766 2266 
Q 2766 2663 2505 2880 
Q 2244 3097 1772 3097 
Q 1472 3097 1187 3025 
Q 903 2953 641 2809 
L 641 3341 
Q 956 3463 1253 3523 
Q 1550 3584 1831 3584 
Q 2591 3584 2966 3190 
Q 3341 2797 3341 1997 
z
" transform="scale(0.015625)"/>
       <path id="DejaVuSans-6c" d="M 603 4863 
L 1178 4863 
L 1178 0 
L 603 0 
L 603 4863 
z
" transform="scale(0.015625)"/>
       <path id="DejaVuSans-6f" d="M 1959 3097 
Q 1497 3097 1228 2736 
Q 959 2375 959 1747 
Q 959 1119 1226 758 
Q 1494 397 1959 397 
Q 2419 397 2687 759 
Q 2956 1122 2956 1747 
Q 2956 2369 2687 2733 
Q 2419 3097 1959 3097 
z
M 1959 3584 
Q 2709 3584 3137 3096 
Q 3566 2609 3566 1747 
Q 3566 888 3137 398 
Q 2709 -91 1959 -91 
Q 1206 -91 779 398 
Q 353 888 353 1747 
Q 353 2609 779 3096 
Q 1206 3584 1959 3584 
z
" transform="scale(0.015625)"/>
       <path id="DejaVuSans-64" d="M 2906 2969 
L 2906 4863 
L 3481 4863 
L 3481 0 
L 2906 0 
L 2906 525 
Q 2725 213 2448 61 
Q 2172 -91 1784 -91 
Q 1150 -91 751 415 
Q 353 922 353 1747 
Q 353 2572 751 3078 
Q 1150 3584 1784 3584 
Q 2172 3584 2448 3432 
Q 2725 3281 2906 2969 
z
M 947 1747 
Q 947 1113 1208 752 
Q 1469 391 1925 391 
Q 2381 391 2643 752 
Q 2906 1113 2906 1747 
Q 2906 2381 2643 2742 
Q 2381 3103 1925 3103 
Q 1469 3103 1208 2742 
Q 947 2381 947 1747 
z
" transform="scale(0.015625)"/>
       <path id="DejaVuSans-42" d="M 1259 2228 
L 1259 519 
L 2272 519 
Q 2781 519 3026 730 
Q 3272 941 3272 1375 
Q 3272 1813 3026 2020 
Q 2781 2228 2272 2228 
L 1259 2228 
z
M 1259 4147 
L 1259 2741 
L 2194 2741 
Q 2656 2741 2882 2914 
Q 3109 3088 3109 3444 
Q 3109 3797 2882 3972 
Q 2656 4147 2194 4147 
L 1259 4147 
z
M 628 4666 
L 2241 4666 
Q 2963 4666 3353 4366 
Q 3744 4066 3744 3513 
Q 3744 3084 3544 2831 
Q 3344 2578 2956 2516 
Q 3422 2416 3680 2098 
Q 3938 1781 3938 1306 
Q 3938 681 3513 340 
Q 3088 0 2303 0 
L 628 0 
L 628 4666 
z
" transform="scale(0.015625)"/>
       <path id="DejaVuSans-2f" d="M 1625 4666 
L 2156 4666 
L 531 -594 
L 0 -594 
L 1625 4666 
z
" transform="scale(0.015625)"/>
      </defs>
      <use xlink:href="#DejaVuSans-53"/>
      <use xlink:href="#DejaVuSans-70" x="63.476562"/>
      <use xlink:href="#DejaVuSans-65" x="126.953125"/>
      <use xlink:href="#DejaVuSans-63" x="188.476562"/>
      <use xlink:href="#DejaVuSans-74" x="243.457031"/>
      <use xlink:href="#DejaVuSans-72" x="282.666016"/>
      <use xlink:href="#DejaVuSans-61" x="323.779297"/>
      <use xlink:href="#DejaVuSans-6c" x="385.058594"/>
      <use xlink:href="#DejaVuSans-20" x="412.841797"/>
      <use xlink:href="#DejaVuSans-53" x="444.628906"/>
      <use xlink:href="#DejaVuSans-6c" x="508.105469"/>
      <use xlink:href="#DejaVuSans-6f" x="535.888672"/>
      <use xlink:href="#DejaVuSans-70" x="597.070312"/>
      <use xlink:href="#DejaVuSans-65" x="660.546875"/>
      <use xlink:href="#DejaVuSans-20" x="722.070312"/>
      <use xlink:href="#DejaVuSans-28" x="753.857422"/>
      <use xlink:href="#DejaVuSans-64" x="792.871094"/>
      <use xlink:href="#DejaVuSans-42" x="856.347656"/>
      <use xlink:href="#DejaVuSans-2f" x="924.951172"/>
      <use xlink:href="#DejaVuSans-6f" x="958.642578"/>
      <use xlink:href="#DejaVuSans-63" x="1019.824219"/>
      <use xlink:href="#DejaVuSans-74" x="1074.804688"/>
      <use xlink:href="#DejaVuSans-29" x="1114.013672"/>
     </g>
    </g>
    <g id="text_12">
     <!-- 1e−6 -->
     <g transform="translate(45 14.28) scale(0.1 -0.1)">
      <defs>
       <path id="DejaVuSans-36" d="M 2113 2584 
Q 1688 2584 1439 2293 
Q 1191 2003 1191 1497 
Q 1191 994 1439 701 
Q 1688 409 2113 409 
Q 2538 409 2786 701 
Q 3034 994 3034 1497 
Q 3034 2003 2786 2293 
Q 2538 2584 2113 2584 
z
M 3366 4563 
L 3366 3988 
Q 3128 4100 2886 4159 
Q 2644 4219 2406 4219 
Q 1781 4219 1451 3797 
Q 1122 3375 1075 2522 
Q 1259 2794 1537 2939 
Q 1816 3084 2150 3084 
Q 2853 3084 3261 2657 
Q 3669 2231 3669 1497 
Q 3669 778 3244 343 
Q 2819 -91 2113 -91 
Q 1303 -91 875 529 
Q 447 1150 447 2328 
Q 447 3434 972 4092 
Q 1497 4750 2381 4750 
Q 2619 4750 2861 4703 
Q 3103 4656 3366 4563 
z
" transform="scale(0.015625)"/>
      </defs>
      <use xlink:href="#DejaVuSans-31"/>
      <use xlink:href="#DejaVuSans-65" x="63.623047"/>
      <use xlink:href="#DejaVuSans-2212" x="125.146484"/>
      <use xlink:href="#DejaVuSans-36" x="208.935547"/>
     </g>
    </g>
   </g>
   <g id="line2d_19">
    <path d="M 57.681818 23.06611 
L 57.802082 22.897868 
L 57.922346 23.140312 
L 58.162873 22.803356 
L 58.283137 22.749033 
L 58.643929 22.871444 
L 58.884456 22.763196 
L 59.00472 29.993054 
L 59.124984 29.475469 
L 59.365511 24.796383 
L 59.606039 24.083535 
L 60.087094 24.121908 
L 60.447886 23.481559 
L 60.688413 23.772598 
L 60.808677 24.185873 
L 61.049205 24.16528 
L 61.169469 23.996714 
L 61.289732 24.045241 
L 61.770788 23.258338 
L 62.011315 23.972905 
L 62.49237 24.718162 
L 62.853162 24.019739 
L 63.093689 23.298242 
L 63.574745 24.552681 
L 63.695008 24.57497 
L 63.935536 24.306412 
L 64.416591 23.279428 
L 64.897646 24.622919 
L 65.138174 24.733494 
L 65.378702 24.278746 
L 65.619229 23.731303 
L 65.859757 24.257528 
L 66.100284 25.19363 
L 66.220548 25.162514 
L 66.461076 24.606913 
L 66.701604 23.644706 
L 66.821867 24.03308 
L 67.062395 25.705634 
L 67.182659 25.851297 
L 67.302923 25.603235 
L 67.663714 23.771092 
L 67.904242 24.414867 
L 68.024505 24.91665 
L 68.265033 24.835244 
L 68.505561 24.520194 
L 68.625824 24.444006 
L 68.746088 24.196436 
L 68.866352 23.693631 
L 68.986616 23.781591 
L 69.467671 25.193192 
L 69.828462 25.111977 
L 70.189254 23.923206 
L 70.309518 23.946853 
L 70.550045 24.950263 
L 70.790573 25.807639 
L 71.0311 26.062095 
L 71.752683 23.507134 
L 71.993211 24.4491 
L 72.354002 26.49361 
L 72.474266 26.548641 
L 72.714794 26.352282 
L 73.195849 23.757096 
L 73.316113 23.922546 
L 73.917432 27.522934 
L 74.037696 27.269295 
L 74.398487 25.318537 
L 74.639015 23.721267 
L 75.360597 28.857652 
L 75.480861 29.131111 
L 75.721389 28.259124 
L 76.08218 24.772819 
L 76.202444 25.078843 
L 76.803763 31.585201 
L 76.924027 31.331244 
L 77.164555 29.825608 
L 77.64561 23.952224 
L 77.886137 26.089738 
L 78.246929 32.153223 
L 78.487456 33.015892 
L 78.60772 32.669124 
L 78.848248 30.248979 
L 79.329303 24.063291 
L 80.17115 36.800533 
L 80.291413 36.426592 
L 80.652205 29.506534 
L 80.892732 24.679341 
L 81.253524 31.954662 
L 81.494051 37.340078 
L 81.734579 39.306667 
L 81.854843 38.77021 
L 82.09537 35.103226 
L 82.456162 28.324938 
L 82.69669 34.616297 
L 83.057481 44.227686 
L 83.177745 45.529735 
L 83.418272 43.790053 
L 83.6588 37.355172 
L 84.019591 26.043217 
L 84.380383 39.482312 
L 84.741174 50.254112 
L 84.861438 50.328783 
L 84.981702 47.231795 
L 85.342493 26.121898 
L 86.18434 57.256837 
L 86.304604 57.555227 
L 86.545131 51.322706 
L 87.14645 27.776353 
L 87.747769 52.734628 
L 88.108561 61.269412 
L 88.228825 60.897484 
L 88.349088 59.313431 
L 88.589616 51.46034 
L 88.950407 35.287883 
L 89.070671 39.455337 
L 89.67199 77.300578 
L 89.792254 76.099879 
L 90.153045 58.542316 
L 90.513837 30.878768 
L 90.754364 46.605363 
L 91.23542 81.311076 
L 91.355683 83.770706 
L 91.475947 82.914532 
L 91.716475 69.660314 
L 92.19753 29.409422 
L 92.919113 89.145728 
L 93.039377 87.561949 
L 93.520432 51.326741 
L 93.76096 31.176013 
L 93.881223 34.719082 
L 94.242015 55.851312 
L 94.602806 70.307171 
L 95.083861 76.072735 
L 95.204125 74.275401 
L 95.444653 64.644407 
L 95.805444 40.118248 
L 95.925708 43.814495 
L 96.406763 78.132881 
L 96.527027 78.402004 
L 96.647291 74.3277 
L 96.887818 55.837044 
L 97.008082 57.45759 
L 97.368874 30.859992 
L 97.609401 40.858641 
L 98.090456 73.588415 
L 98.21072 75.276938 
L 98.330984 73.671029 
L 98.571512 55.770815 
L 98.932303 29.08023 
L 99.172831 46.500262 
L 99.653886 79.267142 
L 99.77415 82.516571 
L 99.894414 82.354113 
L 100.134941 72.196142 
L 100.73626 30.137032 
L 100.856524 30.734416 
L 101.698371 83.001683 
L 101.818634 84.127709 
L 101.938898 83.022075 
L 102.179426 73.364748 
L 102.660481 44.794462 
L 103.021272 72.279153 
L 103.2618 91.13021 
L 103.382064 94.21692 
L 103.502328 93.181348 
L 103.742855 83.144253 
L 104.344174 31.955533 
L 104.584702 43.65234 
L 105.186021 78.55402 
L 105.306285 80.482327 
L 105.426549 78.971608 
L 105.667076 69.23672 
L 106.268395 31.259215 
L 106.869714 80.211363 
L 106.989978 83.029252 
L 107.110242 80.807848 
L 107.471033 55.426136 
L 107.831825 27.677405 
L 108.192616 52.941716 
L 108.673671 78.112747 
L 108.914199 82.935918 
L 109.034463 82.166101 
L 109.27499 75.661455 
L 109.635782 52.802855 
L 109.876309 40.914606 
L 110.116837 54.475697 
L 110.597892 84.937983 
L 110.83842 88.506888 
L 111.078947 82.945892 
L 111.439739 59.881043 
L 111.920794 30.910936 
L 112.041058 30.272143 
L 112.882904 64.882941 
L 113.003168 65.412296 
L 113.243696 59.054913 
L 113.845015 36.38602 
L 114.085542 25.603379 
L 114.32607 35.86559 
L 114.807125 57.887966 
L 115.047653 65.301411 
L 115.167917 65.471965 
L 115.408444 60.982751 
L 115.769236 40.999638 
L 116.009763 27.510176 
L 116.130027 28.093215 
L 116.370555 36.083869 
L 116.731346 50.522739 
L 117.332665 61.535049 
L 117.573193 62.352842 
L 117.693457 61.497685 
L 118.054248 53.648522 
L 118.775831 31.94788 
L 118.896095 31.961716 
L 119.136622 37.67248 
L 119.858205 58.020798 
L 120.098733 60.426848 
L 120.218997 59.817888 
L 120.700052 50.998899 
L 121.181107 40.464149 
L 122.143217 24.788409 
L 122.263481 24.686014 
L 123.345855 40.135016 
L 123.466119 40.251442 
L 123.586383 39.551161 
L 123.947174 33.028245 
L 124.187702 25.705947 
L 124.307966 26.087188 
L 124.909285 40.663908 
L 125.029549 41.693612 
L 125.149812 41.303579 
L 125.39034 34.971137 
L 125.630868 27.006452 
L 125.751132 24.867404 
L 125.871395 26.61206 
L 126.592978 43.780001 
L 126.713242 44.593834 
L 126.833506 44.536244 
L 127.074033 41.794847 
L 127.555089 29.312783 
L 127.675352 30.169317 
L 128.396935 52.897163 
L 128.517199 54.35103 
L 128.637463 54.350231 
L 128.757727 52.886428 
L 128.998254 45.513976 
L 129.479309 28.44821 
L 130.200892 62.657115 
L 130.321156 63.211346 
L 130.561684 55.183964 
L 131.042739 27.733611 
L 131.764322 67.347326 
L 132.004849 70.007793 
L 132.125113 69.624159 
L 132.365641 64.29952 
L 132.606168 53.006299 
L 132.96696 31.626889 
L 133.688543 73.712467 
L 133.808806 76.041973 
L 133.92907 75.942502 
L 134.169598 67.945091 
L 134.650653 44.046834 
L 134.770917 44.949197 
L 135.011444 59.316284 
L 135.251972 78.575341 
L 135.4925 85.042364 
L 135.612763 86.033225 
L 135.853291 77.837356 
L 136.574874 31.783651 
L 136.815402 50.968094 
L 137.176193 81.343861 
L 137.296457 81.917585 
L 137.416721 76.93891 
L 137.897776 29.97315 
L 138.499095 74.253304 
L 138.619359 77.242991 
L 138.739622 76.934673 
L 138.859886 74.261109 
L 139.100414 57.763911 
L 139.461205 32.066572 
L 139.581469 30.187067 
L 140.182788 63.30207 
L 140.303052 65.253515 
L 140.423316 64.647231 
L 140.663843 57.17085 
L 141.144898 37.9268 
L 141.265162 38.580487 
L 141.986745 63.729622 
L 142.107009 63.859719 
L 142.227273 61.22585 
L 142.828592 28.552744 
L 143.069119 42.024572 
L 143.550175 66.045204 
L 143.670438 66.637824 
L 143.790702 64.279421 
L 144.03123 53.198458 
L 144.392021 29.542428 
L 144.512285 29.616981 
L 144.99334 61.19968 
L 145.354132 73.411596 
L 145.474395 73.271649 
L 145.594659 71.682713 
L 145.835187 61.950369 
L 146.436506 31.265279 
L 147.398616 77.730286 
L 147.51888 78.398912 
L 147.639144 76.324444 
L 148.480991 47.494849 
L 148.601254 48.866062 
L 149.443101 74.891053 
L 149.683629 81.237622 
L 149.803892 81.876865 
L 149.924156 81.00134 
L 150.164684 74.289842 
L 151.126794 29.415293 
L 151.247058 30.100465 
L 152.088905 63.499983 
L 152.329432 65.661918 
L 152.56996 60.353453 
L 152.930751 45.413735 
L 153.291543 27.506354 
L 153.892862 53.103448 
L 154.133389 56.13894 
L 154.253653 55.049186 
L 154.494181 46.02155 
L 154.734708 36.57508 
L 154.854972 37.569047 
L 154.975236 37.120667 
L 155.336027 25.964185 
L 156.177874 51.750298 
L 156.298138 53.288643 
L 156.418402 53.040073 
L 156.658929 48.576669 
L 157.139984 33.128705 
L 157.260248 34.786018 
L 158.222359 64.539801 
L 158.342623 64.702424 
L 158.462886 63.062997 
L 158.943942 47.568505 
L 159.424997 27.320446 
L 159.545261 30.525857 
L 160.14658 58.740037 
L 160.266843 58.443956 
L 160.507371 45.33942 
L 160.747899 28.35591 
L 161.349218 62.834193 
L 161.469481 62.433425 
L 161.830273 51.296341 
L 162.311328 29.590937 
L 163.032911 74.936254 
L 163.153175 75.404451 
L 163.273439 71.875558 
L 163.63423 45.714513 
L 163.754494 47.511433 
L 164.355813 84.012758 
L 164.476077 83.990414 
L 164.716604 73.383753 
L 165.197659 37.172745 
L 165.798978 88.73068 
L 165.919242 80.364868 
L 166.280034 43.043979 
L 166.520561 65.980289 
L 166.640825 68.639356 
L 166.761089 68.309127 
L 166.881353 64.098784 
L 167.362408 35.277507 
L 167.602935 63.506531 
L 167.843463 68.749848 
L 167.963727 69.593876 
L 168.083991 68.403465 
L 168.565046 39.421355 
L 168.68531 43.639905 
L 169.166365 81.318071 
L 169.286629 78.891799 
L 169.527156 53.856575 
L 169.64742 34.757909 
L 169.767684 36.534851 
L 170.128475 88.552157 
L 170.248739 93.263758 
L 170.369003 93.29449 
L 170.489267 86.006347 
L 170.850058 46.397529 
L 171.21085 83.383018 
L 171.331113 87.197809 
L 171.451377 84.466037 
L 172.052696 37.279549 
L 172.533751 85.917764 
L 172.774279 96.326862 
L 172.894543 89.885371 
L 173.255334 54.589426 
L 173.375598 57.890616 
L 173.976917 108.913909 
L 174.217445 94.390291 
L 174.6985 40.729398 
L 175.299819 105.278214 
L 175.420083 101.996012 
L 175.66061 72.125538 
L 175.780874 53.927879 
L 175.901138 53.064936 
L 176.261929 94.209399 
L 176.382193 97.994128 
L 176.502457 91.82817 
L 176.863248 38.527157 
L 176.983512 43.76299 
L 177.464567 104.326399 
L 177.584831 107.391988 
L 177.705095 105.407444 
L 177.945623 78.134892 
L 178.18615 52.744308 
L 178.426678 77.426507 
L 178.787469 111.636739 
L 178.907733 111.097417 
L 179.027997 105.559142 
L 179.509052 59.36571 
L 179.869844 95.007812 
L 179.990107 86.254897 
L 180.350899 44.349677 
L 180.831954 93.784124 
L 180.952218 90.231906 
L 181.192745 74.723335 
L 181.433273 47.770863 
L 182.034592 101.380687 
L 182.154856 102.291704 
L 182.27512 92.744024 
L 182.635911 49.533092 
L 183.116966 79.369248 
L 183.23723 75.787931 
L 183.718285 35.842156 
L 184.079077 84.519701 
L 184.19934 87.283121 
L 184.319604 84.914974 
L 184.560132 62.372141 
L 184.80066 35.966201 
L 185.281715 79.390038 
L 185.522242 90.584687 
L 185.642506 91.64494 
L 185.76277 90.195013 
L 186.003298 79.1596 
L 186.484353 40.590781 
L 187.085672 97.037551 
L 187.205936 96.487514 
L 187.326199 89.040349 
L 187.686991 47.083825 
L 187.807255 52.468897 
L 188.168046 86.181445 
L 188.408574 78.526679 
L 188.769365 40.727655 
L 188.889629 37.633963 
L 189.370684 75.139495 
L 189.490948 74.828361 
L 189.611212 67.747665 
L 189.972003 35.558604 
L 190.453058 79.749564 
L 190.573322 83.31141 
L 190.693586 83.16133 
L 190.81385 82.673495 
L 190.934114 79.841737 
L 191.294905 56.839735 
L 191.655696 32.171943 
L 192.377279 87.656514 
L 192.497543 90.078354 
L 192.617807 89.538904 
L 192.858334 80.425203 
L 193.459653 44.47813 
L 194.181236 103.167369 
L 194.3015 99.641114 
L 194.662291 66.493998 
L 194.902819 37.855346 
L 195.143347 61.778741 
L 195.504138 98.844778 
L 195.624402 102.470966 
L 195.744666 100.730698 
L 195.985193 76.258415 
L 196.225721 40.765295 
L 196.345985 46.90219 
L 196.82704 101.861565 
L 196.947304 104.451119 
L 197.187831 88.328905 
L 197.428359 63.725834 
L 197.668887 35.366654 
L 198.270206 109.623223 
L 198.390469 111.596738 
L 198.510733 105.771431 
L 198.871525 71.379614 
L 198.991788 75.32367 
L 199.232316 97.134411 
L 199.472844 122.563949 
L 199.593107 123.12 
L 199.833635 104.386192 
L 200.434954 34.879907 
L 201.156537 87.368916 
L 201.276801 83.818053 
L 201.637592 43.386163 
L 201.87812 77.02847 
L 202.118647 101.531659 
L 202.238911 100.739099 
L 202.479439 68.757218 
L 202.719966 40.78766 
L 203.201022 103.239342 
L 203.441549 109.46414 
L 203.682077 90.799729 
L 204.042868 46.878437 
L 204.163132 45.649475 
L 204.644187 78.78428 
L 205.004979 89.200027 
L 205.125242 90.004617 
L 205.245506 88.039051 
L 205.486034 73.42978 
L 205.846825 35.867324 
L 205.967089 42.876949 
L 206.448144 86.736458 
L 206.568408 83.880488 
L 206.9292 52.957114 
L 207.289991 75.878178 
L 207.530519 78.374035 
L 207.650782 74.815622 
L 208.131838 31.840323 
L 208.612893 66.675158 
L 208.85342 67.437902 
L 208.973684 63.305342 
L 209.334476 40.406313 
L 209.454739 44.144085 
L 210.056058 87.735119 
L 210.176322 85.55893 
L 210.537114 47.075099 
L 210.657377 54.041317 
L 211.018169 90.751327 
L 211.138433 82.909692 
L 211.37896 48.48624 
L 211.499224 51.343017 
L 211.739752 62.49582 
L 211.860016 64.152396 
L 211.980279 62.72139 
L 212.341071 35.902537 
L 212.461335 35.342875 
L 212.701862 50.329761 
L 213.062654 62.265282 
L 213.182917 61.049432 
L 213.423445 51.050687 
L 213.663973 39.856853 
L 213.9045 54.790357 
L 214.265292 79.545854 
L 214.385555 83.599412 
L 214.505819 83.511975 
L 214.746347 72.256549 
L 215.107138 38.868061 
L 215.46793 74.603537 
L 215.708457 98.455341 
L 215.828721 94.724506 
L 216.189512 53.570024 
L 216.309776 53.24076 
L 216.670568 37.9301 
L 217.151623 45.165827 
L 217.512414 41.526548 
L 217.873206 38.060897 
L 218.113733 37.558051 
L 219.075844 39.784376 
L 219.316371 39.50511 
L 219.556899 39.615443 
L 220.037954 38.875093 
L 220.158218 38.848064 
L 221.962175 32.64351 
L 222.804022 31.040498 
L 222.924286 31.01348 
L 224.126924 31.927183 
L 224.247187 31.862047 
L 224.487715 31.600897 
L 224.607979 31.59299 
L 225.209298 30.703102 
L 225.329562 30.69258 
L 225.690353 29.757156 
L 226.171408 28.672541 
L 226.5322 28.239841 
L 226.772727 27.89034 
L 226.892991 27.895815 
L 227.013255 27.763857 
L 228.095629 28.101067 
L 228.336157 28.031418 
L 228.456421 28.183437 
L 228.696948 28.000956 
L 228.817212 28.206892 
L 229.178003 27.711754 
L 229.298267 27.503337 
L 229.418531 27.520648 
L 229.659059 27.184323 
L 230.01985 26.746101 
L 230.260378 26.53357 
L 230.500905 26.396426 
L 230.861697 25.982435 
L 231.222488 25.81175 
L 231.342752 25.959437 
L 231.463016 25.865071 
L 231.823807 25.936641 
L 232.064335 25.841106 
L 232.304862 25.948724 
L 232.665654 25.984082 
L 232.785917 25.880911 
L 233.026445 25.967018 
L 233.146709 25.827669 
L 233.266973 25.868225 
L 233.5075 25.69705 
L 234.108819 25.382617 
L 234.469611 25.097761 
L 235.431721 24.747567 
L 235.551985 24.882419 
L 235.672249 24.801162 
L 235.792513 24.873284 
L 236.03304 24.634901 
L 236.393832 24.768339 
L 236.995151 24.65254 
L 237.115414 24.885077 
L 237.476206 24.519284 
L 237.59647 24.52222 
L 237.716733 24.737097 
L 238.077525 24.334559 
L 238.197789 24.432361 
L 238.678844 24.301317 
L 239.520691 24.200056 
L 239.761218 24.021157 
L 239.881482 24.171253 
L 240.001746 24.030191 
L 240.242273 24.078398 
L 240.482801 24.098603 
L 240.603065 23.983842 
L 240.723329 24.136632 
L 240.843592 23.946081 
L 240.963856 24.201515 
L 241.08412 23.92128 
L 241.444911 24.036287 
L 241.685439 24.038612 
L 241.805703 23.849626 
L 242.166494 23.924314 
L 243.008341 23.776407 
L 243.128605 23.702565 
L 243.369132 23.935535 
L 243.60966 23.749871 
L 244.090715 23.651945 
L 244.331243 23.528946 
L 244.57177 23.677794 
L 244.812298 23.571269 
L 245.052826 23.532269 
L 245.413617 23.684118 
L 245.654145 23.570464 
L 245.894672 23.713813 
L 246.255464 23.492437 
L 246.495991 23.633236 
L 246.616255 23.566877 
L 246.736519 23.669589 
L 246.977046 23.448431 
L 248.299948 23.303182 
L 248.420212 23.470889 
L 248.540476 23.406686 
L 248.66074 23.506767 
L 249.141795 23.285358 
L 249.262059 23.440681 
L 249.502586 23.254876 
L 249.62285 23.443499 
L 249.983642 23.29422 
L 250.344433 23.357151 
L 250.584961 23.296419 
L 250.825488 23.295339 
L 252.028126 23.160923 
L 252.14839 23.242702 
L 252.268654 23.140547 
L 252.388918 23.322051 
L 252.629445 23.073098 
L 252.749709 23.27821 
L 252.869973 23.109261 
L 252.990237 23.312454 
L 253.1105 23.09659 
L 253.351028 23.25267 
L 253.711819 23.130796 
L 253.952347 23.169793 
L 254.192875 23.069033 
L 254.433402 23.236907 
L 255.034721 23.089321 
L 255.154985 23.205056 
L 255.275249 23.054343 
L 255.395513 23.147515 
L 255.63604 23.010521 
L 255.876568 23.080698 
L 255.996832 23.005255 
L 256.117096 23.108742 
L 256.237359 22.977936 
L 256.598151 23.217412 
L 256.718415 23.073273 
L 256.838678 23.138601 
L 257.079206 22.921035 
L 257.319734 23.080598 
L 257.680525 22.999131 
L 257.921053 22.929127 
L 258.16158 23.038794 
L 259.123691 22.963217 
L 259.243954 23.181066 
L 259.484482 23.01131 
L 260.326329 23.082763 
L 260.446593 23.167398 
L 260.68712 23.041018 
L 261.047912 23.074243 
L 261.528967 22.963076 
L 261.769494 23.194537 
L 262.010022 23.05092 
L 262.491077 23.15886 
L 262.611341 22.990276 
L 262.972132 23.237672 
L 263.092396 23.063588 
L 263.21266 23.149189 
L 263.453188 23.010956 
L 263.573451 23.266556 
L 263.693715 23.013755 
L 263.813979 23.157217 
L 263.934243 23.000398 
L 264.054507 23.028585 
L 264.17477 22.862637 
L 264.415298 23.152409 
L 264.655826 23.00608 
L 264.776089 23.113814 
L 264.896353 22.97682 
L 265.136881 23.002681 
L 265.617936 22.848241 
L 265.858464 22.897944 
L 266.339519 22.86256 
L 266.580047 23.026291 
L 266.70031 22.978891 
L 266.820574 23.167152 
L 266.940838 22.90709 
L 267.181366 23.004654 
L 267.301629 22.866189 
L 267.421893 23.034051 
L 267.542157 22.956964 
L 267.782685 23.145454 
L 268.384004 22.871488 
L 268.624531 23.0118 
L 268.865059 22.967112 
L 268.985323 23.18664 
L 269.105586 22.888703 
L 269.22585 23.054291 
L 269.466378 22.836657 
L 269.586642 22.984885 
L 269.827169 22.960286 
L 269.947433 23.014955 
L 270.067697 22.901709 
L 270.308224 23.132264 
L 270.669016 22.983956 
L 270.909544 22.957678 
L 271.150071 22.999627 
L 271.390599 23.079336 
L 271.631126 22.953142 
L 271.75139 22.913468 
L 271.871654 23.034767 
L 271.991918 22.807419 
L 272.112182 22.929457 
L 272.472973 22.884253 
L 272.593237 22.940351 
L 272.713501 22.756829 
L 273.074292 23.048574 
L 273.194556 23.046137 
L 273.31482 22.89862 
L 273.795875 23.047769 
L 273.916139 23.315834 
L 274.036402 22.900169 
L 274.156666 22.992358 
L 274.27693 22.941569 
L 274.517458 23.251744 
L 274.757985 22.922127 
L 274.878249 23.203366 
L 275.118777 23.11415 
L 275.23904 23.104611 
L 275.359304 22.973345 
L 275.599832 23.068495 
L 275.720096 22.993305 
L 275.840359 23.208621 
L 275.960623 23.193489 
L 276.080887 22.914168 
L 276.201151 23.097759 
L 276.321415 23.063194 
L 276.561942 23.352599 
L 276.682206 23.103269 
L 276.80247 23.165397 
L 277.163261 23.068965 
L 277.283525 23.02968 
L 277.403789 22.851856 
L 277.644317 22.993865 
L 278.005108 22.786315 
L 278.365899 23.076344 
L 278.726691 23.016375 
L 279.087482 23.230917 
L 279.207746 22.921207 
L 279.32801 23.193859 
L 279.568537 23.026145 
L 279.688801 23.294308 
L 279.809065 22.921737 
L 280.049593 22.871477 
L 280.169856 23.145604 
L 280.410384 22.961597 
L 280.650912 22.979969 
L 280.771175 23.038398 
L 280.891439 22.931307 
L 281.131967 23.054565 
L 281.492758 23.007287 
L 282.094077 22.32 
L 311.318182 22.32 
L 311.318182 22.32 
" clip-path="url(#p2e87494d6a)" style="fill: none; stroke: #1f77b4; stroke-width: 1.5; stroke-linecap: square"/>
   </g>
   <g id="patch_3">
    <path d="M 45 128.16 
L 45 17.28 
" style="fill: none; stroke: #000000; stroke-width: 0.8; stroke-linejoin: miter; stroke-linecap: square"/>
   </g>
   <g id="patch_4">
    <path d="M 324 128.16 
L 324 17.28 
" style="fill: none; stroke: #000000; stroke-width: 0.8; stroke-linejoin: miter; stroke-linecap: square"/>
   </g>
   <g id="patch_5">
    <path d="M 45 128.16 
L 324 128.16 
" style="fill: none; stroke: #000000; stroke-width: 0.8; stroke-linejoin: miter; stroke-linecap: square"/>
   </g>
   <g id="patch_6">
    <path d="M 45 17.28 
L 324 17.28 
" style="fill: none; stroke: #000000; stroke-width: 0.8; stroke-linejoin: miter; stroke-linecap: square"/>
   </g>
   <g id="text_13">
    <!-- Spectral Slope -->
    <g transform="translate(141.173438 11.28) scale(0.12 -0.12)">
     <use xlink:href="#DejaVuSans-53"/>
     <use xlink:href="#DejaVuSans-70" x="63.476562"/>
     <use xlink:href="#DejaVuSans-65" x="126.953125"/>
     <use xlink:href="#DejaVuSans-63" x="188.476562"/>
     <use xlink:href="#DejaVuSans-74" x="243.457031"/>
     <use xlink:href="#DejaVuSans-72" x="282.666016"/>
     <use xlink:href="#DejaVuSans-61" x="323.779297"/>
     <use xlink:href="#DejaVuSans-6c" x="385.058594"/>
     <use xlink:href="#DejaVuSans-20" x="412.841797"/>
     <use xlink:href="#DejaVuSans-53" x="444.628906"/>
     <use xlink:href="#DejaVuSans-6c" x="508.105469"/>
     <use xlink:href="#DejaVuSans-6f" x="535.888672"/>
     <use xlink:href="#DejaVuSans-70" x="597.070312"/>
     <use xlink:href="#DejaVuSans-65" x="660.546875"/>
    </g>
   </g>
  </g>
 </g>
 <defs>
  <clipPath id="p2e87494d6a">
   <rect x="45" y="17.28" width="279" height="110.88"/>
  </clipPath>
 </defs>
</svg>
