<?xml version="1.0" encoding="utf-8" standalone="no"?>
<!DOCTYPE svg PUBLIC "-//W3C//DTD SVG 1.1//EN"
  "http://www.w3.org/Graphics/SVG/1.1/DTD/svg11.dtd">
<svg xmlns:xlink="http://www.w3.org/1999/xlink" width="864pt" height="288pt" viewBox="0 0 864 288" xmlns="http://www.w3.org/2000/svg" version="1.1">
 <metadata>
  <rdf:RDF xmlns:dc="http://purl.org/dc/elements/1.1/" xmlns:cc="http://creativecommons.org/ns#" xmlns:rdf="http://www.w3.org/1999/02/22-rdf-syntax-ns#">
   <cc:Work>
    <dc:type rdf:resource="http://purl.org/dc/dcmitype/StillImage"/>
    <dc:date>2024-06-21T12:36:21.097462</dc:date>
    <dc:format>image/svg+xml</dc:format>
    <dc:creator>
     <cc:Agent>
      <dc:title>Matplotlib v3.8.0, https://matplotlib.org/</dc:title>
     </cc:Agent>
    </dc:creator>
   </cc:Work>
  </rdf:RDF>
 </metadata>
 <defs>
  <style type="text/css">*{stroke-linejoin: round; stroke-linecap: butt}</style>
 </defs>
 <g id="figure_1">
  <g id="patch_1">
   <path d="M 0 288 
L 864 288 
L 864 0 
L 0 0 
z
" style="fill: #ffffff"/>
  </g>
  <g id="axes_1">
   <g id="patch_2">
    <path d="M 108 256.32 
L 412.363636 256.32 
L 412.363636 34.56 
L 108 34.56 
z
" style="fill: #ffffff"/>
   </g>
   <g id="matplotlib.axis_1">
    <g id="xtick_1">
     <g id="line2d_1">
      <path d="M 121.344118 256.32 
L 121.344118 34.56 
" clip-path="url(#p28efe0f026)" style="fill: none; stroke: #b0b0b0; stroke-width: 0.8; stroke-linecap: square"/>
     </g>
     <g id="line2d_2">
      <defs>
       <path id="m9f3cd7608f" d="M 0 0 
L 0 3.5 
" style="stroke: #000000; stroke-width: 0.8"/>
      </defs>
      <g>
       <use xlink:href="#m9f3cd7608f" x="121.344118" y="256.32" style="stroke: #000000; stroke-width: 0.8"/>
      </g>
     </g>
     <g id="text_1">
      <!-- 0 -->
      <g transform="translate(118.162868 270.918437) scale(0.1 -0.1)">
       <defs>
        <path id="DejaVuSans-30" d="M 2034 4250 
Q 1547 4250 1301 3770 
Q 1056 3291 1056 2328 
Q 1056 1369 1301 889 
Q 1547 409 2034 409 
Q 2525 409 2770 889 
Q 3016 1369 3016 2328 
Q 3016 3291 2770 3770 
Q 2525 4250 2034 4250 
z
M 2034 4750 
Q 2819 4750 3233 4129 
Q 3647 3509 3647 2328 
Q 3647 1150 3233 529 
Q 2819 -91 2034 -91 
Q 1250 -91 836 529 
Q 422 1150 422 2328 
Q 422 3509 836 4129 
Q 1250 4750 2034 4750 
z
" transform="scale(0.015625)"/>
       </defs>
       <use xlink:href="#DejaVuSans-30"/>
      </g>
     </g>
    </g>
    <g id="xtick_2">
     <g id="line2d_3">
      <path d="M 167.337172 256.32 
L 167.337172 34.56 
" clip-path="url(#p28efe0f026)" style="fill: none; stroke: #b0b0b0; stroke-width: 0.8; stroke-linecap: square"/>
     </g>
     <g id="line2d_4">
      <g>
       <use xlink:href="#m9f3cd7608f" x="167.337172" y="256.32" style="stroke: #000000; stroke-width: 0.8"/>
      </g>
     </g>
     <g id="text_2">
      <!-- 2 -->
      <g transform="translate(164.155922 270.918437) scale(0.1 -0.1)">
       <defs>
        <path id="DejaVuSans-32" d="M 1228 531 
L 3431 531 
L 3431 0 
L 469 0 
L 469 531 
Q 828 903 1448 1529 
Q 2069 2156 2228 2338 
Q 2531 2678 2651 2914 
Q 2772 3150 2772 3378 
Q 2772 3750 2511 3984 
Q 2250 4219 1831 4219 
Q 1534 4219 1204 4116 
Q 875 4013 500 3803 
L 500 4441 
Q 881 4594 1212 4672 
Q 1544 4750 1819 4750 
Q 2544 4750 2975 4387 
Q 3406 4025 3406 3419 
Q 3406 3131 3298 2873 
Q 3191 2616 2906 2266 
Q 2828 2175 2409 1742 
Q 1991 1309 1228 531 
z
" transform="scale(0.015625)"/>
       </defs>
       <use xlink:href="#DejaVuSans-32"/>
      </g>
     </g>
    </g>
    <g id="xtick_3">
     <g id="line2d_5">
      <path d="M 213.330227 256.32 
L 213.330227 34.56 
" clip-path="url(#p28efe0f026)" style="fill: none; stroke: #b0b0b0; stroke-width: 0.8; stroke-linecap: square"/>
     </g>
     <g id="line2d_6">
      <g>
       <use xlink:href="#m9f3cd7608f" x="213.330227" y="256.32" style="stroke: #000000; stroke-width: 0.8"/>
      </g>
     </g>
     <g id="text_3">
      <!-- 4 -->
      <g transform="translate(210.148977 270.918437) scale(0.1 -0.1)">
       <defs>
        <path id="DejaVuSans-34" d="M 2419 4116 
L 825 1625 
L 2419 1625 
L 2419 4116 
z
M 2253 4666 
L 3047 4666 
L 3047 1625 
L 3713 1625 
L 3713 1100 
L 3047 1100 
L 3047 0 
L 2419 0 
L 2419 1100 
L 313 1100 
L 313 1709 
L 2253 4666 
z
" transform="scale(0.015625)"/>
       </defs>
       <use xlink:href="#DejaVuSans-34"/>
      </g>
     </g>
    </g>
    <g id="xtick_4">
     <g id="line2d_7">
      <path d="M 259.323281 256.32 
L 259.323281 34.56 
" clip-path="url(#p28efe0f026)" style="fill: none; stroke: #b0b0b0; stroke-width: 0.8; stroke-linecap: square"/>
     </g>
     <g id="line2d_8">
      <g>
       <use xlink:href="#m9f3cd7608f" x="259.323281" y="256.32" style="stroke: #000000; stroke-width: 0.8"/>
      </g>
     </g>
     <g id="text_4">
      <!-- 6 -->
      <g transform="translate(256.142031 270.918437) scale(0.1 -0.1)">
       <defs>
        <path id="DejaVuSans-36" d="M 2113 2584 
Q 1688 2584 1439 2293 
Q 1191 2003 1191 1497 
Q 1191 994 1439 701 
Q 1688 409 2113 409 
Q 2538 409 2786 701 
Q 3034 994 3034 1497 
Q 3034 2003 2786 2293 
Q 2538 2584 2113 2584 
z
M 3366 4563 
L 3366 3988 
Q 3128 4100 2886 4159 
Q 2644 4219 2406 4219 
Q 1781 4219 1451 3797 
Q 1122 3375 1075 2522 
Q 1259 2794 1537 2939 
Q 1816 3084 2150 3084 
Q 2853 3084 3261 2657 
Q 3669 2231 3669 1497 
Q 3669 778 3244 343 
Q 2819 -91 2113 -91 
Q 1303 -91 875 529 
Q 447 1150 447 2328 
Q 447 3434 972 4092 
Q 1497 4750 2381 4750 
Q 2619 4750 2861 4703 
Q 3103 4656 3366 4563 
z
" transform="scale(0.015625)"/>
       </defs>
       <use xlink:href="#DejaVuSans-36"/>
      </g>
     </g>
    </g>
    <g id="xtick_5">
     <g id="line2d_9">
      <path d="M 305.316336 256.32 
L 305.316336 34.56 
" clip-path="url(#p28efe0f026)" style="fill: none; stroke: #b0b0b0; stroke-width: 0.8; stroke-linecap: square"/>
     </g>
     <g id="line2d_10">
      <g>
       <use xlink:href="#m9f3cd7608f" x="305.316336" y="256.32" style="stroke: #000000; stroke-width: 0.8"/>
      </g>
     </g>
     <g id="text_5">
      <!-- 8 -->
      <g transform="translate(302.135086 270.918437) scale(0.1 -0.1)">
       <defs>
        <path id="DejaVuSans-38" d="M 2034 2216 
Q 1584 2216 1326 1975 
Q 1069 1734 1069 1313 
Q 1069 891 1326 650 
Q 1584 409 2034 409 
Q 2484 409 2743 651 
Q 3003 894 3003 1313 
Q 3003 1734 2745 1975 
Q 2488 2216 2034 2216 
z
M 1403 2484 
Q 997 2584 770 2862 
Q 544 3141 544 3541 
Q 544 4100 942 4425 
Q 1341 4750 2034 4750 
Q 2731 4750 3128 4425 
Q 3525 4100 3525 3541 
Q 3525 3141 3298 2862 
Q 3072 2584 2669 2484 
Q 3125 2378 3379 2068 
Q 3634 1759 3634 1313 
Q 3634 634 3220 271 
Q 2806 -91 2034 -91 
Q 1263 -91 848 271 
Q 434 634 434 1313 
Q 434 1759 690 2068 
Q 947 2378 1403 2484 
z
M 1172 3481 
Q 1172 3119 1398 2916 
Q 1625 2713 2034 2713 
Q 2441 2713 2670 2916 
Q 2900 3119 2900 3481 
Q 2900 3844 2670 4047 
Q 2441 4250 2034 4250 
Q 1625 4250 1398 4047 
Q 1172 3844 1172 3481 
z
" transform="scale(0.015625)"/>
       </defs>
       <use xlink:href="#DejaVuSans-38"/>
      </g>
     </g>
    </g>
    <g id="xtick_6">
     <g id="line2d_11">
      <path d="M 351.30939 256.32 
L 351.30939 34.56 
" clip-path="url(#p28efe0f026)" style="fill: none; stroke: #b0b0b0; stroke-width: 0.8; stroke-linecap: square"/>
     </g>
     <g id="line2d_12">
      <g>
       <use xlink:href="#m9f3cd7608f" x="351.30939" y="256.32" style="stroke: #000000; stroke-width: 0.8"/>
      </g>
     </g>
     <g id="text_6">
      <!-- 10 -->
      <g transform="translate(344.94689 270.918437) scale(0.1 -0.1)">
       <defs>
        <path id="DejaVuSans-31" d="M 794 531 
L 1825 531 
L 1825 4091 
L 703 3866 
L 703 4441 
L 1819 4666 
L 2450 4666 
L 2450 531 
L 3481 531 
L 3481 0 
L 794 0 
L 794 531 
z
" transform="scale(0.015625)"/>
       </defs>
       <use xlink:href="#DejaVuSans-31"/>
       <use xlink:href="#DejaVuSans-30" x="63.623047"/>
      </g>
     </g>
    </g>
    <g id="xtick_7">
     <g id="line2d_13">
      <path d="M 397.302444 256.32 
L 397.302444 34.56 
" clip-path="url(#p28efe0f026)" style="fill: none; stroke: #b0b0b0; stroke-width: 0.8; stroke-linecap: square"/>
     </g>
     <g id="line2d_14">
      <g>
       <use xlink:href="#m9f3cd7608f" x="397.302444" y="256.32" style="stroke: #000000; stroke-width: 0.8"/>
      </g>
     </g>
     <g id="text_7">
      <!-- 12 -->
      <g transform="translate(390.939944 270.918437) scale(0.1 -0.1)">
       <use xlink:href="#DejaVuSans-31"/>
       <use xlink:href="#DejaVuSans-32" x="63.623047"/>
      </g>
     </g>
    </g>
    <g id="text_8">
     <!-- Time (s) -->
     <g transform="translate(239.852912 284.596563) scale(0.1 -0.1)">
      <defs>
       <path id="DejaVuSans-54" d="M -19 4666 
L 3928 4666 
L 3928 4134 
L 2272 4134 
L 2272 0 
L 1638 0 
L 1638 4134 
L -19 4134 
L -19 4666 
z
" transform="scale(0.015625)"/>
       <path id="DejaVuSans-69" d="M 603 3500 
L 1178 3500 
L 1178 0 
L 603 0 
L 603 3500 
z
M 603 4863 
L 1178 4863 
L 1178 4134 
L 603 4134 
L 603 4863 
z
" transform="scale(0.015625)"/>
       <path id="DejaVuSans-6d" d="M 3328 2828 
Q 3544 3216 3844 3400 
Q 4144 3584 4550 3584 
Q 5097 3584 5394 3201 
Q 5691 2819 5691 2113 
L 5691 0 
L 5113 0 
L 5113 2094 
Q 5113 2597 4934 2840 
Q 4756 3084 4391 3084 
Q 3944 3084 3684 2787 
Q 3425 2491 3425 1978 
L 3425 0 
L 2847 0 
L 2847 2094 
Q 2847 2600 2669 2842 
Q 2491 3084 2119 3084 
Q 1678 3084 1418 2786 
Q 1159 2488 1159 1978 
L 1159 0 
L 581 0 
L 581 3500 
L 1159 3500 
L 1159 2956 
Q 1356 3278 1631 3431 
Q 1906 3584 2284 3584 
Q 2666 3584 2933 3390 
Q 3200 3197 3328 2828 
z
" transform="scale(0.015625)"/>
       <path id="DejaVuSans-65" d="M 3597 1894 
L 3597 1613 
L 953 1613 
Q 991 1019 1311 708 
Q 1631 397 2203 397 
Q 2534 397 2845 478 
Q 3156 559 3463 722 
L 3463 178 
Q 3153 47 2828 -22 
Q 2503 -91 2169 -91 
Q 1331 -91 842 396 
Q 353 884 353 1716 
Q 353 2575 817 3079 
Q 1281 3584 2069 3584 
Q 2775 3584 3186 3129 
Q 3597 2675 3597 1894 
z
M 3022 2063 
Q 3016 2534 2758 2815 
Q 2500 3097 2075 3097 
Q 1594 3097 1305 2825 
Q 1016 2553 972 2059 
L 3022 2063 
z
" transform="scale(0.015625)"/>
       <path id="DejaVuSans-20" transform="scale(0.015625)"/>
       <path id="DejaVuSans-28" d="M 1984 4856 
Q 1566 4138 1362 3434 
Q 1159 2731 1159 2009 
Q 1159 1288 1364 580 
Q 1569 -128 1984 -844 
L 1484 -844 
Q 1016 -109 783 600 
Q 550 1309 550 2009 
Q 550 2706 781 3412 
Q 1013 4119 1484 4856 
L 1984 4856 
z
" transform="scale(0.015625)"/>
       <path id="DejaVuSans-73" d="M 2834 3397 
L 2834 2853 
Q 2591 2978 2328 3040 
Q 2066 3103 1784 3103 
Q 1356 3103 1142 2972 
Q 928 2841 928 2578 
Q 928 2378 1081 2264 
Q 1234 2150 1697 2047 
L 1894 2003 
Q 2506 1872 2764 1633 
Q 3022 1394 3022 966 
Q 3022 478 2636 193 
Q 2250 -91 1575 -91 
Q 1294 -91 989 -36 
Q 684 19 347 128 
L 347 722 
Q 666 556 975 473 
Q 1284 391 1588 391 
Q 1994 391 2212 530 
Q 2431 669 2431 922 
Q 2431 1156 2273 1281 
Q 2116 1406 1581 1522 
L 1381 1569 
Q 847 1681 609 1914 
Q 372 2147 372 2553 
Q 372 3047 722 3315 
Q 1072 3584 1716 3584 
Q 2034 3584 2315 3537 
Q 2597 3491 2834 3397 
z
" transform="scale(0.015625)"/>
       <path id="DejaVuSans-29" d="M 513 4856 
L 1013 4856 
Q 1481 4119 1714 3412 
Q 1947 2706 1947 2009 
Q 1947 1309 1714 600 
Q 1481 -109 1013 -844 
L 513 -844 
Q 928 -128 1133 580 
Q 1338 1288 1338 2009 
Q 1338 2731 1133 3434 
Q 928 4138 513 4856 
z
" transform="scale(0.015625)"/>
      </defs>
      <use xlink:href="#DejaVuSans-54"/>
      <use xlink:href="#DejaVuSans-69" x="57.958984"/>
      <use xlink:href="#DejaVuSans-6d" x="85.742188"/>
      <use xlink:href="#DejaVuSans-65" x="183.154297"/>
      <use xlink:href="#DejaVuSans-20" x="244.677734"/>
      <use xlink:href="#DejaVuSans-28" x="276.464844"/>
      <use xlink:href="#DejaVuSans-73" x="315.478516"/>
      <use xlink:href="#DejaVuSans-29" x="367.578125"/>
     </g>
    </g>
   </g>
   <g id="matplotlib.axis_2">
    <g id="ytick_1">
     <g id="line2d_15">
      <path d="M 108 246.24 
L 412.363636 246.24 
" clip-path="url(#p28efe0f026)" style="fill: none; stroke: #b0b0b0; stroke-width: 0.8; stroke-linecap: square"/>
     </g>
     <g id="line2d_16">
      <defs>
       <path id="mae1dd1c4c5" d="M 0 0 
L -3.5 0 
" style="stroke: #000000; stroke-width: 0.8"/>
      </defs>
      <g>
       <use xlink:href="#mae1dd1c4c5" x="108" y="246.24" style="stroke: #000000; stroke-width: 0.8"/>
      </g>
     </g>
     <g id="text_9">
      <!-- −100 -->
      <g transform="translate(73.532813 250.039219) scale(0.1 -0.1)">
       <defs>
        <path id="DejaVuSans-2212" d="M 678 2272 
L 4684 2272 
L 4684 1741 
L 678 1741 
L 678 2272 
z
" transform="scale(0.015625)"/>
       </defs>
       <use xlink:href="#DejaVuSans-2212"/>
       <use xlink:href="#DejaVuSans-31" x="83.789062"/>
       <use xlink:href="#DejaVuSans-30" x="147.412109"/>
       <use xlink:href="#DejaVuSans-30" x="211.035156"/>
      </g>
     </g>
    </g>
    <g id="ytick_2">
     <g id="line2d_17">
      <path d="M 108 205.92 
L 412.363636 205.92 
" clip-path="url(#p28efe0f026)" style="fill: none; stroke: #b0b0b0; stroke-width: 0.8; stroke-linecap: square"/>
     </g>
     <g id="line2d_18">
      <g>
       <use xlink:href="#mae1dd1c4c5" x="108" y="205.92" style="stroke: #000000; stroke-width: 0.8"/>
      </g>
     </g>
     <g id="text_10">
      <!-- −80 -->
      <g transform="translate(79.895313 209.719219) scale(0.1 -0.1)">
       <use xlink:href="#DejaVuSans-2212"/>
       <use xlink:href="#DejaVuSans-38" x="83.789062"/>
       <use xlink:href="#DejaVuSans-30" x="147.412109"/>
      </g>
     </g>
    </g>
    <g id="ytick_3">
     <g id="line2d_19">
      <path d="M 108 165.6 
L 412.363636 165.6 
" clip-path="url(#p28efe0f026)" style="fill: none; stroke: #b0b0b0; stroke-width: 0.8; stroke-linecap: square"/>
     </g>
     <g id="line2d_20">
      <g>
       <use xlink:href="#mae1dd1c4c5" x="108" y="165.6" style="stroke: #000000; stroke-width: 0.8"/>
      </g>
     </g>
     <g id="text_11">
      <!-- −60 -->
      <g transform="translate(79.895313 169.399219) scale(0.1 -0.1)">
       <use xlink:href="#DejaVuSans-2212"/>
       <use xlink:href="#DejaVuSans-36" x="83.789062"/>
       <use xlink:href="#DejaVuSans-30" x="147.412109"/>
      </g>
     </g>
    </g>
    <g id="ytick_4">
     <g id="line2d_21">
      <path d="M 108 125.28 
L 412.363636 125.28 
" clip-path="url(#p28efe0f026)" style="fill: none; stroke: #b0b0b0; stroke-width: 0.8; stroke-linecap: square"/>
     </g>
     <g id="line2d_22">
      <g>
       <use xlink:href="#mae1dd1c4c5" x="108" y="125.28" style="stroke: #000000; stroke-width: 0.8"/>
      </g>
     </g>
     <g id="text_12">
      <!-- −40 -->
      <g transform="translate(79.895313 129.079219) scale(0.1 -0.1)">
       <use xlink:href="#DejaVuSans-2212"/>
       <use xlink:href="#DejaVuSans-34" x="83.789062"/>
       <use xlink:href="#DejaVuSans-30" x="147.412109"/>
      </g>
     </g>
    </g>
    <g id="ytick_5">
     <g id="line2d_23">
      <path d="M 108 84.96 
L 412.363636 84.96 
" clip-path="url(#p28efe0f026)" style="fill: none; stroke: #b0b0b0; stroke-width: 0.8; stroke-linecap: square"/>
     </g>
     <g id="line2d_24">
      <g>
       <use xlink:href="#mae1dd1c4c5" x="108" y="84.96" style="stroke: #000000; stroke-width: 0.8"/>
      </g>
     </g>
     <g id="text_13">
      <!-- −20 -->
      <g transform="translate(79.895313 88.759219) scale(0.1 -0.1)">
       <use xlink:href="#DejaVuSans-2212"/>
       <use xlink:href="#DejaVuSans-32" x="83.789062"/>
       <use xlink:href="#DejaVuSans-30" x="147.412109"/>
      </g>
     </g>
    </g>
    <g id="ytick_6">
     <g id="line2d_25">
      <path d="M 108 44.64 
L 412.363636 44.64 
" clip-path="url(#p28efe0f026)" style="fill: none; stroke: #b0b0b0; stroke-width: 0.8; stroke-linecap: square"/>
     </g>
     <g id="line2d_26">
      <g>
       <use xlink:href="#mae1dd1c4c5" x="108" y="44.64" style="stroke: #000000; stroke-width: 0.8"/>
      </g>
     </g>
     <g id="text_14">
      <!-- 0 -->
      <g transform="translate(94.6375 48.439219) scale(0.1 -0.1)">
       <use xlink:href="#DejaVuSans-30"/>
      </g>
     </g>
    </g>
    <g id="text_15">
     <!-- Amplitude -->
     <g transform="translate(67.453125 171.062656) rotate(-90) scale(0.1 -0.1)">
      <defs>
       <path id="DejaVuSans-41" d="M 2188 4044 
L 1331 1722 
L 3047 1722 
L 2188 4044 
z
M 1831 4666 
L 2547 4666 
L 4325 0 
L 3669 0 
L 3244 1197 
L 1141 1197 
L 716 0 
L 50 0 
L 1831 4666 
z
" transform="scale(0.015625)"/>
       <path id="DejaVuSans-70" d="M 1159 525 
L 1159 -1331 
L 581 -1331 
L 581 3500 
L 1159 3500 
L 1159 2969 
Q 1341 3281 1617 3432 
Q 1894 3584 2278 3584 
Q 2916 3584 3314 3078 
Q 3713 2572 3713 1747 
Q 3713 922 3314 415 
Q 2916 -91 2278 -91 
Q 1894 -91 1617 61 
Q 1341 213 1159 525 
z
M 3116 1747 
Q 3116 2381 2855 2742 
Q 2594 3103 2138 3103 
Q 1681 3103 1420 2742 
Q 1159 2381 1159 1747 
Q 1159 1113 1420 752 
Q 1681 391 2138 391 
Q 2594 391 2855 752 
Q 3116 1113 3116 1747 
z
" transform="scale(0.015625)"/>
       <path id="DejaVuSans-6c" d="M 603 4863 
L 1178 4863 
L 1178 0 
L 603 0 
L 603 4863 
z
" transform="scale(0.015625)"/>
       <path id="DejaVuSans-74" d="M 1172 4494 
L 1172 3500 
L 2356 3500 
L 2356 3053 
L 1172 3053 
L 1172 1153 
Q 1172 725 1289 603 
Q 1406 481 1766 481 
L 2356 481 
L 2356 0 
L 1766 0 
Q 1100 0 847 248 
Q 594 497 594 1153 
L 594 3053 
L 172 3053 
L 172 3500 
L 594 3500 
L 594 4494 
L 1172 4494 
z
" transform="scale(0.015625)"/>
       <path id="DejaVuSans-75" d="M 544 1381 
L 544 3500 
L 1119 3500 
L 1119 1403 
Q 1119 906 1312 657 
Q 1506 409 1894 409 
Q 2359 409 2629 706 
Q 2900 1003 2900 1516 
L 2900 3500 
L 3475 3500 
L 3475 0 
L 2900 0 
L 2900 538 
Q 2691 219 2414 64 
Q 2138 -91 1772 -91 
Q 1169 -91 856 284 
Q 544 659 544 1381 
z
M 1991 3584 
L 1991 3584 
z
" transform="scale(0.015625)"/>
       <path id="DejaVuSans-64" d="M 2906 2969 
L 2906 4863 
L 3481 4863 
L 3481 0 
L 2906 0 
L 2906 525 
Q 2725 213 2448 61 
Q 2172 -91 1784 -91 
Q 1150 -91 751 415 
Q 353 922 353 1747 
Q 353 2572 751 3078 
Q 1150 3584 1784 3584 
Q 2172 3584 2448 3432 
Q 2725 3281 2906 2969 
z
M 947 1747 
Q 947 1113 1208 752 
Q 1469 391 1925 391 
Q 2381 391 2643 752 
Q 2906 1113 2906 1747 
Q 2906 2381 2643 2742 
Q 2381 3103 1925 3103 
Q 1469 3103 1208 2742 
Q 947 2381 947 1747 
z
" transform="scale(0.015625)"/>
      </defs>
      <use xlink:href="#DejaVuSans-41"/>
      <use xlink:href="#DejaVuSans-6d" x="68.408203"/>
      <use xlink:href="#DejaVuSans-70" x="165.820312"/>
      <use xlink:href="#DejaVuSans-6c" x="229.296875"/>
      <use xlink:href="#DejaVuSans-69" x="257.080078"/>
      <use xlink:href="#DejaVuSans-74" x="284.863281"/>
      <use xlink:href="#DejaVuSans-75" x="324.072266"/>
      <use xlink:href="#DejaVuSans-64" x="387.451172"/>
      <use xlink:href="#DejaVuSans-65" x="450.927734"/>
     </g>
    </g>
   </g>
   <g id="line2d_27">
    <path d="M 121.834711 128.781986 
L 122.325303 44.64 
L 122.815896 44.64 
L 123.306488 53.012079 
L 123.797081 53.012079 
L 124.287674 54.766037 
L 124.778266 54.766037 
L 125.268859 55.130706 
L 125.759451 55.130706 
L 126.250044 57.435977 
L 126.740637 57.435977 
L 127.231229 60.325236 
L 127.721822 60.325236 
L 128.212414 62.975735 
L 128.703007 63.183465 
L 129.193599 64.89188 
L 129.684192 64.976147 
L 130.174785 66.828566 
L 130.665377 67.642165 
L 131.15597 70.06815 
L 131.646562 70.391962 
L 132.627747 72.642311 
L 133.11834 72.805644 
L 133.608933 74.42591 
L 134.099525 74.42591 
L 134.590118 75.910108 
L 135.08071 76.149271 
L 135.571303 78.125589 
L 136.061896 78.351518 
L 136.552488 79.195989 
L 137.043081 79.72818 
L 137.533673 79.72818 
L 138.024266 79.381358 
L 138.514858 79.381358 
L 139.005451 79.502268 
L 139.986636 79.409658 
L 140.477229 79.25317 
L 140.967821 78.952996 
L 141.458414 78.412022 
L 141.949007 78.331773 
L 142.439599 77.657846 
L 142.930192 77.657846 
L 143.420784 77.779381 
L 143.911377 77.555097 
L 144.401969 76.947349 
L 144.892562 76.947349 
L 145.383155 77.159756 
L 146.36434 77.034187 
L 146.854932 77.034187 
L 147.836117 77.676028 
L 148.32671 77.948227 
L 148.817303 77.948227 
L 149.307895 78.203718 
L 149.798488 78.732989 
L 150.779673 79.327408 
L 151.270266 79.90618 
L 152.251451 80.463816 
L 152.742043 81.067538 
L 153.232636 81.86279 
L 153.723228 82.435998 
L 154.213821 82.449227 
L 154.704414 83.290901 
L 155.195006 83.557336 
L 155.685599 84.617571 
L 156.176191 84.774857 
L 156.666784 85.819369 
L 157.647969 86.179794 
L 158.138562 87.056547 
L 158.629154 87.084208 
L 159.119747 87.55609 
L 159.610339 87.826375 
L 160.591525 87.780148 
L 161.082117 87.992182 
L 161.57271 88.492871 
L 162.063302 88.284804 
L 162.553895 88.284804 
L 163.044487 89.088902 
L 163.53508 89.088902 
L 164.025673 89.650919 
L 164.516265 89.992131 
L 165.49745 89.990811 
L 165.988043 91.222665 
L 166.969228 91.746579 
L 167.459821 93.127763 
L 167.950413 93.658826 
L 168.441006 93.801874 
L 168.931598 94.194324 
L 169.422191 95.194775 
L 169.912784 95.623606 
L 170.893969 98.222777 
L 171.384561 98.636306 
L 171.875154 99.404916 
L 172.365746 100.762217 
L 172.856339 100.932199 
L 173.346932 102.896283 
L 173.837524 103.35925 
L 174.328117 102.77278 
L 174.818709 102.77278 
L 175.309302 103.452761 
L 175.799894 104.967464 
L 176.290487 102.813012 
L 176.78108 102.813012 
L 177.271672 104.877885 
L 177.762265 104.658335 
L 178.252857 103.571611 
L 178.74345 103.571611 
L 179.234043 104.516258 
L 179.724635 103.891409 
L 180.215228 102.941411 
L 180.70582 102.941411 
L 181.196413 103.625705 
L 181.687005 103.909673 
L 182.177598 104.006423 
L 182.668191 102.5879 
L 183.158783 102.5879 
L 183.649376 103.974358 
L 184.630561 104.307648 
L 185.121154 104.307648 
L 186.102339 105.068435 
L 186.592931 105.068435 
L 187.083524 107.031261 
L 187.574116 107.375609 
L 188.064709 106.957744 
L 188.555302 106.957744 
L 189.045894 108.134551 
L 189.536487 108.477794 
L 190.027079 109.450593 
L 191.498857 109.464306 
L 191.98945 112.015003 
L 192.480042 112.290424 
L 192.970635 112.290424 
L 193.461227 111.824447 
L 193.95182 111.824447 
L 194.442413 112.543499 
L 195.423598 112.507235 
L 195.91419 112.215092 
L 197.876561 112.16466 
L 198.367153 111.825979 
L 198.857746 110.732778 
L 199.348338 110.732778 
L 199.838931 111.09332 
L 200.329523 111.09332 
L 200.820116 110.294049 
L 201.310709 110.294049 
L 201.801301 112.726763 
L 202.291894 112.726763 
L 202.782486 111.578086 
L 203.273079 111.578086 
L 203.763672 113.851775 
L 204.254264 112.69414 
L 204.744857 112.69414 
L 205.235449 114.354565 
L 205.726042 114.354565 
L 206.216634 115.140834 
L 206.707227 116.153265 
L 207.19782 116.153265 
L 207.688412 120.19997 
L 208.179005 119.530966 
L 208.669597 119.530966 
L 209.16019 121.305891 
L 209.650782 118.141069 
L 210.141375 118.141069 
L 210.631968 119.183064 
L 211.12256 122.532206 
L 211.613153 122.823246 
L 212.103745 122.316882 
L 212.594338 119.853187 
L 213.084931 118.293304 
L 213.575523 118.293304 
L 214.066116 120.722231 
L 214.556708 117.181512 
L 215.047301 117.050468 
L 215.537893 117.050468 
L 216.028486 117.677702 
L 216.519079 118.508457 
L 217.009671 118.683749 
L 217.990856 120.090976 
L 218.972041 120.182065 
L 219.462634 121.509729 
L 219.953227 121.885856 
L 220.443819 121.669554 
L 220.934412 121.669554 
L 221.425004 123.74244 
L 221.915597 120.770027 
L 222.40619 120.770027 
L 222.896782 124.099199 
L 223.387375 124.099199 
L 223.877967 121.840346 
L 224.36856 121.840346 
L 225.349745 124.781446 
L 225.840338 127.392561 
L 226.33093 125.075996 
L 226.821523 123.936343 
L 227.312115 123.936343 
L 227.802708 126.841508 
L 228.293301 126.290643 
L 228.783893 126.290643 
L 229.274486 128.213505 
L 229.765078 128.213505 
L 230.255671 128.930851 
L 230.746263 127.509384 
L 231.236856 127.000183 
L 231.727449 127.000183 
L 232.218041 127.395356 
L 232.708634 126.100997 
L 233.199226 126.100997 
L 233.689819 124.363588 
L 234.180411 124.363588 
L 234.671004 125.216099 
L 235.161597 125.216099 
L 235.652189 124.444476 
L 236.633374 124.515462 
L 237.123967 123.663218 
L 237.61456 123.663218 
L 238.105152 124.394171 
L 238.595745 122.755212 
L 239.086337 122.755212 
L 239.57693 125.30682 
L 240.067522 128.516781 
L 240.558115 129.073814 
L 241.048708 129.073814 
L 241.5393 130.822411 
L 242.029893 129.611047 
L 242.520485 129.461552 
L 243.011078 123.962359 
L 243.50167 123.962359 
L 243.992263 127.443867 
L 244.482856 127.443867 
L 244.973448 131.20962 
L 245.464041 130.30113 
L 245.954633 128.840571 
L 246.445226 128.840571 
L 246.935819 129.810953 
L 247.426411 127.333048 
L 247.917004 127.333048 
L 248.407596 130.896213 
L 248.898189 130.896213 
L 249.388781 131.094167 
L 249.879374 130.166376 
L 250.369967 125.800751 
L 250.860559 125.800751 
L 251.351152 128.239882 
L 252.332337 128.137528 
L 252.822929 128.745722 
L 253.313522 128.745722 
L 253.804115 123.950111 
L 254.294707 120.373164 
L 254.7853 120.373164 
L 255.275892 125.419638 
L 255.766485 120.197499 
L 256.257078 120.197499 
L 257.238263 131.202672 
L 257.728855 125.403833 
L 258.219448 125.403833 
L 258.71004 132.013137 
L 259.200633 134.305868 
L 259.691226 134.14624 
L 260.181818 130.949771 
L 261.653596 130.924681 
L 262.144189 131.864602 
L 262.634781 131.864602 
L 263.125374 135.330597 
L 263.615966 132.059282 
L 264.106559 130.063004 
L 264.597151 130.063004 
L 265.087744 132.548789 
L 265.578337 133.429608 
L 266.068929 133.429608 
L 266.559522 135.449723 
L 267.050114 135.449723 
L 267.540707 133.029226 
L 268.031299 131.76747 
L 268.521892 131.76747 
L 269.012485 132.067796 
L 270.484262 132.086053 
L 270.974855 128.331041 
L 271.465448 128.331041 
L 271.95604 129.741578 
L 272.446633 132.952284 
L 272.937225 138.535207 
L 273.427818 137.005853 
L 273.91841 128.112276 
L 274.409003 128.112276 
L 274.899596 130.765852 
L 275.390188 130.987474 
L 275.880781 131.664928 
L 276.371373 134.619701 
L 276.861966 134.619701 
L 277.352558 129.45212 
L 277.843151 129.45212 
L 278.333744 131.428755 
L 278.824336 134.869171 
L 279.314929 133.741372 
L 279.805521 133.741372 
L 280.296114 138.325265 
L 280.786707 135.882994 
L 281.277299 135.882994 
L 281.767892 130.109718 
L 282.258484 130.109718 
L 282.749077 135.151237 
L 283.239669 138.400205 
L 283.730262 129.379975 
L 284.220855 129.379975 
L 285.692632 137.848355 
L 286.183225 135.213731 
L 286.673817 135.213731 
L 287.16441 135.430549 
L 287.655003 134.97226 
L 288.145595 134.332153 
L 288.636188 134.332153 
L 289.12678 131.907946 
L 289.617373 131.272283 
L 290.107966 131.272283 
L 290.598558 134.826395 
L 291.089151 136.169712 
L 291.579743 133.13493 
L 292.070336 133.13493 
L 292.560928 129.178712 
L 293.051521 129.178712 
L 293.542114 131.607955 
L 294.032706 134.758172 
L 294.523299 134.924935 
L 295.013891 134.045163 
L 295.504484 134.045163 
L 295.995076 133.597404 
L 296.485669 133.597404 
L 296.976262 136.522285 
L 297.466854 131.934486 
L 297.957447 131.934486 
L 298.448039 132.207033 
L 298.938632 135.908729 
L 299.429225 136.786275 
L 299.919817 136.450262 
L 300.41041 136.450262 
L 300.901002 134.296193 
L 301.391595 134.296193 
L 301.882187 135.222469 
L 302.37278 132.526296 
L 302.863373 132.526296 
L 303.353965 133.185429 
L 303.844558 135.96487 
L 304.33515 135.96487 
L 304.825743 129.458408 
L 305.316336 129.458408 
L 305.806928 130.497994 
L 306.297521 131.84177 
L 306.788113 131.84177 
L 307.278706 133.527183 
L 307.769298 130.79524 
L 308.259891 130.79524 
L 308.750484 136.056294 
L 309.241076 138.634049 
L 309.731669 137.586319 
L 310.222261 137.385739 
L 310.712854 137.385739 
L 311.203446 137.659831 
L 311.694039 136.810182 
L 312.184632 136.810182 
L 312.675224 135.691931 
L 313.165817 135.691931 
L 313.656409 138.098915 
L 314.147002 134.256172 
L 314.637595 134.256172 
L 315.128187 137.3775 
L 315.61878 137.3775 
L 316.109372 139.262943 
L 316.599965 129.027734 
L 317.090557 129.027734 
L 317.58115 130.889387 
L 318.071743 130.889387 
L 318.562335 130.516912 
L 319.052928 130.516912 
L 319.54352 134.913482 
L 320.034113 134.913482 
L 320.524705 137.772365 
L 321.015298 136.80221 
L 321.996483 136.754449 
L 322.487076 138.181513 
L 322.977668 135.741377 
L 323.468261 135.741377 
L 323.958854 138.932164 
L 324.449446 130.8928 
L 324.940039 130.8928 
L 325.430631 132.661689 
L 325.921224 132.661689 
L 326.411816 131.302534 
L 326.902409 131.302534 
L 327.393002 137.564659 
L 327.883594 137.695025 
L 328.374187 130.331951 
L 328.864779 130.331951 
L 329.355372 134.264445 
L 329.845964 134.264445 
L 330.336557 132.656656 
L 330.82715 132.656656 
L 331.317742 127.766316 
L 331.808335 127.766316 
L 332.298927 131.446358 
L 332.78952 131.446358 
L 333.280113 133.931131 
L 333.770705 130.11407 
L 334.261298 129.968868 
L 334.75189 129.968868 
L 335.242483 140.232344 
L 335.733075 136.367646 
L 336.223668 133.548352 
L 336.714261 133.548352 
L 337.204853 133.80171 
L 337.695446 130.494658 
L 338.186038 130.494658 
L 338.676631 133.345655 
L 339.167223 131.664928 
L 339.657816 131.664928 
L 340.148409 134.936396 
L 340.639001 129.435364 
L 341.129594 129.435364 
L 341.620186 132.430401 
L 342.110779 132.076314 
L 342.601372 125.922801 
L 343.091964 125.922801 
L 343.582557 126.930189 
L 344.073149 127.612837 
L 344.563742 126.437324 
L 345.054334 126.437324 
L 345.544927 130.119511 
L 346.03552 130.119511 
L 346.526112 131.143719 
L 347.016705 128.739685 
L 347.507297 128.739685 
L 347.99789 129.349742 
L 348.488483 129.349742 
L 348.979075 127.78631 
L 349.469668 127.78631 
L 349.96026 136.665642 
L 350.450853 136.931819 
L 350.941445 132.956123 
L 351.432038 132.956123 
L 351.922631 133.655915 
L 352.413223 132.537539 
L 352.903816 128.921701 
L 353.394408 128.921701 
L 354.375593 136.436206 
L 354.866186 136.436206 
L 355.356779 135.245791 
L 355.847371 135.245791 
L 356.337964 148.145005 
L 356.828556 246.24 
L 398.528926 246.24 
L 398.528926 246.24 
" clip-path="url(#p28efe0f026)" style="fill: none; stroke: #800080; stroke-width: 1.5; stroke-linecap: square"/>
   </g>
   <g id="patch_3">
    <path d="M 108 256.32 
L 108 34.56 
" style="fill: none; stroke: #000000; stroke-width: 0.8; stroke-linejoin: miter; stroke-linecap: square"/>
   </g>
   <g id="patch_4">
    <path d="M 412.363636 256.32 
L 412.363636 34.56 
" style="fill: none; stroke: #000000; stroke-width: 0.8; stroke-linejoin: miter; stroke-linecap: square"/>
   </g>
   <g id="patch_5">
    <path d="M 108 256.32 
L 412.363636 256.32 
" style="fill: none; stroke: #000000; stroke-width: 0.8; stroke-linejoin: miter; stroke-linecap: square"/>
   </g>
   <g id="patch_6">
    <path d="M 108 34.56 
L 412.363636 34.56 
" style="fill: none; stroke: #000000; stroke-width: 0.8; stroke-linejoin: miter; stroke-linecap: square"/>
   </g>
   <g id="text_16">
    <!-- Mid Channel Time Peak Envelope -->
    <g transform="translate(160.669006 28.56) scale(0.12 -0.12)">
     <defs>
      <path id="DejaVuSans-4d" d="M 628 4666 
L 1569 4666 
L 2759 1491 
L 3956 4666 
L 4897 4666 
L 4897 0 
L 4281 0 
L 4281 4097 
L 3078 897 
L 2444 897 
L 1241 4097 
L 1241 0 
L 628 0 
L 628 4666 
z
" transform="scale(0.015625)"/>
      <path id="DejaVuSans-43" d="M 4122 4306 
L 4122 3641 
Q 3803 3938 3442 4084 
Q 3081 4231 2675 4231 
Q 1875 4231 1450 3742 
Q 1025 3253 1025 2328 
Q 1025 1406 1450 917 
Q 1875 428 2675 428 
Q 3081 428 3442 575 
Q 3803 722 4122 1019 
L 4122 359 
Q 3791 134 3420 21 
Q 3050 -91 2638 -91 
Q 1578 -91 968 557 
Q 359 1206 359 2328 
Q 359 3453 968 4101 
Q 1578 4750 2638 4750 
Q 3056 4750 3426 4639 
Q 3797 4528 4122 4306 
z
" transform="scale(0.015625)"/>
      <path id="DejaVuSans-68" d="M 3513 2113 
L 3513 0 
L 2938 0 
L 2938 2094 
Q 2938 2591 2744 2837 
Q 2550 3084 2163 3084 
Q 1697 3084 1428 2787 
Q 1159 2491 1159 1978 
L 1159 0 
L 581 0 
L 581 4863 
L 1159 4863 
L 1159 2956 
Q 1366 3272 1645 3428 
Q 1925 3584 2291 3584 
Q 2894 3584 3203 3211 
Q 3513 2838 3513 2113 
z
" transform="scale(0.015625)"/>
      <path id="DejaVuSans-61" d="M 2194 1759 
Q 1497 1759 1228 1600 
Q 959 1441 959 1056 
Q 959 750 1161 570 
Q 1363 391 1709 391 
Q 2188 391 2477 730 
Q 2766 1069 2766 1631 
L 2766 1759 
L 2194 1759 
z
M 3341 1997 
L 3341 0 
L 2766 0 
L 2766 531 
Q 2569 213 2275 61 
Q 1981 -91 1556 -91 
Q 1019 -91 701 211 
Q 384 513 384 1019 
Q 384 1609 779 1909 
Q 1175 2209 1959 2209 
L 2766 2209 
L 2766 2266 
Q 2766 2663 2505 2880 
Q 2244 3097 1772 3097 
Q 1472 3097 1187 3025 
Q 903 2953 641 2809 
L 641 3341 
Q 956 3463 1253 3523 
Q 1550 3584 1831 3584 
Q 2591 3584 2966 3190 
Q 3341 2797 3341 1997 
z
" transform="scale(0.015625)"/>
      <path id="DejaVuSans-6e" d="M 3513 2113 
L 3513 0 
L 2938 0 
L 2938 2094 
Q 2938 2591 2744 2837 
Q 2550 3084 2163 3084 
Q 1697 3084 1428 2787 
Q 1159 2491 1159 1978 
L 1159 0 
L 581 0 
L 581 3500 
L 1159 3500 
L 1159 2956 
Q 1366 3272 1645 3428 
Q 1925 3584 2291 3584 
Q 2894 3584 3203 3211 
Q 3513 2838 3513 2113 
z
" transform="scale(0.015625)"/>
      <path id="DejaVuSans-50" d="M 1259 4147 
L 1259 2394 
L 2053 2394 
Q 2494 2394 2734 2622 
Q 2975 2850 2975 3272 
Q 2975 3691 2734 3919 
Q 2494 4147 2053 4147 
L 1259 4147 
z
M 628 4666 
L 2053 4666 
Q 2838 4666 3239 4311 
Q 3641 3956 3641 3272 
Q 3641 2581 3239 2228 
Q 2838 1875 2053 1875 
L 1259 1875 
L 1259 0 
L 628 0 
L 628 4666 
z
" transform="scale(0.015625)"/>
      <path id="DejaVuSans-6b" d="M 581 4863 
L 1159 4863 
L 1159 1991 
L 2875 3500 
L 3609 3500 
L 1753 1863 
L 3688 0 
L 2938 0 
L 1159 1709 
L 1159 0 
L 581 0 
L 581 4863 
z
" transform="scale(0.015625)"/>
      <path id="DejaVuSans-45" d="M 628 4666 
L 3578 4666 
L 3578 4134 
L 1259 4134 
L 1259 2753 
L 3481 2753 
L 3481 2222 
L 1259 2222 
L 1259 531 
L 3634 531 
L 3634 0 
L 628 0 
L 628 4666 
z
" transform="scale(0.015625)"/>
      <path id="DejaVuSans-76" d="M 191 3500 
L 800 3500 
L 1894 563 
L 2988 3500 
L 3597 3500 
L 2284 0 
L 1503 0 
L 191 3500 
z
" transform="scale(0.015625)"/>
      <path id="DejaVuSans-6f" d="M 1959 3097 
Q 1497 3097 1228 2736 
Q 959 2375 959 1747 
Q 959 1119 1226 758 
Q 1494 397 1959 397 
Q 2419 397 2687 759 
Q 2956 1122 2956 1747 
Q 2956 2369 2687 2733 
Q 2419 3097 1959 3097 
z
M 1959 3584 
Q 2709 3584 3137 3096 
Q 3566 2609 3566 1747 
Q 3566 888 3137 398 
Q 2709 -91 1959 -91 
Q 1206 -91 779 398 
Q 353 888 353 1747 
Q 353 2609 779 3096 
Q 1206 3584 1959 3584 
z
" transform="scale(0.015625)"/>
     </defs>
     <use xlink:href="#DejaVuSans-4d"/>
     <use xlink:href="#DejaVuSans-69" x="86.279297"/>
     <use xlink:href="#DejaVuSans-64" x="114.0625"/>
     <use xlink:href="#DejaVuSans-20" x="177.539062"/>
     <use xlink:href="#DejaVuSans-43" x="209.326172"/>
     <use xlink:href="#DejaVuSans-68" x="279.150391"/>
     <use xlink:href="#DejaVuSans-61" x="342.529297"/>
     <use xlink:href="#DejaVuSans-6e" x="403.808594"/>
     <use xlink:href="#DejaVuSans-6e" x="467.1875"/>
     <use xlink:href="#DejaVuSans-65" x="530.566406"/>
     <use xlink:href="#DejaVuSans-6c" x="592.089844"/>
     <use xlink:href="#DejaVuSans-20" x="619.873047"/>
     <use xlink:href="#DejaVuSans-54" x="651.660156"/>
     <use xlink:href="#DejaVuSans-69" x="709.619141"/>
     <use xlink:href="#DejaVuSans-6d" x="737.402344"/>
     <use xlink:href="#DejaVuSans-65" x="834.814453"/>
     <use xlink:href="#DejaVuSans-20" x="896.337891"/>
     <use xlink:href="#DejaVuSans-50" x="928.125"/>
     <use xlink:href="#DejaVuSans-65" x="984.802734"/>
     <use xlink:href="#DejaVuSans-61" x="1046.326172"/>
     <use xlink:href="#DejaVuSans-6b" x="1107.605469"/>
     <use xlink:href="#DejaVuSans-20" x="1165.515625"/>
     <use xlink:href="#DejaVuSans-45" x="1197.302734"/>
     <use xlink:href="#DejaVuSans-6e" x="1260.486328"/>
     <use xlink:href="#DejaVuSans-76" x="1323.865234"/>
     <use xlink:href="#DejaVuSans-65" x="1383.044922"/>
     <use xlink:href="#DejaVuSans-6c" x="1444.568359"/>
     <use xlink:href="#DejaVuSans-6f" x="1472.351562"/>
     <use xlink:href="#DejaVuSans-70" x="1533.533203"/>
     <use xlink:href="#DejaVuSans-65" x="1597.009766"/>
    </g>
   </g>
  </g>
  <g id="axes_2">
   <g id="patch_7">
    <path d="M 473.236364 256.32 
L 777.6 256.32 
L 777.6 34.56 
L 473.236364 34.56 
z
" style="fill: #ffffff"/>
   </g>
   <g id="matplotlib.axis_3">
    <g id="xtick_8">
     <g id="line2d_28">
      <path d="M 486.580482 256.32 
L 486.580482 34.56 
" clip-path="url(#p5598ffb873)" style="fill: none; stroke: #b0b0b0; stroke-width: 0.8; stroke-linecap: square"/>
     </g>
     <g id="line2d_29">
      <g>
       <use xlink:href="#m9f3cd7608f" x="486.580482" y="256.32" style="stroke: #000000; stroke-width: 0.8"/>
      </g>
     </g>
     <g id="text_17">
      <!-- 0 -->
      <g transform="translate(483.399232 270.918437) scale(0.1 -0.1)">
       <use xlink:href="#DejaVuSans-30"/>
      </g>
     </g>
    </g>
    <g id="xtick_9">
     <g id="line2d_30">
      <path d="M 532.573536 256.32 
L 532.573536 34.56 
" clip-path="url(#p5598ffb873)" style="fill: none; stroke: #b0b0b0; stroke-width: 0.8; stroke-linecap: square"/>
     </g>
     <g id="line2d_31">
      <g>
       <use xlink:href="#m9f3cd7608f" x="532.573536" y="256.32" style="stroke: #000000; stroke-width: 0.8"/>
      </g>
     </g>
     <g id="text_18">
      <!-- 2 -->
      <g transform="translate(529.392286 270.918437) scale(0.1 -0.1)">
       <use xlink:href="#DejaVuSans-32"/>
      </g>
     </g>
    </g>
    <g id="xtick_10">
     <g id="line2d_32">
      <path d="M 578.56659 256.32 
L 578.56659 34.56 
" clip-path="url(#p5598ffb873)" style="fill: none; stroke: #b0b0b0; stroke-width: 0.8; stroke-linecap: square"/>
     </g>
     <g id="line2d_33">
      <g>
       <use xlink:href="#m9f3cd7608f" x="578.56659" y="256.32" style="stroke: #000000; stroke-width: 0.8"/>
      </g>
     </g>
     <g id="text_19">
      <!-- 4 -->
      <g transform="translate(575.38534 270.918437) scale(0.1 -0.1)">
       <use xlink:href="#DejaVuSans-34"/>
      </g>
     </g>
    </g>
    <g id="xtick_11">
     <g id="line2d_34">
      <path d="M 624.559645 256.32 
L 624.559645 34.56 
" clip-path="url(#p5598ffb873)" style="fill: none; stroke: #b0b0b0; stroke-width: 0.8; stroke-linecap: square"/>
     </g>
     <g id="line2d_35">
      <g>
       <use xlink:href="#m9f3cd7608f" x="624.559645" y="256.32" style="stroke: #000000; stroke-width: 0.8"/>
      </g>
     </g>
     <g id="text_20">
      <!-- 6 -->
      <g transform="translate(621.378395 270.918437) scale(0.1 -0.1)">
       <use xlink:href="#DejaVuSans-36"/>
      </g>
     </g>
    </g>
    <g id="xtick_12">
     <g id="line2d_36">
      <path d="M 670.552699 256.32 
L 670.552699 34.56 
" clip-path="url(#p5598ffb873)" style="fill: none; stroke: #b0b0b0; stroke-width: 0.8; stroke-linecap: square"/>
     </g>
     <g id="line2d_37">
      <g>
       <use xlink:href="#m9f3cd7608f" x="670.552699" y="256.32" style="stroke: #000000; stroke-width: 0.8"/>
      </g>
     </g>
     <g id="text_21">
      <!-- 8 -->
      <g transform="translate(667.371449 270.918437) scale(0.1 -0.1)">
       <use xlink:href="#DejaVuSans-38"/>
      </g>
     </g>
    </g>
    <g id="xtick_13">
     <g id="line2d_38">
      <path d="M 716.545753 256.32 
L 716.545753 34.56 
" clip-path="url(#p5598ffb873)" style="fill: none; stroke: #b0b0b0; stroke-width: 0.8; stroke-linecap: square"/>
     </g>
     <g id="line2d_39">
      <g>
       <use xlink:href="#m9f3cd7608f" x="716.545753" y="256.32" style="stroke: #000000; stroke-width: 0.8"/>
      </g>
     </g>
     <g id="text_22">
      <!-- 10 -->
      <g transform="translate(710.183253 270.918437) scale(0.1 -0.1)">
       <use xlink:href="#DejaVuSans-31"/>
       <use xlink:href="#DejaVuSans-30" x="63.623047"/>
      </g>
     </g>
    </g>
    <g id="xtick_14">
     <g id="line2d_40">
      <path d="M 762.538808 256.32 
L 762.538808 34.56 
" clip-path="url(#p5598ffb873)" style="fill: none; stroke: #b0b0b0; stroke-width: 0.8; stroke-linecap: square"/>
     </g>
     <g id="line2d_41">
      <g>
       <use xlink:href="#m9f3cd7608f" x="762.538808" y="256.32" style="stroke: #000000; stroke-width: 0.8"/>
      </g>
     </g>
     <g id="text_23">
      <!-- 12 -->
      <g transform="translate(756.176308 270.918437) scale(0.1 -0.1)">
       <use xlink:href="#DejaVuSans-31"/>
       <use xlink:href="#DejaVuSans-32" x="63.623047"/>
      </g>
     </g>
    </g>
    <g id="text_24">
     <!-- Time (s) -->
     <g transform="translate(605.089276 284.596563) scale(0.1 -0.1)">
      <use xlink:href="#DejaVuSans-54"/>
      <use xlink:href="#DejaVuSans-69" x="57.958984"/>
      <use xlink:href="#DejaVuSans-6d" x="85.742188"/>
      <use xlink:href="#DejaVuSans-65" x="183.154297"/>
      <use xlink:href="#DejaVuSans-20" x="244.677734"/>
      <use xlink:href="#DejaVuSans-28" x="276.464844"/>
      <use xlink:href="#DejaVuSans-73" x="315.478516"/>
      <use xlink:href="#DejaVuSans-29" x="367.578125"/>
     </g>
    </g>
   </g>
   <g id="matplotlib.axis_4">
    <g id="ytick_7">
     <g id="line2d_42">
      <path d="M 473.236364 246.24 
L 777.6 246.24 
" clip-path="url(#p5598ffb873)" style="fill: none; stroke: #b0b0b0; stroke-width: 0.8; stroke-linecap: square"/>
     </g>
     <g id="line2d_43">
      <g>
       <use xlink:href="#mae1dd1c4c5" x="473.236364" y="246.24" style="stroke: #000000; stroke-width: 0.8"/>
      </g>
     </g>
     <g id="text_25">
      <!-- −100 -->
      <g transform="translate(438.769176 250.039219) scale(0.1 -0.1)">
       <use xlink:href="#DejaVuSans-2212"/>
       <use xlink:href="#DejaVuSans-31" x="83.789062"/>
       <use xlink:href="#DejaVuSans-30" x="147.412109"/>
       <use xlink:href="#DejaVuSans-30" x="211.035156"/>
      </g>
     </g>
    </g>
    <g id="ytick_8">
     <g id="line2d_44">
      <path d="M 473.236364 205.92 
L 777.6 205.92 
" clip-path="url(#p5598ffb873)" style="fill: none; stroke: #b0b0b0; stroke-width: 0.8; stroke-linecap: square"/>
     </g>
     <g id="line2d_45">
      <g>
       <use xlink:href="#mae1dd1c4c5" x="473.236364" y="205.92" style="stroke: #000000; stroke-width: 0.8"/>
      </g>
     </g>
     <g id="text_26">
      <!-- −80 -->
      <g transform="translate(445.131676 209.719219) scale(0.1 -0.1)">
       <use xlink:href="#DejaVuSans-2212"/>
       <use xlink:href="#DejaVuSans-38" x="83.789062"/>
       <use xlink:href="#DejaVuSans-30" x="147.412109"/>
      </g>
     </g>
    </g>
    <g id="ytick_9">
     <g id="line2d_46">
      <path d="M 473.236364 165.6 
L 777.6 165.6 
" clip-path="url(#p5598ffb873)" style="fill: none; stroke: #b0b0b0; stroke-width: 0.8; stroke-linecap: square"/>
     </g>
     <g id="line2d_47">
      <g>
       <use xlink:href="#mae1dd1c4c5" x="473.236364" y="165.6" style="stroke: #000000; stroke-width: 0.8"/>
      </g>
     </g>
     <g id="text_27">
      <!-- −60 -->
      <g transform="translate(445.131676 169.399219) scale(0.1 -0.1)">
       <use xlink:href="#DejaVuSans-2212"/>
       <use xlink:href="#DejaVuSans-36" x="83.789062"/>
       <use xlink:href="#DejaVuSans-30" x="147.412109"/>
      </g>
     </g>
    </g>
    <g id="ytick_10">
     <g id="line2d_48">
      <path d="M 473.236364 125.28 
L 777.6 125.28 
" clip-path="url(#p5598ffb873)" style="fill: none; stroke: #b0b0b0; stroke-width: 0.8; stroke-linecap: square"/>
     </g>
     <g id="line2d_49">
      <g>
       <use xlink:href="#mae1dd1c4c5" x="473.236364" y="125.28" style="stroke: #000000; stroke-width: 0.8"/>
      </g>
     </g>
     <g id="text_28">
      <!-- −40 -->
      <g transform="translate(445.131676 129.079219) scale(0.1 -0.1)">
       <use xlink:href="#DejaVuSans-2212"/>
       <use xlink:href="#DejaVuSans-34" x="83.789062"/>
       <use xlink:href="#DejaVuSans-30" x="147.412109"/>
      </g>
     </g>
    </g>
    <g id="ytick_11">
     <g id="line2d_50">
      <path d="M 473.236364 84.96 
L 777.6 84.96 
" clip-path="url(#p5598ffb873)" style="fill: none; stroke: #b0b0b0; stroke-width: 0.8; stroke-linecap: square"/>
     </g>
     <g id="line2d_51">
      <g>
       <use xlink:href="#mae1dd1c4c5" x="473.236364" y="84.96" style="stroke: #000000; stroke-width: 0.8"/>
      </g>
     </g>
     <g id="text_29">
      <!-- −20 -->
      <g transform="translate(445.131676 88.759219) scale(0.1 -0.1)">
       <use xlink:href="#DejaVuSans-2212"/>
       <use xlink:href="#DejaVuSans-32" x="83.789062"/>
       <use xlink:href="#DejaVuSans-30" x="147.412109"/>
      </g>
     </g>
    </g>
    <g id="ytick_12">
     <g id="line2d_52">
      <path d="M 473.236364 44.64 
L 777.6 44.64 
" clip-path="url(#p5598ffb873)" style="fill: none; stroke: #b0b0b0; stroke-width: 0.8; stroke-linecap: square"/>
     </g>
     <g id="line2d_53">
      <g>
       <use xlink:href="#mae1dd1c4c5" x="473.236364" y="44.64" style="stroke: #000000; stroke-width: 0.8"/>
      </g>
     </g>
     <g id="text_30">
      <!-- 0 -->
      <g transform="translate(459.873864 48.439219) scale(0.1 -0.1)">
       <use xlink:href="#DejaVuSans-30"/>
      </g>
     </g>
    </g>
    <g id="text_31">
     <!-- Amplitude -->
     <g transform="translate(432.689489 171.062656) rotate(-90) scale(0.1 -0.1)">
      <use xlink:href="#DejaVuSans-41"/>
      <use xlink:href="#DejaVuSans-6d" x="68.408203"/>
      <use xlink:href="#DejaVuSans-70" x="165.820312"/>
      <use xlink:href="#DejaVuSans-6c" x="229.296875"/>
      <use xlink:href="#DejaVuSans-69" x="257.080078"/>
      <use xlink:href="#DejaVuSans-74" x="284.863281"/>
      <use xlink:href="#DejaVuSans-75" x="324.072266"/>
      <use xlink:href="#DejaVuSans-64" x="387.451172"/>
      <use xlink:href="#DejaVuSans-65" x="450.927734"/>
     </g>
    </g>
   </g>
   <g id="line2d_54">
    <path d="M 487.071074 105.879245 
L 487.561667 47.34143 
L 488.05226 46.486788 
L 488.542852 44.64 
L 489.033445 44.64 
L 489.524037 49.788718 
L 490.01463 50.493742 
L 490.505222 52.575145 
L 490.995815 53.064743 
L 491.486408 54.074791 
L 491.977 54.465326 
L 492.467593 55.748752 
L 492.958185 56.098711 
L 493.448778 56.689378 
L 493.93937 56.689378 
L 494.429963 57.803931 
L 494.920556 57.803931 
L 495.411148 59.685307 
L 495.901741 59.685307 
L 496.392333 60.96796 
L 496.882926 60.96796 
L 497.373519 62.632362 
L 497.864111 62.632362 
L 498.354704 64.724559 
L 498.845296 64.724559 
L 499.335889 66.23027 
L 499.826481 66.23027 
L 500.317074 68.313458 
L 500.807667 68.313458 
L 501.298259 70.365566 
L 501.788852 70.365566 
L 502.279444 72.140246 
L 502.770037 72.161295 
L 503.26063 74.043664 
L 503.751222 75.213136 
L 504.241815 75.213136 
L 504.732407 76.36659 
L 505.713592 76.259802 
L 506.204185 77.263298 
L 506.694778 77.263298 
L 507.18537 76.46762 
L 507.675963 76.46762 
L 508.166555 77.129259 
L 509.638333 77.138918 
L 510.128926 77.66207 
L 510.619518 77.66207 
L 511.110111 78.194609 
L 511.600703 78.194609 
L 512.091296 78.851905 
L 512.581889 78.851905 
L 513.072481 80.454812 
L 513.563074 80.454812 
L 514.544259 80.710732 
L 515.034851 81.649389 
L 515.525444 81.649389 
L 516.016037 82.950491 
L 516.506629 82.950491 
L 516.997222 84.720582 
L 517.487814 84.720582 
L 517.978407 86.26964 
L 518.959592 86.357972 
L 519.450185 87.055883 
L 519.940777 87.055883 
L 520.43137 88.011251 
L 520.921962 88.011251 
L 521.412555 88.905912 
L 521.903148 88.933334 
L 522.39374 91.592707 
L 522.884333 91.592707 
L 523.374925 92.032473 
L 523.865518 88.875277 
L 524.846703 88.961453 
L 525.337296 88.680341 
L 525.827888 88.680341 
L 526.318481 89.302454 
L 526.809073 90.625826 
L 527.299666 90.652476 
L 527.790258 90.164149 
L 528.280851 89.322485 
L 528.771444 89.322485 
L 529.262036 90.043992 
L 529.752629 89.839808 
L 530.243221 89.839808 
L 530.733814 88.361879 
L 531.714999 88.410644 
L 532.696184 93.149078 
L 533.186777 88.737108 
L 533.677369 88.737108 
L 534.167962 90.874446 
L 535.149147 93.735698 
L 535.63974 93.735698 
L 536.130332 95.239105 
L 536.620925 95.239105 
L 537.111517 98.220723 
L 537.60211 96.81809 
L 538.092703 96.81809 
L 538.583295 97.60104 
L 539.073888 99.354987 
L 539.56448 99.354987 
L 540.055073 102.105106 
L 540.545666 102.30308 
L 541.036258 101.749678 
L 541.526851 100.772203 
L 542.017443 97.933249 
L 542.998628 97.94199 
L 543.489221 98.288596 
L 543.979814 96.832446 
L 544.470406 96.832446 
L 544.960999 100.546271 
L 545.451591 99.160572 
L 545.942184 97.258191 
L 546.432777 97.258191 
L 547.413962 99.340775 
L 547.904554 98.781539 
L 548.395147 98.781539 
L 548.885739 99.282861 
L 550.357517 99.383447 
L 550.84811 100.07949 
L 551.338702 103.911428 
L 551.829295 100.754226 
L 552.319887 100.754226 
L 552.81048 105.020144 
L 553.301073 101.835472 
L 553.791665 101.835472 
L 554.282258 101.979402 
L 554.77285 103.357742 
L 555.754036 103.392025 
L 556.244628 101.037571 
L 556.735221 101.037571 
L 557.225813 107.036213 
L 557.716406 107.036213 
L 558.206998 105.772943 
L 558.697591 105.772943 
L 559.188184 104.6267 
L 559.678776 104.6267 
L 560.169369 106.733856 
L 560.659961 106.733856 
L 561.150554 105.648601 
L 561.641146 105.648601 
L 562.131739 106.341022 
L 562.622332 107.342012 
L 563.112924 107.342012 
L 563.603517 106.951903 
L 564.094109 106.951903 
L 564.584702 101.665655 
L 565.075295 101.665655 
L 565.565887 103.135784 
L 566.05648 106.715807 
L 566.547072 103.856184 
L 567.037665 103.856184 
L 567.528257 104.636309 
L 568.01885 105.72685 
L 568.509443 105.72685 
L 569.000035 108.125836 
L 569.490628 104.678009 
L 569.98122 104.678009 
L 570.962405 103.971472 
L 571.452998 103.971472 
L 571.943591 108.016686 
L 572.434183 108.016686 
L 572.924776 110.050034 
L 573.415368 107.554563 
L 573.905961 107.554563 
L 574.396554 105.667281 
L 574.887146 105.667281 
L 575.377739 107.943005 
L 576.358924 100.372121 
L 576.849516 100.372121 
L 577.340109 111.188301 
L 577.830702 102.847042 
L 578.321294 102.847042 
L 578.811887 105.384137 
L 579.302479 105.384137 
L 579.793072 108.712332 
L 580.283664 109.476845 
L 580.774257 98.55709 
L 581.26485 98.55709 
L 581.755442 98.757476 
L 582.246035 104.027082 
L 582.736627 107.437623 
L 583.22722 105.626551 
L 583.717813 102.242894 
L 584.208405 102.242894 
L 584.698998 104.806943 
L 585.18959 106.481073 
L 585.680183 106.481073 
L 586.661368 111.382672 
L 587.151961 111.382672 
L 587.642553 108.439505 
L 588.623738 108.447469 
L 589.114331 106.997673 
L 589.604924 104.837704 
L 590.095516 104.837704 
L 590.586109 109.723569 
L 591.076701 108.059485 
L 591.567294 108.059485 
L 592.057886 110.023866 
L 592.548479 110.023866 
L 593.039072 111.134819 
L 593.529664 104.910778 
L 594.020257 104.910778 
L 594.510849 107.198641 
L 595.001442 108.89116 
L 595.492034 111.244283 
L 595.982627 111.583988 
L 596.47322 112.563729 
L 596.963812 107.2525 
L 597.454405 107.2525 
L 597.944997 108.265208 
L 598.43559 105.863774 
L 598.926183 105.863774 
L 599.416775 107.638029 
L 599.907368 101.797289 
L 600.39796 101.797289 
L 600.888553 109.982513 
L 601.869738 103.027312 
L 602.360331 103.027312 
L 602.850923 107.261803 
L 603.341516 106.034713 
L 603.832108 106.034713 
L 604.322701 108.206183 
L 604.813293 104.987426 
L 605.303886 104.987426 
L 605.794479 105.355739 
L 606.285071 105.355739 
L 606.775664 106.305742 
L 607.756849 106.281089 
L 608.247442 106.906252 
L 608.738034 106.097289 
L 609.228627 106.097289 
L 609.719219 108.553335 
L 610.209812 108.973053 
L 610.700404 111.206942 
L 611.190997 107.541321 
L 611.68159 107.541321 
L 612.172182 108.809648 
L 612.662775 108.809648 
L 613.153367 112.081706 
L 613.64396 107.979807 
L 614.134552 106.465061 
L 614.625145 106.465061 
L 615.115738 109.61041 
L 615.60633 109.61041 
L 616.096923 112.013218 
L 616.587515 100.550076 
L 617.078108 100.550076 
L 617.568701 105.533566 
L 618.059293 102.966045 
L 618.549886 102.966045 
L 619.040478 108.815749 
L 619.531071 105.466249 
L 620.021663 94.935467 
L 620.512256 94.935467 
L 621.002849 99.995718 
L 621.493441 99.311203 
L 621.984034 99.311203 
L 622.474626 100.843005 
L 622.965219 100.843005 
L 623.455811 106.497099 
L 623.946404 108.159106 
L 624.436997 106.7682 
L 624.927589 106.7682 
L 625.418182 109.43887 
L 625.908774 110.699149 
L 626.399367 102.400093 
L 626.88996 102.400093 
L 627.380552 106.064235 
L 627.871145 107.742924 
L 628.361737 105.569011 
L 628.85233 105.569011 
L 629.342922 107.185665 
L 629.833515 107.185665 
L 630.324108 105.057845 
L 630.8147 105.057845 
L 631.795885 112.799593 
L 632.286478 107.973991 
L 632.777071 107.973991 
L 633.267663 109.760021 
L 633.758256 110.536844 
L 634.248848 109.369462 
L 634.739441 109.369462 
L 635.230033 105.655392 
L 635.720626 105.655392 
L 636.211219 107.948811 
L 636.701811 108.999751 
L 637.192404 108.999751 
L 637.682996 113.808593 
L 638.173589 113.808593 
L 638.664181 110.796803 
L 639.154774 110.796803 
L 639.645367 102.534547 
L 640.135959 100.977674 
L 640.626552 100.977674 
L 641.117144 104.852295 
L 641.607737 110.163883 
L 642.09833 109.310785 
L 642.588922 109.310785 
L 643.079515 110.095922 
L 643.570107 106.394074 
L 644.0607 106.394074 
L 644.551292 111.58637 
L 645.041885 108.178706 
L 645.532478 106.83709 
L 646.02307 106.83709 
L 646.513663 107.6761 
L 647.004255 102.910797 
L 647.494848 102.910797 
L 648.476033 110.952353 
L 648.966626 116.195582 
L 649.457218 112.189873 
L 649.947811 112.189873 
L 650.438403 107.460196 
L 650.928996 107.460196 
L 651.419589 110.64488 
L 651.910181 110.155099 
L 652.400774 106.873457 
L 652.891366 106.873457 
L 653.381959 100.558958 
L 653.872551 100.558958 
L 654.363144 103.552407 
L 654.853737 108.913643 
L 655.344329 107.821529 
L 655.834922 107.821529 
L 656.325514 106.940936 
L 656.816107 106.940936 
L 657.306699 106.826194 
L 657.797292 106.826194 
L 658.287885 103.943734 
L 658.778477 103.943734 
L 659.26907 107.24878 
L 659.759662 111.847998 
L 660.250255 111.847998 
L 660.740848 107.596246 
L 661.23144 107.596246 
L 661.722033 114.439208 
L 662.212625 110.933981 
L 662.703218 106.179323 
L 663.19381 106.179323 
L 663.684403 107.148645 
L 664.174996 107.148645 
L 664.665588 106.33396 
L 665.156181 106.33396 
L 665.646773 108.728514 
L 666.137366 108.728514 
L 666.627959 111.903707 
L 667.118551 112.373311 
L 667.609144 104.949875 
L 668.099736 104.949875 
L 668.590329 105.783202 
L 669.080921 111.352085 
L 669.571514 108.746737 
L 670.062107 103.54187 
L 670.552699 101.392002 
L 671.043292 99.998176 
L 671.533884 99.998176 
L 672.024477 103.934497 
L 672.515069 103.934497 
L 673.005662 106.425982 
L 673.496255 104.257572 
L 673.986847 104.257572 
L 674.47744 106.568506 
L 674.968032 106.568506 
L 675.458625 107.647539 
L 675.949218 103.807224 
L 676.43981 103.807224 
L 676.930403 102.226134 
L 677.420995 102.226134 
L 677.911588 103.885319 
L 678.40218 104.10772 
L 678.892773 104.10772 
L 679.383366 106.388761 
L 679.873958 107.091417 
L 680.364551 109.704302 
L 680.855143 109.751437 
L 681.345736 107.638029 
L 681.836328 103.562951 
L 682.326921 103.562951 
L 682.817514 106.520275 
L 683.308106 104.992329 
L 683.798699 104.992329 
L 684.289291 104.157528 
L 684.779884 104.157528 
L 685.270477 108.639699 
L 685.761069 106.532766 
L 686.251662 106.532766 
L 687.232847 109.233549 
L 687.723439 110.067501 
L 688.214032 111.272342 
L 688.704625 106.520275 
L 689.195217 106.520275 
L 689.68581 106.06945 
L 690.176402 104.9238 
L 690.666995 104.9238 
L 691.157587 106.459727 
L 691.64818 111.39445 
L 692.138773 104.310953 
L 692.629365 104.310953 
L 693.119958 105.893009 
L 693.61055 104.562774 
L 694.101143 104.562774 
L 695.082328 109.760021 
L 695.572921 109.599773 
L 696.063513 107.79273 
L 696.554106 107.533758 
L 697.044698 107.533758 
L 697.535291 114.161033 
L 698.025884 110.336056 
L 698.516476 108.917734 
L 699.007069 108.151272 
L 699.497661 105.786623 
L 699.988254 105.786623 
L 700.478846 107.050917 
L 700.969439 110.15949 
L 701.460032 107.603836 
L 701.950624 107.603836 
L 702.441217 109.369462 
L 702.931809 107.342012 
L 703.422402 107.342012 
L 703.912995 109.531844 
L 704.403587 109.531844 
L 704.89418 116.115172 
L 705.875365 109.967302 
L 706.365957 109.340099 
L 706.85655 109.340099 
L 707.347143 105.191271 
L 707.837735 105.191271 
L 708.328328 107.193079 
L 708.81892 107.370079 
L 709.309513 104.314099 
L 709.800106 104.314099 
L 710.290698 104.033272 
L 710.781291 103.511798 
L 711.271883 103.511798 
L 711.762476 105.349064 
L 712.253068 105.349064 
L 712.743661 109.06977 
L 713.234254 105.342391 
L 713.724846 95.791937 
L 714.215439 95.791937 
L 714.706031 99.797744 
L 715.196624 99.797744 
L 715.687216 112.042537 
L 716.177809 108.405699 
L 716.668402 107.993385 
L 717.158994 96.983904 
L 717.649587 96.983904 
L 718.140179 100.863656 
L 718.630772 101.268653 
L 719.121365 101.268653 
L 719.611957 98.656996 
L 720.10255 98.656996 
L 720.593142 103.502787 
L 721.083735 103.502787 
L 721.574327 121.096224 
L 722.06492 246.24 
L 763.765289 246.24 
L 763.765289 246.24 
" clip-path="url(#p5598ffb873)" style="fill: none; stroke: #ffa500; stroke-width: 1.5; stroke-linecap: square"/>
   </g>
   <g id="patch_8">
    <path d="M 473.236364 256.32 
L 473.236364 34.56 
" style="fill: none; stroke: #000000; stroke-width: 0.8; stroke-linejoin: miter; stroke-linecap: square"/>
   </g>
   <g id="patch_9">
    <path d="M 777.6 256.32 
L 777.6 34.56 
" style="fill: none; stroke: #000000; stroke-width: 0.8; stroke-linejoin: miter; stroke-linecap: square"/>
   </g>
   <g id="patch_10">
    <path d="M 473.236364 256.32 
L 777.6 256.32 
" style="fill: none; stroke: #000000; stroke-width: 0.8; stroke-linejoin: miter; stroke-linecap: square"/>
   </g>
   <g id="patch_11">
    <path d="M 473.236364 34.56 
L 777.6 34.56 
" style="fill: none; stroke: #000000; stroke-width: 0.8; stroke-linejoin: miter; stroke-linecap: square"/>
   </g>
   <g id="text_32">
    <!-- Side Channel Time Peak Envelope -->
    <g transform="translate(523.581307 28.56) scale(0.12 -0.12)">
     <defs>
      <path id="DejaVuSans-53" d="M 3425 4513 
L 3425 3897 
Q 3066 4069 2747 4153 
Q 2428 4238 2131 4238 
Q 1616 4238 1336 4038 
Q 1056 3838 1056 3469 
Q 1056 3159 1242 3001 
Q 1428 2844 1947 2747 
L 2328 2669 
Q 3034 2534 3370 2195 
Q 3706 1856 3706 1288 
Q 3706 609 3251 259 
Q 2797 -91 1919 -91 
Q 1588 -91 1214 -16 
Q 841 59 441 206 
L 441 856 
Q 825 641 1194 531 
Q 1563 422 1919 422 
Q 2459 422 2753 634 
Q 3047 847 3047 1241 
Q 3047 1584 2836 1778 
Q 2625 1972 2144 2069 
L 1759 2144 
Q 1053 2284 737 2584 
Q 422 2884 422 3419 
Q 422 4038 858 4394 
Q 1294 4750 2059 4750 
Q 2388 4750 2728 4690 
Q 3069 4631 3425 4513 
z
" transform="scale(0.015625)"/>
     </defs>
     <use xlink:href="#DejaVuSans-53"/>
     <use xlink:href="#DejaVuSans-69" x="63.476562"/>
     <use xlink:href="#DejaVuSans-64" x="91.259766"/>
     <use xlink:href="#DejaVuSans-65" x="154.736328"/>
     <use xlink:href="#DejaVuSans-20" x="216.259766"/>
     <use xlink:href="#DejaVuSans-43" x="248.046875"/>
     <use xlink:href="#DejaVuSans-68" x="317.871094"/>
     <use xlink:href="#DejaVuSans-61" x="381.25"/>
     <use xlink:href="#DejaVuSans-6e" x="442.529297"/>
     <use xlink:href="#DejaVuSans-6e" x="505.908203"/>
     <use xlink:href="#DejaVuSans-65" x="569.287109"/>
     <use xlink:href="#DejaVuSans-6c" x="630.810547"/>
     <use xlink:href="#DejaVuSans-20" x="658.59375"/>
     <use xlink:href="#DejaVuSans-54" x="690.380859"/>
     <use xlink:href="#DejaVuSans-69" x="748.339844"/>
     <use xlink:href="#DejaVuSans-6d" x="776.123047"/>
     <use xlink:href="#DejaVuSans-65" x="873.535156"/>
     <use xlink:href="#DejaVuSans-20" x="935.058594"/>
     <use xlink:href="#DejaVuSans-50" x="966.845703"/>
     <use xlink:href="#DejaVuSans-65" x="1023.523438"/>
     <use xlink:href="#DejaVuSans-61" x="1085.046875"/>
     <use xlink:href="#DejaVuSans-6b" x="1146.326172"/>
     <use xlink:href="#DejaVuSans-20" x="1204.236328"/>
     <use xlink:href="#DejaVuSans-45" x="1236.023438"/>
     <use xlink:href="#DejaVuSans-6e" x="1299.207031"/>
     <use xlink:href="#DejaVuSans-76" x="1362.585938"/>
     <use xlink:href="#DejaVuSans-65" x="1421.765625"/>
     <use xlink:href="#DejaVuSans-6c" x="1483.289062"/>
     <use xlink:href="#DejaVuSans-6f" x="1511.072266"/>
     <use xlink:href="#DejaVuSans-70" x="1572.253906"/>
     <use xlink:href="#DejaVuSans-65" x="1635.730469"/>
    </g>
   </g>
  </g>
 </g>
 <defs>
  <clipPath id="p28efe0f026">
   <rect x="108" y="34.56" width="304.363636" height="221.76"/>
  </clipPath>
  <clipPath id="p5598ffb873">
   <rect x="473.236364" y="34.56" width="304.363636" height="221.76"/>
  </clipPath>
 </defs>
</svg>
