<?xml version="1.0" encoding="utf-8" standalone="no"?>
<!DOCTYPE svg PUBLIC "-//W3C//DTD SVG 1.1//EN"
  "http://www.w3.org/Graphics/SVG/1.1/DTD/svg11.dtd">
<svg xmlns:xlink="http://www.w3.org/1999/xlink" width="864pt" height="288pt" viewBox="0 0 864 288" xmlns="http://www.w3.org/2000/svg" version="1.1">
 <metadata>
  <rdf:RDF xmlns:dc="http://purl.org/dc/elements/1.1/" xmlns:cc="http://creativecommons.org/ns#" xmlns:rdf="http://www.w3.org/1999/02/22-rdf-syntax-ns#">
   <cc:Work>
    <dc:type rdf:resource="http://purl.org/dc/dcmitype/StillImage"/>
    <dc:date>2024-06-21T12:36:33.686534</dc:date>
    <dc:format>image/svg+xml</dc:format>
    <dc:creator>
     <cc:Agent>
      <dc:title>Matplotlib v3.8.0, https://matplotlib.org/</dc:title>
     </cc:Agent>
    </dc:creator>
   </cc:Work>
  </rdf:RDF>
 </metadata>
 <defs>
  <style type="text/css">*{stroke-linejoin: round; stroke-linecap: butt}</style>
 </defs>
 <g id="figure_1">
  <g id="patch_1">
   <path d="M 0 288 
L 864 288 
L 864 0 
L 0 0 
z
" style="fill: #ffffff"/>
  </g>
  <g id="axes_1">
   <g id="patch_2">
    <path d="M 108 256.32 
L 412.363636 256.32 
L 412.363636 34.56 
L 108 34.56 
z
" style="fill: #ffffff"/>
   </g>
   <g id="matplotlib.axis_1">
    <g id="xtick_1">
     <g id="line2d_1">
      <path d="M 121.344118 256.32 
L 121.344118 34.56 
" clip-path="url(#p9d114771f6)" style="fill: none; stroke: #b0b0b0; stroke-width: 0.8; stroke-linecap: square"/>
     </g>
     <g id="line2d_2">
      <defs>
       <path id="m48411a09f2" d="M 0 0 
L 0 3.5 
" style="stroke: #000000; stroke-width: 0.8"/>
      </defs>
      <g>
       <use xlink:href="#m48411a09f2" x="121.344118" y="256.32" style="stroke: #000000; stroke-width: 0.8"/>
      </g>
     </g>
     <g id="text_1">
      <!-- 0 -->
      <g transform="translate(118.162868 270.918437) scale(0.1 -0.1)">
       <defs>
        <path id="DejaVuSans-30" d="M 2034 4250 
Q 1547 4250 1301 3770 
Q 1056 3291 1056 2328 
Q 1056 1369 1301 889 
Q 1547 409 2034 409 
Q 2525 409 2770 889 
Q 3016 1369 3016 2328 
Q 3016 3291 2770 3770 
Q 2525 4250 2034 4250 
z
M 2034 4750 
Q 2819 4750 3233 4129 
Q 3647 3509 3647 2328 
Q 3647 1150 3233 529 
Q 2819 -91 2034 -91 
Q 1250 -91 836 529 
Q 422 1150 422 2328 
Q 422 3509 836 4129 
Q 1250 4750 2034 4750 
z
" transform="scale(0.015625)"/>
       </defs>
       <use xlink:href="#DejaVuSans-30"/>
      </g>
     </g>
    </g>
    <g id="xtick_2">
     <g id="line2d_3">
      <path d="M 167.337172 256.32 
L 167.337172 34.56 
" clip-path="url(#p9d114771f6)" style="fill: none; stroke: #b0b0b0; stroke-width: 0.8; stroke-linecap: square"/>
     </g>
     <g id="line2d_4">
      <g>
       <use xlink:href="#m48411a09f2" x="167.337172" y="256.32" style="stroke: #000000; stroke-width: 0.8"/>
      </g>
     </g>
     <g id="text_2">
      <!-- 2 -->
      <g transform="translate(164.155922 270.918437) scale(0.1 -0.1)">
       <defs>
        <path id="DejaVuSans-32" d="M 1228 531 
L 3431 531 
L 3431 0 
L 469 0 
L 469 531 
Q 828 903 1448 1529 
Q 2069 2156 2228 2338 
Q 2531 2678 2651 2914 
Q 2772 3150 2772 3378 
Q 2772 3750 2511 3984 
Q 2250 4219 1831 4219 
Q 1534 4219 1204 4116 
Q 875 4013 500 3803 
L 500 4441 
Q 881 4594 1212 4672 
Q 1544 4750 1819 4750 
Q 2544 4750 2975 4387 
Q 3406 4025 3406 3419 
Q 3406 3131 3298 2873 
Q 3191 2616 2906 2266 
Q 2828 2175 2409 1742 
Q 1991 1309 1228 531 
z
" transform="scale(0.015625)"/>
       </defs>
       <use xlink:href="#DejaVuSans-32"/>
      </g>
     </g>
    </g>
    <g id="xtick_3">
     <g id="line2d_5">
      <path d="M 213.330227 256.32 
L 213.330227 34.56 
" clip-path="url(#p9d114771f6)" style="fill: none; stroke: #b0b0b0; stroke-width: 0.8; stroke-linecap: square"/>
     </g>
     <g id="line2d_6">
      <g>
       <use xlink:href="#m48411a09f2" x="213.330227" y="256.32" style="stroke: #000000; stroke-width: 0.8"/>
      </g>
     </g>
     <g id="text_3">
      <!-- 4 -->
      <g transform="translate(210.148977 270.918437) scale(0.1 -0.1)">
       <defs>
        <path id="DejaVuSans-34" d="M 2419 4116 
L 825 1625 
L 2419 1625 
L 2419 4116 
z
M 2253 4666 
L 3047 4666 
L 3047 1625 
L 3713 1625 
L 3713 1100 
L 3047 1100 
L 3047 0 
L 2419 0 
L 2419 1100 
L 313 1100 
L 313 1709 
L 2253 4666 
z
" transform="scale(0.015625)"/>
       </defs>
       <use xlink:href="#DejaVuSans-34"/>
      </g>
     </g>
    </g>
    <g id="xtick_4">
     <g id="line2d_7">
      <path d="M 259.323281 256.32 
L 259.323281 34.56 
" clip-path="url(#p9d114771f6)" style="fill: none; stroke: #b0b0b0; stroke-width: 0.8; stroke-linecap: square"/>
     </g>
     <g id="line2d_8">
      <g>
       <use xlink:href="#m48411a09f2" x="259.323281" y="256.32" style="stroke: #000000; stroke-width: 0.8"/>
      </g>
     </g>
     <g id="text_4">
      <!-- 6 -->
      <g transform="translate(256.142031 270.918437) scale(0.1 -0.1)">
       <defs>
        <path id="DejaVuSans-36" d="M 2113 2584 
Q 1688 2584 1439 2293 
Q 1191 2003 1191 1497 
Q 1191 994 1439 701 
Q 1688 409 2113 409 
Q 2538 409 2786 701 
Q 3034 994 3034 1497 
Q 3034 2003 2786 2293 
Q 2538 2584 2113 2584 
z
M 3366 4563 
L 3366 3988 
Q 3128 4100 2886 4159 
Q 2644 4219 2406 4219 
Q 1781 4219 1451 3797 
Q 1122 3375 1075 2522 
Q 1259 2794 1537 2939 
Q 1816 3084 2150 3084 
Q 2853 3084 3261 2657 
Q 3669 2231 3669 1497 
Q 3669 778 3244 343 
Q 2819 -91 2113 -91 
Q 1303 -91 875 529 
Q 447 1150 447 2328 
Q 447 3434 972 4092 
Q 1497 4750 2381 4750 
Q 2619 4750 2861 4703 
Q 3103 4656 3366 4563 
z
" transform="scale(0.015625)"/>
       </defs>
       <use xlink:href="#DejaVuSans-36"/>
      </g>
     </g>
    </g>
    <g id="xtick_5">
     <g id="line2d_9">
      <path d="M 305.316336 256.32 
L 305.316336 34.56 
" clip-path="url(#p9d114771f6)" style="fill: none; stroke: #b0b0b0; stroke-width: 0.8; stroke-linecap: square"/>
     </g>
     <g id="line2d_10">
      <g>
       <use xlink:href="#m48411a09f2" x="305.316336" y="256.32" style="stroke: #000000; stroke-width: 0.8"/>
      </g>
     </g>
     <g id="text_5">
      <!-- 8 -->
      <g transform="translate(302.135086 270.918437) scale(0.1 -0.1)">
       <defs>
        <path id="DejaVuSans-38" d="M 2034 2216 
Q 1584 2216 1326 1975 
Q 1069 1734 1069 1313 
Q 1069 891 1326 650 
Q 1584 409 2034 409 
Q 2484 409 2743 651 
Q 3003 894 3003 1313 
Q 3003 1734 2745 1975 
Q 2488 2216 2034 2216 
z
M 1403 2484 
Q 997 2584 770 2862 
Q 544 3141 544 3541 
Q 544 4100 942 4425 
Q 1341 4750 2034 4750 
Q 2731 4750 3128 4425 
Q 3525 4100 3525 3541 
Q 3525 3141 3298 2862 
Q 3072 2584 2669 2484 
Q 3125 2378 3379 2068 
Q 3634 1759 3634 1313 
Q 3634 634 3220 271 
Q 2806 -91 2034 -91 
Q 1263 -91 848 271 
Q 434 634 434 1313 
Q 434 1759 690 2068 
Q 947 2378 1403 2484 
z
M 1172 3481 
Q 1172 3119 1398 2916 
Q 1625 2713 2034 2713 
Q 2441 2713 2670 2916 
Q 2900 3119 2900 3481 
Q 2900 3844 2670 4047 
Q 2441 4250 2034 4250 
Q 1625 4250 1398 4047 
Q 1172 3844 1172 3481 
z
" transform="scale(0.015625)"/>
       </defs>
       <use xlink:href="#DejaVuSans-38"/>
      </g>
     </g>
    </g>
    <g id="xtick_6">
     <g id="line2d_11">
      <path d="M 351.30939 256.32 
L 351.30939 34.56 
" clip-path="url(#p9d114771f6)" style="fill: none; stroke: #b0b0b0; stroke-width: 0.8; stroke-linecap: square"/>
     </g>
     <g id="line2d_12">
      <g>
       <use xlink:href="#m48411a09f2" x="351.30939" y="256.32" style="stroke: #000000; stroke-width: 0.8"/>
      </g>
     </g>
     <g id="text_6">
      <!-- 10 -->
      <g transform="translate(344.94689 270.918437) scale(0.1 -0.1)">
       <defs>
        <path id="DejaVuSans-31" d="M 794 531 
L 1825 531 
L 1825 4091 
L 703 3866 
L 703 4441 
L 1819 4666 
L 2450 4666 
L 2450 531 
L 3481 531 
L 3481 0 
L 794 0 
L 794 531 
z
" transform="scale(0.015625)"/>
       </defs>
       <use xlink:href="#DejaVuSans-31"/>
       <use xlink:href="#DejaVuSans-30" x="63.623047"/>
      </g>
     </g>
    </g>
    <g id="xtick_7">
     <g id="line2d_13">
      <path d="M 397.302444 256.32 
L 397.302444 34.56 
" clip-path="url(#p9d114771f6)" style="fill: none; stroke: #b0b0b0; stroke-width: 0.8; stroke-linecap: square"/>
     </g>
     <g id="line2d_14">
      <g>
       <use xlink:href="#m48411a09f2" x="397.302444" y="256.32" style="stroke: #000000; stroke-width: 0.8"/>
      </g>
     </g>
     <g id="text_7">
      <!-- 12 -->
      <g transform="translate(390.939944 270.918437) scale(0.1 -0.1)">
       <use xlink:href="#DejaVuSans-31"/>
       <use xlink:href="#DejaVuSans-32" x="63.623047"/>
      </g>
     </g>
    </g>
    <g id="text_8">
     <!-- Time (s) -->
     <g transform="translate(239.852912 284.596563) scale(0.1 -0.1)">
      <defs>
       <path id="DejaVuSans-54" d="M -19 4666 
L 3928 4666 
L 3928 4134 
L 2272 4134 
L 2272 0 
L 1638 0 
L 1638 4134 
L -19 4134 
L -19 4666 
z
" transform="scale(0.015625)"/>
       <path id="DejaVuSans-69" d="M 603 3500 
L 1178 3500 
L 1178 0 
L 603 0 
L 603 3500 
z
M 603 4863 
L 1178 4863 
L 1178 4134 
L 603 4134 
L 603 4863 
z
" transform="scale(0.015625)"/>
       <path id="DejaVuSans-6d" d="M 3328 2828 
Q 3544 3216 3844 3400 
Q 4144 3584 4550 3584 
Q 5097 3584 5394 3201 
Q 5691 2819 5691 2113 
L 5691 0 
L 5113 0 
L 5113 2094 
Q 5113 2597 4934 2840 
Q 4756 3084 4391 3084 
Q 3944 3084 3684 2787 
Q 3425 2491 3425 1978 
L 3425 0 
L 2847 0 
L 2847 2094 
Q 2847 2600 2669 2842 
Q 2491 3084 2119 3084 
Q 1678 3084 1418 2786 
Q 1159 2488 1159 1978 
L 1159 0 
L 581 0 
L 581 3500 
L 1159 3500 
L 1159 2956 
Q 1356 3278 1631 3431 
Q 1906 3584 2284 3584 
Q 2666 3584 2933 3390 
Q 3200 3197 3328 2828 
z
" transform="scale(0.015625)"/>
       <path id="DejaVuSans-65" d="M 3597 1894 
L 3597 1613 
L 953 1613 
Q 991 1019 1311 708 
Q 1631 397 2203 397 
Q 2534 397 2845 478 
Q 3156 559 3463 722 
L 3463 178 
Q 3153 47 2828 -22 
Q 2503 -91 2169 -91 
Q 1331 -91 842 396 
Q 353 884 353 1716 
Q 353 2575 817 3079 
Q 1281 3584 2069 3584 
Q 2775 3584 3186 3129 
Q 3597 2675 3597 1894 
z
M 3022 2063 
Q 3016 2534 2758 2815 
Q 2500 3097 2075 3097 
Q 1594 3097 1305 2825 
Q 1016 2553 972 2059 
L 3022 2063 
z
" transform="scale(0.015625)"/>
       <path id="DejaVuSans-20" transform="scale(0.015625)"/>
       <path id="DejaVuSans-28" d="M 1984 4856 
Q 1566 4138 1362 3434 
Q 1159 2731 1159 2009 
Q 1159 1288 1364 580 
Q 1569 -128 1984 -844 
L 1484 -844 
Q 1016 -109 783 600 
Q 550 1309 550 2009 
Q 550 2706 781 3412 
Q 1013 4119 1484 4856 
L 1984 4856 
z
" transform="scale(0.015625)"/>
       <path id="DejaVuSans-73" d="M 2834 3397 
L 2834 2853 
Q 2591 2978 2328 3040 
Q 2066 3103 1784 3103 
Q 1356 3103 1142 2972 
Q 928 2841 928 2578 
Q 928 2378 1081 2264 
Q 1234 2150 1697 2047 
L 1894 2003 
Q 2506 1872 2764 1633 
Q 3022 1394 3022 966 
Q 3022 478 2636 193 
Q 2250 -91 1575 -91 
Q 1294 -91 989 -36 
Q 684 19 347 128 
L 347 722 
Q 666 556 975 473 
Q 1284 391 1588 391 
Q 1994 391 2212 530 
Q 2431 669 2431 922 
Q 2431 1156 2273 1281 
Q 2116 1406 1581 1522 
L 1381 1569 
Q 847 1681 609 1914 
Q 372 2147 372 2553 
Q 372 3047 722 3315 
Q 1072 3584 1716 3584 
Q 2034 3584 2315 3537 
Q 2597 3491 2834 3397 
z
" transform="scale(0.015625)"/>
       <path id="DejaVuSans-29" d="M 513 4856 
L 1013 4856 
Q 1481 4119 1714 3412 
Q 1947 2706 1947 2009 
Q 1947 1309 1714 600 
Q 1481 -109 1013 -844 
L 513 -844 
Q 928 -128 1133 580 
Q 1338 1288 1338 2009 
Q 1338 2731 1133 3434 
Q 928 4138 513 4856 
z
" transform="scale(0.015625)"/>
      </defs>
      <use xlink:href="#DejaVuSans-54"/>
      <use xlink:href="#DejaVuSans-69" x="57.958984"/>
      <use xlink:href="#DejaVuSans-6d" x="85.742188"/>
      <use xlink:href="#DejaVuSans-65" x="183.154297"/>
      <use xlink:href="#DejaVuSans-20" x="244.677734"/>
      <use xlink:href="#DejaVuSans-28" x="276.464844"/>
      <use xlink:href="#DejaVuSans-73" x="315.478516"/>
      <use xlink:href="#DejaVuSans-29" x="367.578125"/>
     </g>
    </g>
   </g>
   <g id="matplotlib.axis_2">
    <g id="ytick_1">
     <g id="line2d_15">
      <path d="M 108 246.24 
L 412.363636 246.24 
" clip-path="url(#p9d114771f6)" style="fill: none; stroke: #b0b0b0; stroke-width: 0.8; stroke-linecap: square"/>
     </g>
     <g id="line2d_16">
      <defs>
       <path id="m530658220a" d="M 0 0 
L -3.5 0 
" style="stroke: #000000; stroke-width: 0.8"/>
      </defs>
      <g>
       <use xlink:href="#m530658220a" x="108" y="246.24" style="stroke: #000000; stroke-width: 0.8"/>
      </g>
     </g>
     <g id="text_9">
      <!-- −100 -->
      <g transform="translate(73.532813 250.039219) scale(0.1 -0.1)">
       <defs>
        <path id="DejaVuSans-2212" d="M 678 2272 
L 4684 2272 
L 4684 1741 
L 678 1741 
L 678 2272 
z
" transform="scale(0.015625)"/>
       </defs>
       <use xlink:href="#DejaVuSans-2212"/>
       <use xlink:href="#DejaVuSans-31" x="83.789062"/>
       <use xlink:href="#DejaVuSans-30" x="147.412109"/>
       <use xlink:href="#DejaVuSans-30" x="211.035156"/>
      </g>
     </g>
    </g>
    <g id="ytick_2">
     <g id="line2d_17">
      <path d="M 108 205.92 
L 412.363636 205.92 
" clip-path="url(#p9d114771f6)" style="fill: none; stroke: #b0b0b0; stroke-width: 0.8; stroke-linecap: square"/>
     </g>
     <g id="line2d_18">
      <g>
       <use xlink:href="#m530658220a" x="108" y="205.92" style="stroke: #000000; stroke-width: 0.8"/>
      </g>
     </g>
     <g id="text_10">
      <!-- −80 -->
      <g transform="translate(79.895313 209.719219) scale(0.1 -0.1)">
       <use xlink:href="#DejaVuSans-2212"/>
       <use xlink:href="#DejaVuSans-38" x="83.789062"/>
       <use xlink:href="#DejaVuSans-30" x="147.412109"/>
      </g>
     </g>
    </g>
    <g id="ytick_3">
     <g id="line2d_19">
      <path d="M 108 165.6 
L 412.363636 165.6 
" clip-path="url(#p9d114771f6)" style="fill: none; stroke: #b0b0b0; stroke-width: 0.8; stroke-linecap: square"/>
     </g>
     <g id="line2d_20">
      <g>
       <use xlink:href="#m530658220a" x="108" y="165.6" style="stroke: #000000; stroke-width: 0.8"/>
      </g>
     </g>
     <g id="text_11">
      <!-- −60 -->
      <g transform="translate(79.895313 169.399219) scale(0.1 -0.1)">
       <use xlink:href="#DejaVuSans-2212"/>
       <use xlink:href="#DejaVuSans-36" x="83.789062"/>
       <use xlink:href="#DejaVuSans-30" x="147.412109"/>
      </g>
     </g>
    </g>
    <g id="ytick_4">
     <g id="line2d_21">
      <path d="M 108 125.28 
L 412.363636 125.28 
" clip-path="url(#p9d114771f6)" style="fill: none; stroke: #b0b0b0; stroke-width: 0.8; stroke-linecap: square"/>
     </g>
     <g id="line2d_22">
      <g>
       <use xlink:href="#m530658220a" x="108" y="125.28" style="stroke: #000000; stroke-width: 0.8"/>
      </g>
     </g>
     <g id="text_12">
      <!-- −40 -->
      <g transform="translate(79.895313 129.079219) scale(0.1 -0.1)">
       <use xlink:href="#DejaVuSans-2212"/>
       <use xlink:href="#DejaVuSans-34" x="83.789062"/>
       <use xlink:href="#DejaVuSans-30" x="147.412109"/>
      </g>
     </g>
    </g>
    <g id="ytick_5">
     <g id="line2d_23">
      <path d="M 108 84.96 
L 412.363636 84.96 
" clip-path="url(#p9d114771f6)" style="fill: none; stroke: #b0b0b0; stroke-width: 0.8; stroke-linecap: square"/>
     </g>
     <g id="line2d_24">
      <g>
       <use xlink:href="#m530658220a" x="108" y="84.96" style="stroke: #000000; stroke-width: 0.8"/>
      </g>
     </g>
     <g id="text_13">
      <!-- −20 -->
      <g transform="translate(79.895313 88.759219) scale(0.1 -0.1)">
       <use xlink:href="#DejaVuSans-2212"/>
       <use xlink:href="#DejaVuSans-32" x="83.789062"/>
       <use xlink:href="#DejaVuSans-30" x="147.412109"/>
      </g>
     </g>
    </g>
    <g id="ytick_6">
     <g id="line2d_25">
      <path d="M 108 44.64 
L 412.363636 44.64 
" clip-path="url(#p9d114771f6)" style="fill: none; stroke: #b0b0b0; stroke-width: 0.8; stroke-linecap: square"/>
     </g>
     <g id="line2d_26">
      <g>
       <use xlink:href="#m530658220a" x="108" y="44.64" style="stroke: #000000; stroke-width: 0.8"/>
      </g>
     </g>
     <g id="text_14">
      <!-- 0 -->
      <g transform="translate(94.6375 48.439219) scale(0.1 -0.1)">
       <use xlink:href="#DejaVuSans-30"/>
      </g>
     </g>
    </g>
    <g id="text_15">
     <!-- Amplitude -->
     <g transform="translate(67.453125 171.062656) rotate(-90) scale(0.1 -0.1)">
      <defs>
       <path id="DejaVuSans-41" d="M 2188 4044 
L 1331 1722 
L 3047 1722 
L 2188 4044 
z
M 1831 4666 
L 2547 4666 
L 4325 0 
L 3669 0 
L 3244 1197 
L 1141 1197 
L 716 0 
L 50 0 
L 1831 4666 
z
" transform="scale(0.015625)"/>
       <path id="DejaVuSans-70" d="M 1159 525 
L 1159 -1331 
L 581 -1331 
L 581 3500 
L 1159 3500 
L 1159 2969 
Q 1341 3281 1617 3432 
Q 1894 3584 2278 3584 
Q 2916 3584 3314 3078 
Q 3713 2572 3713 1747 
Q 3713 922 3314 415 
Q 2916 -91 2278 -91 
Q 1894 -91 1617 61 
Q 1341 213 1159 525 
z
M 3116 1747 
Q 3116 2381 2855 2742 
Q 2594 3103 2138 3103 
Q 1681 3103 1420 2742 
Q 1159 2381 1159 1747 
Q 1159 1113 1420 752 
Q 1681 391 2138 391 
Q 2594 391 2855 752 
Q 3116 1113 3116 1747 
z
" transform="scale(0.015625)"/>
       <path id="DejaVuSans-6c" d="M 603 4863 
L 1178 4863 
L 1178 0 
L 603 0 
L 603 4863 
z
" transform="scale(0.015625)"/>
       <path id="DejaVuSans-74" d="M 1172 4494 
L 1172 3500 
L 2356 3500 
L 2356 3053 
L 1172 3053 
L 1172 1153 
Q 1172 725 1289 603 
Q 1406 481 1766 481 
L 2356 481 
L 2356 0 
L 1766 0 
Q 1100 0 847 248 
Q 594 497 594 1153 
L 594 3053 
L 172 3053 
L 172 3500 
L 594 3500 
L 594 4494 
L 1172 4494 
z
" transform="scale(0.015625)"/>
       <path id="DejaVuSans-75" d="M 544 1381 
L 544 3500 
L 1119 3500 
L 1119 1403 
Q 1119 906 1312 657 
Q 1506 409 1894 409 
Q 2359 409 2629 706 
Q 2900 1003 2900 1516 
L 2900 3500 
L 3475 3500 
L 3475 0 
L 2900 0 
L 2900 538 
Q 2691 219 2414 64 
Q 2138 -91 1772 -91 
Q 1169 -91 856 284 
Q 544 659 544 1381 
z
M 1991 3584 
L 1991 3584 
z
" transform="scale(0.015625)"/>
       <path id="DejaVuSans-64" d="M 2906 2969 
L 2906 4863 
L 3481 4863 
L 3481 0 
L 2906 0 
L 2906 525 
Q 2725 213 2448 61 
Q 2172 -91 1784 -91 
Q 1150 -91 751 415 
Q 353 922 353 1747 
Q 353 2572 751 3078 
Q 1150 3584 1784 3584 
Q 2172 3584 2448 3432 
Q 2725 3281 2906 2969 
z
M 947 1747 
Q 947 1113 1208 752 
Q 1469 391 1925 391 
Q 2381 391 2643 752 
Q 2906 1113 2906 1747 
Q 2906 2381 2643 2742 
Q 2381 3103 1925 3103 
Q 1469 3103 1208 2742 
Q 947 2381 947 1747 
z
" transform="scale(0.015625)"/>
      </defs>
      <use xlink:href="#DejaVuSans-41"/>
      <use xlink:href="#DejaVuSans-6d" x="68.408203"/>
      <use xlink:href="#DejaVuSans-70" x="165.820312"/>
      <use xlink:href="#DejaVuSans-6c" x="229.296875"/>
      <use xlink:href="#DejaVuSans-69" x="257.080078"/>
      <use xlink:href="#DejaVuSans-74" x="284.863281"/>
      <use xlink:href="#DejaVuSans-75" x="324.072266"/>
      <use xlink:href="#DejaVuSans-64" x="387.451172"/>
      <use xlink:href="#DejaVuSans-65" x="450.927734"/>
     </g>
    </g>
   </g>
   <g id="line2d_27">
    <path d="M 121.834711 143.316378 
L 122.325303 44.64 
L 122.815896 44.64 
L 123.306488 47.423665 
L 123.797081 45.891965 
L 124.287674 45.891965 
L 124.778266 47.639652 
L 125.759451 49.507353 
L 126.250044 49.873515 
L 126.740637 50.728358 
L 127.231229 50.823423 
L 127.721822 51.667444 
L 128.212414 51.69449 
L 128.703007 52.180469 
L 129.193599 52.180469 
L 129.684192 52.744765 
L 130.174785 52.899824 
L 130.665377 53.70717 
L 131.15597 54.14906 
L 131.646562 55.370017 
L 132.137155 55.910954 
L 132.627747 56.97986 
L 133.11834 57.700666 
L 133.608933 58.74091 
L 134.099525 59.250402 
L 134.590118 60.113143 
L 135.08071 60.634385 
L 137.043081 63.519064 
L 138.514858 65.549462 
L 139.005451 66.242979 
L 141.949007 69.113433 
L 142.930192 69.638535 
L 145.873747 71.271416 
L 146.36434 71.785905 
L 146.854932 71.896955 
L 147.345525 72.333952 
L 147.836117 72.991784 
L 148.817303 73.541111 
L 149.307895 74.421873 
L 151.760858 77.494609 
L 152.251451 78.496972 
L 152.742043 79.024259 
L 153.723228 80.443818 
L 154.213821 81.832634 
L 155.685599 84.107561 
L 156.176191 85.333874 
L 156.666784 85.858748 
L 157.157376 86.752375 
L 157.647969 86.976968 
L 158.138562 87.37842 
L 158.629154 87.391342 
L 159.119747 87.813434 
L 160.100932 87.709225 
L 160.591525 87.76923 
L 161.57271 87.269232 
L 162.553895 87.345849 
L 165.006858 88.124296 
L 165.988043 88.941697 
L 166.478635 88.941697 
L 167.459821 90.191655 
L 167.950413 90.45868 
L 168.441006 91.450453 
L 168.931598 91.838429 
L 169.422191 92.409876 
L 169.912784 93.904774 
L 170.403376 94.274871 
L 171.384561 95.890439 
L 171.875154 97.45817 
L 173.346932 99.98331 
L 174.328117 101.420101 
L 174.818709 102.011068 
L 175.309302 102.832442 
L 176.290487 102.891361 
L 176.78108 102.742539 
L 177.271672 102.463735 
L 177.762265 101.949467 
L 178.252857 101.945756 
L 178.74345 101.795529 
L 179.234043 101.296415 
L 180.215228 101.371223 
L 180.70582 101.088603 
L 181.196413 101.088603 
L 181.687005 101.230487 
L 182.177598 101.760881 
L 182.668191 101.762367 
L 183.649376 102.481304 
L 184.139968 102.552489 
L 184.630561 102.938041 
L 185.121154 103.505806 
L 185.611746 103.653495 
L 186.102339 105.066201 
L 186.592931 105.806326 
L 187.083524 105.928546 
L 187.574116 107.716827 
L 188.064709 108.473915 
L 189.536487 111.660169 
L 190.027079 113.241195 
L 190.517672 113.775426 
L 191.008264 114.04552 
L 191.498857 116.053777 
L 191.98945 116.235622 
L 192.480042 117.950684 
L 192.970635 117.979571 
L 193.461227 118.861687 
L 193.95182 117.387423 
L 194.442413 117.387423 
L 194.933005 116.357508 
L 195.423598 116.309494 
L 195.91419 115.710771 
L 196.404783 115.466839 
L 196.895375 114.514135 
L 197.385968 114.514135 
L 197.876561 114.625483 
L 198.367153 113.949881 
L 198.857746 113.775253 
L 199.348338 113.775253 
L 199.838931 114.13424 
L 200.820116 114.224303 
L 201.310709 114.970158 
L 201.801301 114.970158 
L 202.291894 115.255702 
L 202.782486 116.238619 
L 203.273079 116.238619 
L 203.763672 117.050594 
L 204.254264 117.050594 
L 204.744857 117.695862 
L 205.235449 118.844984 
L 205.726042 119.391371 
L 206.216634 121.309082 
L 206.707227 121.607617 
L 207.19782 123.849927 
L 207.688412 124.900732 
L 208.179005 125.0003 
L 208.669597 125.830004 
L 209.16019 129.000974 
L 209.650782 129.000974 
L 210.141375 131.948708 
L 210.631968 130.608124 
L 211.12256 130.104746 
L 211.613153 130.104746 
L 212.103745 130.375891 
L 212.594338 127.964233 
L 213.084931 126.314878 
L 213.575523 126.314878 
L 214.066116 126.742069 
L 215.537893 124.706517 
L 216.028486 124.513792 
L 216.519079 124.513792 
L 217.009671 124.340611 
L 217.500264 124.340611 
L 218.972041 125.09083 
L 219.953227 125.042203 
L 220.443819 126.014102 
L 220.934412 126.014102 
L 221.425004 125.580243 
L 221.915597 125.580243 
L 222.40619 128.839382 
L 222.896782 130.141394 
L 223.387375 129.61758 
L 223.877967 129.61758 
L 224.36856 132.963552 
L 224.859152 135.304755 
L 225.349745 136.491474 
L 225.840338 136.574246 
L 226.33093 139.381412 
L 226.821523 135.793504 
L 227.312115 135.793504 
L 227.802708 141.491144 
L 228.293301 142.799756 
L 228.783893 138.599022 
L 229.274486 138.599022 
L 229.765078 139.954063 
L 230.255671 138.869773 
L 230.746263 136.934694 
L 231.236856 135.6949 
L 231.727449 135.066574 
L 232.218041 131.530814 
L 232.708634 131.530814 
L 233.199226 134.001685 
L 233.689819 133.305451 
L 234.180411 133.111658 
L 235.161597 133.191443 
L 235.652189 130.803496 
L 236.142782 130.803496 
L 236.633374 133.319755 
L 237.123967 134.688888 
L 237.61456 134.688888 
L 238.105152 133.554508 
L 238.595745 133.554508 
L 239.086337 135.039074 
L 239.57693 135.215943 
L 240.067522 135.215943 
L 240.558115 136.654206 
L 241.048708 139.043807 
L 241.5393 139.043807 
L 242.520485 142.286439 
L 243.011078 144.389748 
L 243.50167 144.389748 
L 243.992263 145.261761 
L 244.482856 143.675522 
L 244.973448 143.675522 
L 245.464041 144.872018 
L 245.954633 147.670515 
L 246.935819 144.540984 
L 247.426411 141.472562 
L 247.917004 141.472562 
L 248.407596 143.250844 
L 248.898189 139.905363 
L 249.388781 138.873412 
L 249.879374 138.873412 
L 250.369967 143.044614 
L 251.351152 136.74033 
L 251.841744 136.74033 
L 252.332337 139.595485 
L 252.822929 141.109125 
L 253.313522 141.123188 
L 253.804115 137.909923 
L 254.7853 137.96166 
L 255.275892 138.114309 
L 255.766485 140.539672 
L 256.257078 140.073681 
L 256.74767 140.073681 
L 257.238263 140.319348 
L 257.728855 142.482986 
L 258.219448 141.177891 
L 258.71004 141.177891 
L 259.200633 143.535348 
L 259.691226 144.640853 
L 260.181818 145.324764 
L 260.672411 146.366043 
L 261.163003 145.992708 
L 261.653596 142.568157 
L 262.144189 142.568157 
L 263.125374 152.742156 
L 263.615966 145.818719 
L 264.106559 145.818719 
L 264.597151 151.181337 
L 265.087744 145.483272 
L 266.068929 145.470538 
L 266.559522 142.726145 
L 267.050114 142.726145 
L 267.540707 145.251282 
L 268.031299 145.797091 
L 268.521892 145.937061 
L 269.012485 143.247106 
L 269.503077 143.247106 
L 269.99367 146.86543 
L 270.484262 146.107835 
L 270.974855 146.107835 
L 271.465448 142.366214 
L 272.446633 142.336921 
L 272.937225 143.14371 
L 273.427818 141.328792 
L 273.91841 141.328792 
L 274.409003 143.952473 
L 274.899596 142.517005 
L 275.390188 142.517005 
L 275.880781 147.375929 
L 276.371373 147.319252 
L 276.861966 144.088198 
L 277.352558 144.088198 
L 277.843151 150.950641 
L 278.333744 150.950641 
L 278.824336 151.355633 
L 279.314929 152.004338 
L 279.805521 146.970275 
L 280.296114 146.970275 
L 280.786707 150.209379 
L 281.277299 148.413727 
L 282.258484 148.391153 
L 282.749077 148.633451 
L 283.730262 142.548396 
L 284.220855 142.548396 
L 284.711447 151.533182 
L 285.20204 150.484041 
L 285.692632 150.484041 
L 286.183225 151.083139 
L 287.16441 146.179485 
L 287.655003 146.179485 
L 288.145595 149.08917 
L 288.636188 147.73317 
L 289.12678 147.73317 
L 289.617373 149.308345 
L 290.107966 149.308345 
L 290.598558 149.855642 
L 291.089151 148.743076 
L 291.579743 148.743076 
L 292.070336 143.895181 
L 292.560928 143.895181 
L 293.051521 149.099608 
L 293.542114 149.099608 
L 294.032706 152.824294 
L 294.523299 152.824294 
L 295.013891 152.984848 
L 295.504484 153.708295 
L 295.995076 150.850839 
L 296.485669 149.715854 
L 296.976262 148.226498 
L 297.466854 147.965249 
L 297.957447 147.965249 
L 298.448039 150.400908 
L 298.938632 147.537517 
L 299.429225 147.537517 
L 299.919817 151.697405 
L 300.41041 147.307468 
L 300.901002 147.307468 
L 301.391595 154.669775 
L 301.882187 152.866318 
L 302.37278 150.276246 
L 304.33515 150.167717 
L 304.825743 149.256914 
L 305.316336 149.256914 
L 305.806928 150.026801 
L 306.297521 148.789171 
L 306.788113 148.789171 
L 307.278706 149.119194 
L 307.769298 151.030602 
L 308.259891 144.482739 
L 308.750484 144.482739 
L 309.241076 145.880504 
L 309.731669 145.880504 
L 310.222261 151.570712 
L 310.712854 150.351778 
L 311.203446 150.351778 
L 311.694039 148.861115 
L 312.184632 148.610592 
L 312.675224 148.610592 
L 313.165817 152.140429 
L 313.656409 152.140429 
L 314.147002 153.648968 
L 314.637595 151.692865 
L 315.128187 151.692865 
L 315.61878 151.948968 
L 316.109372 149.374503 
L 316.599965 149.374503 
L 317.090557 151.188687 
L 317.58115 150.239995 
L 318.562335 150.138612 
L 319.052928 146.764635 
L 319.54352 146.764635 
L 320.034113 151.250552 
L 320.524705 149.373177 
L 321.015298 148.186813 
L 321.505891 148.186813 
L 321.996483 146.357114 
L 322.487076 146.357114 
L 322.977668 150.263689 
L 323.468261 148.430048 
L 323.958854 148.430048 
L 324.449446 151.912152 
L 324.940039 151.244651 
L 325.430631 151.244651 
L 325.921224 153.45042 
L 326.411816 153.45042 
L 326.902409 153.750795 
L 327.393002 152.64921 
L 327.883594 152.64921 
L 328.374187 151.31708 
L 328.864779 151.31708 
L 329.355372 147.836071 
L 330.336557 147.765791 
L 330.82715 148.981252 
L 331.317742 153.834395 
L 331.808335 151.62942 
L 332.298927 151.62942 
L 332.78952 152.718071 
L 333.280113 151.633944 
L 333.770705 151.633944 
L 334.261298 152.368575 
L 334.75189 152.368575 
L 335.242483 144.684408 
L 335.733075 144.684408 
L 336.223668 151.709519 
L 337.204853 152.966936 
L 337.695446 155.050576 
L 338.186038 150.189924 
L 338.676631 150.189924 
L 339.167223 156.194388 
L 339.657816 150.24696 
L 340.148409 150.24696 
L 340.639001 152.288542 
L 341.129594 153.245828 
L 341.620186 155.01944 
L 342.110779 155.618825 
L 342.601372 147.696996 
L 343.091964 147.696996 
L 343.582557 151.88765 
L 344.073149 150.855167 
L 344.563742 150.855167 
L 345.054334 154.851889 
L 345.544927 154.183309 
L 346.03552 154.183309 
L 346.526112 154.705687 
L 347.016705 151.652052 
L 347.507297 151.652052 
L 347.99789 154.979227 
L 348.488483 154.979227 
L 348.979075 156.436762 
L 349.469668 154.367459 
L 349.96026 152.947416 
L 350.450853 150.668621 
L 350.941445 150.668621 
L 351.432038 150.134458 
L 351.922631 150.134458 
L 352.413223 146.113336 
L 352.903816 146.113336 
L 353.394408 152.72449 
L 354.375593 150.59882 
L 354.866186 150.149694 
L 355.356779 150.149694 
L 355.847371 146.600939 
L 356.337964 146.600939 
L 356.828556 151.964331 
L 357.319149 152.129564 
L 357.809742 155.786265 
L 358.300334 155.786265 
L 358.790927 153.767824 
L 359.281519 153.767824 
L 359.772112 156.572211 
L 360.262704 151.748948 
L 361.24389 146.902227 
L 361.734482 146.902227 
L 362.225075 151.88459 
L 362.715667 150.871043 
L 363.20626 150.871043 
L 363.696852 151.6853 
L 364.187445 151.6853 
L 364.678038 152.14664 
L 365.16863 151.97048 
L 365.659223 151.97048 
L 366.149815 153.340342 
L 366.640408 146.65193 
L 367.131001 146.65193 
L 367.621593 147.498171 
L 368.112186 152.016666 
L 368.602778 152.016666 
L 369.093371 151.642996 
L 369.583963 151.642996 
L 370.074556 147.031629 
L 370.565149 147.031629 
L 371.055741 155.997843 
L 371.546334 155.639667 
L 373.018111 155.624506 
L 373.508704 156.763214 
L 373.999297 194.550477 
L 374.489889 246.24 
L 398.528926 246.24 
L 398.528926 246.24 
" clip-path="url(#p9d114771f6)" style="fill: none; stroke: #800080; stroke-width: 1.5; stroke-linecap: square"/>
   </g>
   <g id="patch_3">
    <path d="M 108 256.32 
L 108 34.56 
" style="fill: none; stroke: #000000; stroke-width: 0.8; stroke-linejoin: miter; stroke-linecap: square"/>
   </g>
   <g id="patch_4">
    <path d="M 412.363636 256.32 
L 412.363636 34.56 
" style="fill: none; stroke: #000000; stroke-width: 0.8; stroke-linejoin: miter; stroke-linecap: square"/>
   </g>
   <g id="patch_5">
    <path d="M 108 256.32 
L 412.363636 256.32 
" style="fill: none; stroke: #000000; stroke-width: 0.8; stroke-linejoin: miter; stroke-linecap: square"/>
   </g>
   <g id="patch_6">
    <path d="M 108 34.56 
L 412.363636 34.56 
" style="fill: none; stroke: #000000; stroke-width: 0.8; stroke-linejoin: miter; stroke-linecap: square"/>
   </g>
   <g id="text_16">
    <!-- Mid Channel Time Peak Envelope -->
    <g transform="translate(160.669006 28.56) scale(0.12 -0.12)">
     <defs>
      <path id="DejaVuSans-4d" d="M 628 4666 
L 1569 4666 
L 2759 1491 
L 3956 4666 
L 4897 4666 
L 4897 0 
L 4281 0 
L 4281 4097 
L 3078 897 
L 2444 897 
L 1241 4097 
L 1241 0 
L 628 0 
L 628 4666 
z
" transform="scale(0.015625)"/>
      <path id="DejaVuSans-43" d="M 4122 4306 
L 4122 3641 
Q 3803 3938 3442 4084 
Q 3081 4231 2675 4231 
Q 1875 4231 1450 3742 
Q 1025 3253 1025 2328 
Q 1025 1406 1450 917 
Q 1875 428 2675 428 
Q 3081 428 3442 575 
Q 3803 722 4122 1019 
L 4122 359 
Q 3791 134 3420 21 
Q 3050 -91 2638 -91 
Q 1578 -91 968 557 
Q 359 1206 359 2328 
Q 359 3453 968 4101 
Q 1578 4750 2638 4750 
Q 3056 4750 3426 4639 
Q 3797 4528 4122 4306 
z
" transform="scale(0.015625)"/>
      <path id="DejaVuSans-68" d="M 3513 2113 
L 3513 0 
L 2938 0 
L 2938 2094 
Q 2938 2591 2744 2837 
Q 2550 3084 2163 3084 
Q 1697 3084 1428 2787 
Q 1159 2491 1159 1978 
L 1159 0 
L 581 0 
L 581 4863 
L 1159 4863 
L 1159 2956 
Q 1366 3272 1645 3428 
Q 1925 3584 2291 3584 
Q 2894 3584 3203 3211 
Q 3513 2838 3513 2113 
z
" transform="scale(0.015625)"/>
      <path id="DejaVuSans-61" d="M 2194 1759 
Q 1497 1759 1228 1600 
Q 959 1441 959 1056 
Q 959 750 1161 570 
Q 1363 391 1709 391 
Q 2188 391 2477 730 
Q 2766 1069 2766 1631 
L 2766 1759 
L 2194 1759 
z
M 3341 1997 
L 3341 0 
L 2766 0 
L 2766 531 
Q 2569 213 2275 61 
Q 1981 -91 1556 -91 
Q 1019 -91 701 211 
Q 384 513 384 1019 
Q 384 1609 779 1909 
Q 1175 2209 1959 2209 
L 2766 2209 
L 2766 2266 
Q 2766 2663 2505 2880 
Q 2244 3097 1772 3097 
Q 1472 3097 1187 3025 
Q 903 2953 641 2809 
L 641 3341 
Q 956 3463 1253 3523 
Q 1550 3584 1831 3584 
Q 2591 3584 2966 3190 
Q 3341 2797 3341 1997 
z
" transform="scale(0.015625)"/>
      <path id="DejaVuSans-6e" d="M 3513 2113 
L 3513 0 
L 2938 0 
L 2938 2094 
Q 2938 2591 2744 2837 
Q 2550 3084 2163 3084 
Q 1697 3084 1428 2787 
Q 1159 2491 1159 1978 
L 1159 0 
L 581 0 
L 581 3500 
L 1159 3500 
L 1159 2956 
Q 1366 3272 1645 3428 
Q 1925 3584 2291 3584 
Q 2894 3584 3203 3211 
Q 3513 2838 3513 2113 
z
" transform="scale(0.015625)"/>
      <path id="DejaVuSans-50" d="M 1259 4147 
L 1259 2394 
L 2053 2394 
Q 2494 2394 2734 2622 
Q 2975 2850 2975 3272 
Q 2975 3691 2734 3919 
Q 2494 4147 2053 4147 
L 1259 4147 
z
M 628 4666 
L 2053 4666 
Q 2838 4666 3239 4311 
Q 3641 3956 3641 3272 
Q 3641 2581 3239 2228 
Q 2838 1875 2053 1875 
L 1259 1875 
L 1259 0 
L 628 0 
L 628 4666 
z
" transform="scale(0.015625)"/>
      <path id="DejaVuSans-6b" d="M 581 4863 
L 1159 4863 
L 1159 1991 
L 2875 3500 
L 3609 3500 
L 1753 1863 
L 3688 0 
L 2938 0 
L 1159 1709 
L 1159 0 
L 581 0 
L 581 4863 
z
" transform="scale(0.015625)"/>
      <path id="DejaVuSans-45" d="M 628 4666 
L 3578 4666 
L 3578 4134 
L 1259 4134 
L 1259 2753 
L 3481 2753 
L 3481 2222 
L 1259 2222 
L 1259 531 
L 3634 531 
L 3634 0 
L 628 0 
L 628 4666 
z
" transform="scale(0.015625)"/>
      <path id="DejaVuSans-76" d="M 191 3500 
L 800 3500 
L 1894 563 
L 2988 3500 
L 3597 3500 
L 2284 0 
L 1503 0 
L 191 3500 
z
" transform="scale(0.015625)"/>
      <path id="DejaVuSans-6f" d="M 1959 3097 
Q 1497 3097 1228 2736 
Q 959 2375 959 1747 
Q 959 1119 1226 758 
Q 1494 397 1959 397 
Q 2419 397 2687 759 
Q 2956 1122 2956 1747 
Q 2956 2369 2687 2733 
Q 2419 3097 1959 3097 
z
M 1959 3584 
Q 2709 3584 3137 3096 
Q 3566 2609 3566 1747 
Q 3566 888 3137 398 
Q 2709 -91 1959 -91 
Q 1206 -91 779 398 
Q 353 888 353 1747 
Q 353 2609 779 3096 
Q 1206 3584 1959 3584 
z
" transform="scale(0.015625)"/>
     </defs>
     <use xlink:href="#DejaVuSans-4d"/>
     <use xlink:href="#DejaVuSans-69" x="86.279297"/>
     <use xlink:href="#DejaVuSans-64" x="114.0625"/>
     <use xlink:href="#DejaVuSans-20" x="177.539062"/>
     <use xlink:href="#DejaVuSans-43" x="209.326172"/>
     <use xlink:href="#DejaVuSans-68" x="279.150391"/>
     <use xlink:href="#DejaVuSans-61" x="342.529297"/>
     <use xlink:href="#DejaVuSans-6e" x="403.808594"/>
     <use xlink:href="#DejaVuSans-6e" x="467.1875"/>
     <use xlink:href="#DejaVuSans-65" x="530.566406"/>
     <use xlink:href="#DejaVuSans-6c" x="592.089844"/>
     <use xlink:href="#DejaVuSans-20" x="619.873047"/>
     <use xlink:href="#DejaVuSans-54" x="651.660156"/>
     <use xlink:href="#DejaVuSans-69" x="709.619141"/>
     <use xlink:href="#DejaVuSans-6d" x="737.402344"/>
     <use xlink:href="#DejaVuSans-65" x="834.814453"/>
     <use xlink:href="#DejaVuSans-20" x="896.337891"/>
     <use xlink:href="#DejaVuSans-50" x="928.125"/>
     <use xlink:href="#DejaVuSans-65" x="984.802734"/>
     <use xlink:href="#DejaVuSans-61" x="1046.326172"/>
     <use xlink:href="#DejaVuSans-6b" x="1107.605469"/>
     <use xlink:href="#DejaVuSans-20" x="1165.515625"/>
     <use xlink:href="#DejaVuSans-45" x="1197.302734"/>
     <use xlink:href="#DejaVuSans-6e" x="1260.486328"/>
     <use xlink:href="#DejaVuSans-76" x="1323.865234"/>
     <use xlink:href="#DejaVuSans-65" x="1383.044922"/>
     <use xlink:href="#DejaVuSans-6c" x="1444.568359"/>
     <use xlink:href="#DejaVuSans-6f" x="1472.351562"/>
     <use xlink:href="#DejaVuSans-70" x="1533.533203"/>
     <use xlink:href="#DejaVuSans-65" x="1597.009766"/>
    </g>
   </g>
  </g>
  <g id="axes_2">
   <g id="patch_7">
    <path d="M 473.236364 256.32 
L 777.6 256.32 
L 777.6 34.56 
L 473.236364 34.56 
z
" style="fill: #ffffff"/>
   </g>
   <g id="matplotlib.axis_3">
    <g id="xtick_8">
     <g id="line2d_28">
      <path d="M 486.580482 256.32 
L 486.580482 34.56 
" clip-path="url(#p19b7372688)" style="fill: none; stroke: #b0b0b0; stroke-width: 0.8; stroke-linecap: square"/>
     </g>
     <g id="line2d_29">
      <g>
       <use xlink:href="#m48411a09f2" x="486.580482" y="256.32" style="stroke: #000000; stroke-width: 0.8"/>
      </g>
     </g>
     <g id="text_17">
      <!-- 0 -->
      <g transform="translate(483.399232 270.918437) scale(0.1 -0.1)">
       <use xlink:href="#DejaVuSans-30"/>
      </g>
     </g>
    </g>
    <g id="xtick_9">
     <g id="line2d_30">
      <path d="M 532.573536 256.32 
L 532.573536 34.56 
" clip-path="url(#p19b7372688)" style="fill: none; stroke: #b0b0b0; stroke-width: 0.8; stroke-linecap: square"/>
     </g>
     <g id="line2d_31">
      <g>
       <use xlink:href="#m48411a09f2" x="532.573536" y="256.32" style="stroke: #000000; stroke-width: 0.8"/>
      </g>
     </g>
     <g id="text_18">
      <!-- 2 -->
      <g transform="translate(529.392286 270.918437) scale(0.1 -0.1)">
       <use xlink:href="#DejaVuSans-32"/>
      </g>
     </g>
    </g>
    <g id="xtick_10">
     <g id="line2d_32">
      <path d="M 578.56659 256.32 
L 578.56659 34.56 
" clip-path="url(#p19b7372688)" style="fill: none; stroke: #b0b0b0; stroke-width: 0.8; stroke-linecap: square"/>
     </g>
     <g id="line2d_33">
      <g>
       <use xlink:href="#m48411a09f2" x="578.56659" y="256.32" style="stroke: #000000; stroke-width: 0.8"/>
      </g>
     </g>
     <g id="text_19">
      <!-- 4 -->
      <g transform="translate(575.38534 270.918437) scale(0.1 -0.1)">
       <use xlink:href="#DejaVuSans-34"/>
      </g>
     </g>
    </g>
    <g id="xtick_11">
     <g id="line2d_34">
      <path d="M 624.559645 256.32 
L 624.559645 34.56 
" clip-path="url(#p19b7372688)" style="fill: none; stroke: #b0b0b0; stroke-width: 0.8; stroke-linecap: square"/>
     </g>
     <g id="line2d_35">
      <g>
       <use xlink:href="#m48411a09f2" x="624.559645" y="256.32" style="stroke: #000000; stroke-width: 0.8"/>
      </g>
     </g>
     <g id="text_20">
      <!-- 6 -->
      <g transform="translate(621.378395 270.918437) scale(0.1 -0.1)">
       <use xlink:href="#DejaVuSans-36"/>
      </g>
     </g>
    </g>
    <g id="xtick_12">
     <g id="line2d_36">
      <path d="M 670.552699 256.32 
L 670.552699 34.56 
" clip-path="url(#p19b7372688)" style="fill: none; stroke: #b0b0b0; stroke-width: 0.8; stroke-linecap: square"/>
     </g>
     <g id="line2d_37">
      <g>
       <use xlink:href="#m48411a09f2" x="670.552699" y="256.32" style="stroke: #000000; stroke-width: 0.8"/>
      </g>
     </g>
     <g id="text_21">
      <!-- 8 -->
      <g transform="translate(667.371449 270.918437) scale(0.1 -0.1)">
       <use xlink:href="#DejaVuSans-38"/>
      </g>
     </g>
    </g>
    <g id="xtick_13">
     <g id="line2d_38">
      <path d="M 716.545753 256.32 
L 716.545753 34.56 
" clip-path="url(#p19b7372688)" style="fill: none; stroke: #b0b0b0; stroke-width: 0.8; stroke-linecap: square"/>
     </g>
     <g id="line2d_39">
      <g>
       <use xlink:href="#m48411a09f2" x="716.545753" y="256.32" style="stroke: #000000; stroke-width: 0.8"/>
      </g>
     </g>
     <g id="text_22">
      <!-- 10 -->
      <g transform="translate(710.183253 270.918437) scale(0.1 -0.1)">
       <use xlink:href="#DejaVuSans-31"/>
       <use xlink:href="#DejaVuSans-30" x="63.623047"/>
      </g>
     </g>
    </g>
    <g id="xtick_14">
     <g id="line2d_40">
      <path d="M 762.538808 256.32 
L 762.538808 34.56 
" clip-path="url(#p19b7372688)" style="fill: none; stroke: #b0b0b0; stroke-width: 0.8; stroke-linecap: square"/>
     </g>
     <g id="line2d_41">
      <g>
       <use xlink:href="#m48411a09f2" x="762.538808" y="256.32" style="stroke: #000000; stroke-width: 0.8"/>
      </g>
     </g>
     <g id="text_23">
      <!-- 12 -->
      <g transform="translate(756.176308 270.918437) scale(0.1 -0.1)">
       <use xlink:href="#DejaVuSans-31"/>
       <use xlink:href="#DejaVuSans-32" x="63.623047"/>
      </g>
     </g>
    </g>
    <g id="text_24">
     <!-- Time (s) -->
     <g transform="translate(605.089276 284.596563) scale(0.1 -0.1)">
      <use xlink:href="#DejaVuSans-54"/>
      <use xlink:href="#DejaVuSans-69" x="57.958984"/>
      <use xlink:href="#DejaVuSans-6d" x="85.742188"/>
      <use xlink:href="#DejaVuSans-65" x="183.154297"/>
      <use xlink:href="#DejaVuSans-20" x="244.677734"/>
      <use xlink:href="#DejaVuSans-28" x="276.464844"/>
      <use xlink:href="#DejaVuSans-73" x="315.478516"/>
      <use xlink:href="#DejaVuSans-29" x="367.578125"/>
     </g>
    </g>
   </g>
   <g id="matplotlib.axis_4">
    <g id="ytick_7">
     <g id="line2d_42">
      <path d="M 473.236364 246.24 
L 777.6 246.24 
" clip-path="url(#p19b7372688)" style="fill: none; stroke: #b0b0b0; stroke-width: 0.8; stroke-linecap: square"/>
     </g>
     <g id="line2d_43">
      <g>
       <use xlink:href="#m530658220a" x="473.236364" y="246.24" style="stroke: #000000; stroke-width: 0.8"/>
      </g>
     </g>
     <g id="text_25">
      <!-- −100 -->
      <g transform="translate(438.769176 250.039219) scale(0.1 -0.1)">
       <use xlink:href="#DejaVuSans-2212"/>
       <use xlink:href="#DejaVuSans-31" x="83.789062"/>
       <use xlink:href="#DejaVuSans-30" x="147.412109"/>
       <use xlink:href="#DejaVuSans-30" x="211.035156"/>
      </g>
     </g>
    </g>
    <g id="ytick_8">
     <g id="line2d_44">
      <path d="M 473.236364 205.92 
L 777.6 205.92 
" clip-path="url(#p19b7372688)" style="fill: none; stroke: #b0b0b0; stroke-width: 0.8; stroke-linecap: square"/>
     </g>
     <g id="line2d_45">
      <g>
       <use xlink:href="#m530658220a" x="473.236364" y="205.92" style="stroke: #000000; stroke-width: 0.8"/>
      </g>
     </g>
     <g id="text_26">
      <!-- −80 -->
      <g transform="translate(445.131676 209.719219) scale(0.1 -0.1)">
       <use xlink:href="#DejaVuSans-2212"/>
       <use xlink:href="#DejaVuSans-38" x="83.789062"/>
       <use xlink:href="#DejaVuSans-30" x="147.412109"/>
      </g>
     </g>
    </g>
    <g id="ytick_9">
     <g id="line2d_46">
      <path d="M 473.236364 165.6 
L 777.6 165.6 
" clip-path="url(#p19b7372688)" style="fill: none; stroke: #b0b0b0; stroke-width: 0.8; stroke-linecap: square"/>
     </g>
     <g id="line2d_47">
      <g>
       <use xlink:href="#m530658220a" x="473.236364" y="165.6" style="stroke: #000000; stroke-width: 0.8"/>
      </g>
     </g>
     <g id="text_27">
      <!-- −60 -->
      <g transform="translate(445.131676 169.399219) scale(0.1 -0.1)">
       <use xlink:href="#DejaVuSans-2212"/>
       <use xlink:href="#DejaVuSans-36" x="83.789062"/>
       <use xlink:href="#DejaVuSans-30" x="147.412109"/>
      </g>
     </g>
    </g>
    <g id="ytick_10">
     <g id="line2d_48">
      <path d="M 473.236364 125.28 
L 777.6 125.28 
" clip-path="url(#p19b7372688)" style="fill: none; stroke: #b0b0b0; stroke-width: 0.8; stroke-linecap: square"/>
     </g>
     <g id="line2d_49">
      <g>
       <use xlink:href="#m530658220a" x="473.236364" y="125.28" style="stroke: #000000; stroke-width: 0.8"/>
      </g>
     </g>
     <g id="text_28">
      <!-- −40 -->
      <g transform="translate(445.131676 129.079219) scale(0.1 -0.1)">
       <use xlink:href="#DejaVuSans-2212"/>
       <use xlink:href="#DejaVuSans-34" x="83.789062"/>
       <use xlink:href="#DejaVuSans-30" x="147.412109"/>
      </g>
     </g>
    </g>
    <g id="ytick_11">
     <g id="line2d_50">
      <path d="M 473.236364 84.96 
L 777.6 84.96 
" clip-path="url(#p19b7372688)" style="fill: none; stroke: #b0b0b0; stroke-width: 0.8; stroke-linecap: square"/>
     </g>
     <g id="line2d_51">
      <g>
       <use xlink:href="#m530658220a" x="473.236364" y="84.96" style="stroke: #000000; stroke-width: 0.8"/>
      </g>
     </g>
     <g id="text_29">
      <!-- −20 -->
      <g transform="translate(445.131676 88.759219) scale(0.1 -0.1)">
       <use xlink:href="#DejaVuSans-2212"/>
       <use xlink:href="#DejaVuSans-32" x="83.789062"/>
       <use xlink:href="#DejaVuSans-30" x="147.412109"/>
      </g>
     </g>
    </g>
    <g id="ytick_12">
     <g id="line2d_52">
      <path d="M 473.236364 44.64 
L 777.6 44.64 
" clip-path="url(#p19b7372688)" style="fill: none; stroke: #b0b0b0; stroke-width: 0.8; stroke-linecap: square"/>
     </g>
     <g id="line2d_53">
      <g>
       <use xlink:href="#m530658220a" x="473.236364" y="44.64" style="stroke: #000000; stroke-width: 0.8"/>
      </g>
     </g>
     <g id="text_30">
      <!-- 0 -->
      <g transform="translate(459.873864 48.439219) scale(0.1 -0.1)">
       <use xlink:href="#DejaVuSans-30"/>
      </g>
     </g>
    </g>
    <g id="text_31">
     <!-- Amplitude -->
     <g transform="translate(432.689489 171.062656) rotate(-90) scale(0.1 -0.1)">
      <use xlink:href="#DejaVuSans-41"/>
      <use xlink:href="#DejaVuSans-6d" x="68.408203"/>
      <use xlink:href="#DejaVuSans-70" x="165.820312"/>
      <use xlink:href="#DejaVuSans-6c" x="229.296875"/>
      <use xlink:href="#DejaVuSans-69" x="257.080078"/>
      <use xlink:href="#DejaVuSans-74" x="284.863281"/>
      <use xlink:href="#DejaVuSans-75" x="324.072266"/>
      <use xlink:href="#DejaVuSans-64" x="387.451172"/>
      <use xlink:href="#DejaVuSans-65" x="450.927734"/>
     </g>
    </g>
   </g>
   <g id="line2d_54">
    <path d="M 487.071074 115.097363 
L 487.561667 47.879108 
L 488.05226 44.64 
L 488.542852 44.64 
L 489.033445 55.788595 
L 489.524037 59.387602 
L 490.01463 59.603264 
L 490.505222 59.603264 
L 491.486408 61.825939 
L 491.977 63.493324 
L 492.467593 63.493324 
L 492.958185 64.164562 
L 493.448778 64.164562 
L 493.93937 63.748224 
L 494.429963 63.748224 
L 494.920556 64.282372 
L 495.411148 64.282372 
L 495.901741 65.482029 
L 496.392333 65.482029 
L 496.882926 66.180049 
L 497.373519 66.180049 
L 497.864111 67.089402 
L 498.354704 67.089402 
L 498.845296 69.450859 
L 499.335889 69.622362 
L 499.826481 70.828317 
L 500.317074 72.419386 
L 500.807667 73.018487 
L 501.298259 75.617204 
L 501.788852 77.198334 
L 502.279444 79.73757 
L 502.770037 80.647117 
L 503.26063 82.944839 
L 503.751222 83.276349 
L 504.241815 83.011318 
L 504.732407 82.377188 
L 505.223 82.377188 
L 505.713592 81.413323 
L 506.204185 81.413323 
L 506.694778 79.486664 
L 507.18537 79.486664 
L 507.675963 79.108069 
L 508.166555 79.108069 
L 508.657148 78.558223 
L 509.14774 78.321758 
L 509.638333 77.928511 
L 510.128926 77.928511 
L 510.619518 78.056066 
L 511.110111 78.068814 
L 511.600703 76.837861 
L 512.091296 76.837861 
L 512.581889 77.860136 
L 513.563074 78.02864 
L 514.053666 78.321758 
L 514.544259 78.321758 
L 515.525444 81.489721 
L 516.016037 82.972854 
L 516.506629 84.095567 
L 516.997222 84.437117 
L 517.487814 84.437117 
L 517.978407 87.834395 
L 518.468999 87.834395 
L 518.959592 91.110383 
L 519.450185 91.679807 
L 519.940777 94.483631 
L 520.43137 94.483631 
L 520.921962 100.668197 
L 521.903148 104.049788 
L 522.884333 98.366013 
L 523.374925 96.504508 
L 523.865518 95.674402 
L 525.337296 95.579217 
L 525.827888 94.874187 
L 526.318481 92.672485 
L 526.809073 92.160994 
L 527.299666 92.160994 
L 527.790258 91.346653 
L 528.280851 91.346653 
L 528.771444 91.690908 
L 529.262036 91.360898 
L 529.752629 91.360898 
L 530.243221 91.641008 
L 530.733814 91.641008 
L 531.224407 91.769242 
L 531.714999 92.184701 
L 532.205592 93.151948 
L 532.696184 94.566987 
L 533.186777 94.566987 
L 533.677369 95.867422 
L 534.167962 96.36228 
L 534.658555 97.425048 
L 535.149147 97.855168 
L 535.63974 100.658215 
L 536.130332 100.99064 
L 536.620925 102.692821 
L 537.111517 102.692821 
L 538.092703 108.097905 
L 538.583295 110.898139 
L 539.073888 112.116309 
L 539.56448 110.228089 
L 540.545666 110.129879 
L 541.036258 107.525278 
L 541.526851 106.546677 
L 542.017443 105.250059 
L 542.508036 104.475341 
L 542.998628 102.083122 
L 543.489221 102.083122 
L 543.979814 103.185634 
L 544.470406 101.443177 
L 544.960999 101.443177 
L 545.451591 101.844302 
L 546.432777 98.972941 
L 546.923369 97.980724 
L 547.413962 97.980724 
L 547.904554 98.312943 
L 548.395147 98.312943 
L 548.885739 99.715434 
L 549.376332 99.715434 
L 549.866925 100.783392 
L 550.84811 100.809254 
L 551.338702 101.146052 
L 551.829295 103.500523 
L 552.319887 103.113323 
L 552.81048 103.113323 
L 553.301073 105.582075 
L 553.791665 106.090752 
L 554.282258 106.090752 
L 554.77285 108.268785 
L 555.263443 108.268785 
L 555.754036 107.669347 
L 556.244628 107.669347 
L 556.735221 112.302412 
L 557.225813 112.874323 
L 557.716406 115.231183 
L 558.206998 110.936554 
L 558.697591 110.936554 
L 559.188184 112.548044 
L 560.169369 112.643877 
L 560.659961 108.296326 
L 561.150554 108.296326 
L 561.641146 108.721492 
L 562.622332 103.73685 
L 563.112924 103.73685 
L 563.603517 106.946271 
L 564.094109 106.946271 
L 564.584702 104.463823 
L 565.075295 104.463823 
L 565.565887 105.586797 
L 566.05648 108.453583 
L 566.547072 106.925869 
L 567.528257 107.032219 
L 568.01885 107.889854 
L 568.509443 107.889854 
L 569.000035 108.338271 
L 570.471813 108.405813 
L 571.452998 112.801448 
L 571.943591 113.48481 
L 572.434183 113.520431 
L 572.924776 114.864809 
L 573.415368 115.162513 
L 574.396554 115.090861 
L 574.887146 113.281383 
L 575.377739 113.281383 
L 575.868331 115.017883 
L 576.358924 115.017883 
L 576.849516 114.265553 
L 577.340109 114.265553 
L 577.830702 110.552383 
L 578.321294 110.552383 
L 578.811887 109.788018 
L 579.302479 109.788018 
L 579.793072 112.384371 
L 580.283664 111.254775 
L 580.774257 110.511047 
L 581.26485 110.511047 
L 581.755442 111.630826 
L 582.246035 109.580364 
L 582.736627 109.580364 
L 583.22722 112.11768 
L 583.717813 110.899418 
L 584.208405 110.899418 
L 584.698998 108.305148 
L 585.18959 108.305148 
L 585.680183 114.493374 
L 586.170775 113.164527 
L 587.151961 113.211176 
L 587.642553 117.541123 
L 588.133146 118.632405 
L 588.623738 118.61451 
L 589.114331 117.32378 
L 589.604924 117.32378 
L 590.095516 118.818404 
L 590.586109 118.818404 
L 591.076701 117.797199 
L 591.567294 117.797199 
L 592.057886 118.854633 
L 592.548479 120.401912 
L 593.039072 117.655518 
L 593.529664 116.459321 
L 594.020257 116.459321 
L 594.510849 114.103522 
L 595.001442 114.103522 
L 595.982627 118.014774 
L 596.963812 117.19869 
L 597.944997 113.961251 
L 598.43559 113.961251 
L 598.926183 115.31987 
L 599.416775 115.31987 
L 599.907368 113.129622 
L 600.39796 113.129622 
L 600.888553 116.710642 
L 601.379145 110.020048 
L 601.869738 110.020048 
L 602.850923 114.108131 
L 603.832108 114.022301 
L 604.322701 115.548577 
L 604.813293 112.248445 
L 605.303886 112.248445 
L 605.794479 114.721015 
L 606.285071 114.721015 
L 606.775664 114.550007 
L 607.266256 114.550007 
L 607.756849 118.151661 
L 608.247442 113.829197 
L 608.738034 113.829197 
L 609.228627 121.132242 
L 609.719219 122.106557 
L 610.209812 119.175903 
L 610.700404 115.349532 
L 611.190997 115.349532 
L 611.68159 116.194239 
L 612.172182 117.444193 
L 612.662775 117.846584 
L 613.153367 115.617106 
L 614.625145 115.662381 
L 615.115738 114.121964 
L 615.60633 114.121964 
L 616.096923 117.397783 
L 616.587515 116.577453 
L 617.078108 115.242654 
L 617.568701 115.242654 
L 618.059293 115.870131 
L 618.549886 115.870131 
L 619.040478 115.142943 
L 619.531071 114.884071 
L 620.021663 114.884071 
L 620.512256 117.757413 
L 621.002849 114.01313 
L 621.493441 113.791434 
L 621.984034 113.791434 
L 622.474626 116.130316 
L 622.965219 114.811947 
L 623.455811 114.811947 
L 623.946404 117.414476 
L 624.436997 117.595415 
L 624.927589 117.595415 
L 625.418182 116.992775 
L 625.908774 116.992775 
L 626.399367 121.270467 
L 626.88996 117.797199 
L 627.380552 115.909254 
L 627.871145 115.909254 
L 628.361737 118.646337 
L 628.85233 116.769568 
L 629.342922 116.769568 
L 629.833515 123.628869 
L 630.324108 117.182201 
L 630.8147 117.182201 
L 631.305293 115.085986 
L 631.795885 115.085986 
L 632.286478 119.58071 
L 632.777071 117.940036 
L 633.267663 117.940036 
L 633.758256 118.22731 
L 634.248848 117.736608 
L 634.739441 117.736608 
L 635.230033 117.032675 
L 635.720626 115.793839 
L 636.211219 115.793839 
L 636.701811 117.982157 
L 637.192404 119.425987 
L 637.682996 119.153345 
L 638.173589 118.572824 
L 638.664181 115.257414 
L 639.154774 114.808748 
L 639.645367 114.808748 
L 640.135959 118.174902 
L 640.626552 118.174902 
L 641.117144 121.428453 
L 641.607737 120.728478 
L 642.09833 118.338465 
L 642.588922 117.416332 
L 643.079515 117.416332 
L 643.570107 119.700828 
L 644.0607 119.700828 
L 644.551292 118.74617 
L 645.041885 118.74617 
L 645.532478 117.616052 
L 646.02307 117.616052 
L 646.513663 117.808583 
L 647.004255 117.366293 
L 647.494848 115.481977 
L 647.98544 112.447141 
L 648.966626 112.431777 
L 649.457218 113.952112 
L 649.947811 114.268654 
L 650.438403 113.51746 
L 650.928996 110.884074 
L 651.419589 110.884074 
L 651.910181 108.709071 
L 653.381959 108.806417 
L 653.872551 110.942964 
L 654.363144 110.942964 
L 654.853737 112.046515 
L 655.344329 112.271949 
L 655.834922 113.061467 
L 656.325514 118.340421 
L 656.816107 118.340421 
L 657.306699 114.760839 
L 657.797292 114.760839 
L 658.287885 113.794452 
L 658.778477 113.794452 
L 659.26907 113.917122 
L 659.759662 113.917122 
L 660.250255 121.573752 
L 660.740848 116.886217 
L 662.212625 116.796418 
L 662.703218 116.133765 
L 663.19381 116.133765 
L 663.684403 116.424212 
L 664.174996 117.371846 
L 664.665588 117.371846 
L 665.156181 118.348249 
L 665.646773 120.404114 
L 666.137366 116.744545 
L 666.627959 116.744545 
L 667.118551 119.80475 
L 667.609144 118.642355 
L 668.099736 118.642355 
L 668.590329 114.523241 
L 669.080921 114.523241 
L 669.571514 118.066704 
L 670.062107 115.797223 
L 670.552699 115.797223 
L 671.043292 116.418951 
L 671.533884 116.418951 
L 672.024477 116.850242 
L 672.515069 116.850242 
L 673.005662 120.915592 
L 673.496255 120.077004 
L 673.986847 120.077004 
L 674.47744 122.568687 
L 674.968032 121.201218 
L 675.458625 121.201218 
L 675.949218 119.690258 
L 676.43981 114.548432 
L 676.930403 114.548432 
L 677.420995 116.051167 
L 677.911588 116.051167 
L 678.40218 123.673914 
L 678.892773 123.673914 
L 679.383366 120.890679 
L 679.873958 120.005853 
L 680.364551 120.005853 
L 680.855143 114.471399 
L 681.345736 114.471399 
L 681.836328 118.740164 
L 682.326921 116.789254 
L 682.817514 116.284474 
L 683.308106 114.61473 
L 683.798699 114.61473 
L 684.289291 114.775198 
L 684.779884 115.875229 
L 685.270477 115.875229 
L 685.761069 115.102241 
L 686.251662 115.102241 
L 686.742254 116.192508 
L 687.232847 121.104727 
L 687.723439 118.531238 
L 688.214032 118.531238 
L 688.704625 112.31905 
L 689.195217 112.31905 
L 690.176402 119.971459 
L 690.666995 119.494817 
L 691.157587 116.522696 
L 691.64818 116.522696 
L 692.629365 118.984059 
L 693.119958 118.984059 
L 693.61055 123.428894 
L 694.101143 120.647938 
L 694.591736 120.647938 
L 695.082328 120.836445 
L 695.572921 120.233254 
L 696.554106 120.252884 
L 697.044698 122.42728 
L 698.025884 122.348392 
L 698.516476 121.28898 
L 699.007069 121.28898 
L 699.497661 119.645935 
L 699.988254 118.971884 
L 700.478846 115.465367 
L 700.969439 115.079489 
L 701.460032 115.079489 
L 701.950624 117.514974 
L 702.441217 117.514974 
L 702.931809 118.706168 
L 703.422402 117.616052 
L 703.912995 116.151022 
L 704.403587 116.151022 
L 705.384772 120.96098 
L 705.875365 122.294362 
L 706.365957 121.444797 
L 706.85655 121.129947 
L 708.328328 121.029284 
L 708.81892 122.345932 
L 709.309513 117.434901 
L 709.800106 116.582761 
L 710.290698 116.582761 
L 710.781291 122.096856 
L 711.271883 120.543343 
L 711.762476 120.543343 
L 712.253068 122.683643 
L 712.743661 122.442112 
L 713.234254 122.442112 
L 713.724846 122.621073 
L 714.215439 121.328384 
L 714.706031 121.328384 
L 715.196624 120.741938 
L 715.687216 120.741938 
L 716.177809 120.886153 
L 716.668402 124.656083 
L 717.158994 118.574807 
L 717.649587 116.5863 
L 718.140179 116.5863 
L 718.630772 118.911139 
L 719.121365 118.911139 
L 720.10255 120.565545 
L 720.593142 121.196611 
L 721.083735 121.196611 
L 721.574327 112.642464 
L 722.06492 112.642464 
L 722.555513 115.667419 
L 723.046105 119.45307 
L 723.536698 119.355354 
L 724.02729 118.346291 
L 725.008475 118.410997 
L 725.499068 119.608033 
L 725.989661 119.608033 
L 726.480253 120.375521 
L 726.970846 122.306627 
L 727.461438 121.604371 
L 727.952031 121.604371 
L 728.442624 122.887919 
L 728.933216 120.483538 
L 729.914401 120.581103 
L 730.404994 119.728339 
L 730.895586 119.728339 
L 731.386179 117.533648 
L 731.876772 117.027229 
L 732.367364 117.027229 
L 732.857957 121.906349 
L 733.348549 121.706034 
L 733.839142 121.706034 
L 734.329734 119.208768 
L 734.820327 117.59354 
L 735.31092 117.59354 
L 735.801512 116.008301 
L 736.292105 116.008301 
L 736.782697 117.485137 
L 737.27329 121.097855 
L 737.763883 120.741938 
L 738.254475 120.741938 
L 738.745068 124.452419 
L 739.23566 150.067248 
L 739.726253 246.24 
L 763.765289 246.24 
L 763.765289 246.24 
" clip-path="url(#p19b7372688)" style="fill: none; stroke: #ffa500; stroke-width: 1.5; stroke-linecap: square"/>
   </g>
   <g id="patch_8">
    <path d="M 473.236364 256.32 
L 473.236364 34.56 
" style="fill: none; stroke: #000000; stroke-width: 0.8; stroke-linejoin: miter; stroke-linecap: square"/>
   </g>
   <g id="patch_9">
    <path d="M 777.6 256.32 
L 777.6 34.56 
" style="fill: none; stroke: #000000; stroke-width: 0.8; stroke-linejoin: miter; stroke-linecap: square"/>
   </g>
   <g id="patch_10">
    <path d="M 473.236364 256.32 
L 777.6 256.32 
" style="fill: none; stroke: #000000; stroke-width: 0.8; stroke-linejoin: miter; stroke-linecap: square"/>
   </g>
   <g id="patch_11">
    <path d="M 473.236364 34.56 
L 777.6 34.56 
" style="fill: none; stroke: #000000; stroke-width: 0.8; stroke-linejoin: miter; stroke-linecap: square"/>
   </g>
   <g id="text_32">
    <!-- Side Channel Time Peak Envelope -->
    <g transform="translate(523.581307 28.56) scale(0.12 -0.12)">
     <defs>
      <path id="DejaVuSans-53" d="M 3425 4513 
L 3425 3897 
Q 3066 4069 2747 4153 
Q 2428 4238 2131 4238 
Q 1616 4238 1336 4038 
Q 1056 3838 1056 3469 
Q 1056 3159 1242 3001 
Q 1428 2844 1947 2747 
L 2328 2669 
Q 3034 2534 3370 2195 
Q 3706 1856 3706 1288 
Q 3706 609 3251 259 
Q 2797 -91 1919 -91 
Q 1588 -91 1214 -16 
Q 841 59 441 206 
L 441 856 
Q 825 641 1194 531 
Q 1563 422 1919 422 
Q 2459 422 2753 634 
Q 3047 847 3047 1241 
Q 3047 1584 2836 1778 
Q 2625 1972 2144 2069 
L 1759 2144 
Q 1053 2284 737 2584 
Q 422 2884 422 3419 
Q 422 4038 858 4394 
Q 1294 4750 2059 4750 
Q 2388 4750 2728 4690 
Q 3069 4631 3425 4513 
z
" transform="scale(0.015625)"/>
     </defs>
     <use xlink:href="#DejaVuSans-53"/>
     <use xlink:href="#DejaVuSans-69" x="63.476562"/>
     <use xlink:href="#DejaVuSans-64" x="91.259766"/>
     <use xlink:href="#DejaVuSans-65" x="154.736328"/>
     <use xlink:href="#DejaVuSans-20" x="216.259766"/>
     <use xlink:href="#DejaVuSans-43" x="248.046875"/>
     <use xlink:href="#DejaVuSans-68" x="317.871094"/>
     <use xlink:href="#DejaVuSans-61" x="381.25"/>
     <use xlink:href="#DejaVuSans-6e" x="442.529297"/>
     <use xlink:href="#DejaVuSans-6e" x="505.908203"/>
     <use xlink:href="#DejaVuSans-65" x="569.287109"/>
     <use xlink:href="#DejaVuSans-6c" x="630.810547"/>
     <use xlink:href="#DejaVuSans-20" x="658.59375"/>
     <use xlink:href="#DejaVuSans-54" x="690.380859"/>
     <use xlink:href="#DejaVuSans-69" x="748.339844"/>
     <use xlink:href="#DejaVuSans-6d" x="776.123047"/>
     <use xlink:href="#DejaVuSans-65" x="873.535156"/>
     <use xlink:href="#DejaVuSans-20" x="935.058594"/>
     <use xlink:href="#DejaVuSans-50" x="966.845703"/>
     <use xlink:href="#DejaVuSans-65" x="1023.523438"/>
     <use xlink:href="#DejaVuSans-61" x="1085.046875"/>
     <use xlink:href="#DejaVuSans-6b" x="1146.326172"/>
     <use xlink:href="#DejaVuSans-20" x="1204.236328"/>
     <use xlink:href="#DejaVuSans-45" x="1236.023438"/>
     <use xlink:href="#DejaVuSans-6e" x="1299.207031"/>
     <use xlink:href="#DejaVuSans-76" x="1362.585938"/>
     <use xlink:href="#DejaVuSans-65" x="1421.765625"/>
     <use xlink:href="#DejaVuSans-6c" x="1483.289062"/>
     <use xlink:href="#DejaVuSans-6f" x="1511.072266"/>
     <use xlink:href="#DejaVuSans-70" x="1572.253906"/>
     <use xlink:href="#DejaVuSans-65" x="1635.730469"/>
    </g>
   </g>
  </g>
 </g>
 <defs>
  <clipPath id="p9d114771f6">
   <rect x="108" y="34.56" width="304.363636" height="221.76"/>
  </clipPath>
  <clipPath id="p19b7372688">
   <rect x="473.236364" y="34.56" width="304.363636" height="221.76"/>
  </clipPath>
 </defs>
</svg>
